{
  "rewardEpochId": 2817,
  "rewardClaims": [
    {
      "merkleProof": [
        "0x44aeb9e151b498e582831671383430056b77d3a2eaa59b1d90ae1b6863afbde7",
        "0xe377731d5373f8a8b81f08070cb1821e01c2c1b8857882e19d8808591ba9ecad",
        "0x0e99744e2e020abe5b1e01a230fbd8d29b88a6f0a739d3d38c11bc3e452a571c",
        "0x028201a944a0c9e9caf38eb551c347f194243fd26149d0c6feefc7f6113867a6",
        "0x37d5f589f20c1448ed711fa1f38dd459dbfc2a37a8a7b9428629bbb0953706ff"
      ],
      "body": {
        "beneficiary": "0x000000000000000000000000000000000000dead",
        "claimType": 0,
        "amount": "18061398792099251536379",
        "rewardEpochId": 2817
      }
    },
    {
      "merkleProof": [
        "0x8667edb01bdc5503a54b0c760e6d23474490b2b1ce6d5172f6934a7a641bfa52",
        "0x67ef661cd7e24925c92a914a955bda197886c589a2a4ca9182cb34e75dbfda94",
        "0x60cc3f3ea960af931105faf5d996a0f7aa2011acc0db5da9f0408873744cac18",
        "0xc88a2841054dcbcd86115e87ecdfb9b1be22ff4de34d5733a9e3beef1b3997aa",
        "0xd5a71ad4d6220fb871ec62762f9158eedf83674b95223326169f4d2b6fbf0c9a"
      ],
      "body": {
        "beneficiary": "0x25f42def3fcc078de8895cd01de8ab6514020548",
        "claimType": 1,
        "amount": "3757402426497180323",
        "rewardEpochId": 2817
      }
    },
    {
      "merkleProof": [
        "0xe3832e2b438dfb2cefd669c87515d3e70929b9a1d37ef9014715a8d972ea6c69",
        "0x02d5465d67d7efd7b2a2bbab272adfb76826a2e45805a8285ffa91a197ce9df1",
        "0x91d8bc37757da62083dbf5650a0df089c48449e173a7486eb4ef1422bb8030b4",
        "0x067ef0a2ed21845300ad68dd4b19ee8518a4920eeb6f1dc27f44ad94d498e8bc",
        "0x98f1bb8a5f8cb3831d0e0e2f460085e33b71f2a7a78cba9d5fc0a7d95c3a3862",
        "0x37d5f589f20c1448ed711fa1f38dd459dbfc2a37a8a7b9428629bbb0953706ff"
      ],
      "body": {
        "beneficiary": "0x256194ca4884dbe2933862f0e9f7e0e4d411eb35",
        "claimType": 2,
        "amount": "1850057521687853359170",
        "rewardEpochId": 2817
      }
    },
    {
      "merkleProof": [
        "0x1970aa8a50076ff2133e891ab645e1ce05ec9ca82d64ff17d2c0de5d0ea49d8d",
        "0xec0fdedad6536a74291aceb90c3ff00fd02c1bdf76fa11da1d1d7c50370f4b26",
        "0x067ef0a2ed21845300ad68dd4b19ee8518a4920eeb6f1dc27f44ad94d498e8bc",
        "0x98f1bb8a5f8cb3831d0e0e2f460085e33b71f2a7a78cba9d5fc0a7d95c3a3862",
        "0x37d5f589f20c1448ed711fa1f38dd459dbfc2a37a8a7b9428629bbb0953706ff"
      ],
      "body": {
        "beneficiary": "0x1d415d28380ff51a507f7b176ca5f27833f7fffd",
        "claimType": 1,
        "amount": "184650356637268983286",
        "rewardEpochId": 2817
      }
    },
    {
      "merkleProof": [
        "0xa088f3227d10ecca8d0c2d28a1ee08de61822939a677e4132db4e0ff9ac45b18",
        "0xf023dee6a94bccf6646a098156fd14271b350d9a28b7239d61fe62005953ef32",
        "0xc9c6b4728dbe4e86eae2e8aa810cb8bf42158a4f135367f61254353e3e7623f6",
        "0x82f5d3b568cb5a31268bd5289c08968fa9e125024d2b8cd44c0511d131bfc9b6",
        "0xd5a71ad4d6220fb871ec62762f9158eedf83674b95223326169f4d2b6fbf0c9a"
      ],
      "body": {
        "beneficiary": "0xb849b93b585effb7ce4b522ff88d9b3b24955f24",
        "claimType": 2,
        "amount": "738601426549075933479",
        "rewardEpochId": 2817
      }
    },
    {
      "merkleProof": [
        "0xeaba7e1c01887058f0c5eb72b3b4d4863e08fa42e07e22e4e49bf27c964e2b44",
        "0xb5110f1e85d2f200294925edc51b3498211f22ffc50aef7511ced57c87d039e7",
        "0x91d8bc37757da62083dbf5650a0df089c48449e173a7486eb4ef1422bb8030b4",
        "0x067ef0a2ed21845300ad68dd4b19ee8518a4920eeb6f1dc27f44ad94d498e8bc",
        "0x98f1bb8a5f8cb3831d0e0e2f460085e33b71f2a7a78cba9d5fc0a7d95c3a3862",
        "0x37d5f589f20c1448ed711fa1f38dd459dbfc2a37a8a7b9428629bbb0953706ff"
      ],
      "body": {
        "beneficiary": "0x2e46e8d1f3636f7036978d054b0a07e7395053c8",
        "claimType": 1,
        "amount": "590032816340037103906",
        "rewardEpochId": 2817
      }
    },
    {
      "merkleProof": [
        "0xa0724b4c785aaf013623c0414489e400c0786ba6b72f1eed99c39a17d322b51d",
        "0xf023dee6a94bccf6646a098156fd14271b350d9a28b7239d61fe62005953ef32",
        "0xc9c6b4728dbe4e86eae2e8aa810cb8bf42158a4f135367f61254353e3e7623f6",
        "0x82f5d3b568cb5a31268bd5289c08968fa9e125024d2b8cd44c0511d131bfc9b6",
        "0xd5a71ad4d6220fb871ec62762f9158eedf83674b95223326169f4d2b6fbf0c9a"
      ],
      "body": {
        "beneficiary": "0xe80c39eae57c0359ee6c4086e2b22300353728e1",
        "claimType": 2,
        "amount": "2360131265360148416102",
        "rewardEpochId": 2817
      }
    },
    {
      "merkleProof": [
        "0x0758deaa7ae1fe78b9c71a27c5a8e746cb0ed9a84e7317d58f1883a3d2b8913f",
        "0x2aef43ec2246bff386b0b7a5d41632c7209d96e80a40329fc800addeacb97fdb",
        "0x6ac2a2af06ce14e5e32162e47ddc5a9ce114078dbeebee63bd95c26d7e987659",
        "0x98f1bb8a5f8cb3831d0e0e2f460085e33b71f2a7a78cba9d5fc0a7d95c3a3862",
        "0x37d5f589f20c1448ed711fa1f38dd459dbfc2a37a8a7b9428629bbb0953706ff"
      ],
      "body": {
        "beneficiary": "0xf0b444bdc5522e908ff903e3f1730b5ab60b610a",
        "claimType": 1,
        "amount": "544308494939599973279",
        "rewardEpochId": 2817
      }
    },
    {
      "merkleProof": [
        "0xa025298913ce9ece06a61c5f38a5c0304fe97cf1f9e65b29546907ca7b2d2bcc",
        "0xc257f986f55c26fc934ddaa121233e55621df33dda909acab46ebccf68f64fed",
        "0xc9c6b4728dbe4e86eae2e8aa810cb8bf42158a4f135367f61254353e3e7623f6",
        "0x82f5d3b568cb5a31268bd5289c08968fa9e125024d2b8cd44c0511d131bfc9b6",
        "0xd5a71ad4d6220fb871ec62762f9158eedf83674b95223326169f4d2b6fbf0c9a"
      ],
      "body": {
        "beneficiary": "0x07f5053c867ae107db15a38aa4421b2c24ac4e51",
        "claimType": 2,
        "amount": "2177233979758399893691",
        "rewardEpochId": 2817
      }
    },
    {
      "merkleProof": [
        "0xa48c1128f62325b1e8e1dcf14f8a188a3e1df3710e969aa648c02a2420e26d8e",
        "0x8972a7c27c306ab784d800254bc2b48497a4be5d12c919e56b4a401fd9a41e44",
        "0xdde58cdf39d16937067c47161afbb6ef3e8dd71acd4668e38109a94c8ff1cdc5",
        "0x82f5d3b568cb5a31268bd5289c08968fa9e125024d2b8cd44c0511d131bfc9b6",
        "0xd5a71ad4d6220fb871ec62762f9158eedf83674b95223326169f4d2b6fbf0c9a"
      ],
      "body": {
        "beneficiary": "0xc6cb03a22213a3e02186a3126d47c7fba20e4ef5",
        "claimType": 1,
        "amount": "737850521472333200662",
        "rewardEpochId": 2817
      }
    },
    {
      "merkleProof": [
        "0x99649bd9667efc6100dfd3fa8845610aaec5c47c5752ec2cffa73dcc6ea14dec",
        "0x6196abe2bfaa364bb78dfa58e62c4b4b38be93ce579ebfc13d3afe2056047d90",
        "0x9e446731bce8b69176f45fbb9fe88b97df466f9893a78c11f8afe5385f8c6623",
        "0xc88a2841054dcbcd86115e87ecdfb9b1be22ff4de34d5733a9e3beef1b3997aa",
        "0xd5a71ad4d6220fb871ec62762f9158eedf83674b95223326169f4d2b6fbf0c9a"
      ],
      "body": {
        "beneficiary": "0xabaa1718c2d80fc037bf66e3f66f0975d67431a9",
        "claimType": 2,
        "amount": "2951402085889332803238",
        "rewardEpochId": 2817
      }
    },
    {
      "merkleProof": [
        "0x5f74c8c5094d869455cbda47cafad74b7b12b1144a0f64649dc95e00dc7852ba",
        "0x62c50f171dc2fbb3a9885e4069d0b943d2e21bffb01c63a57ed41a9d57fcbc20",
        "0x8815a36b3e828ac5fb484fae3a63e4491b4cc3043e716cc89229f4b29ee1fe82",
        "0x028201a944a0c9e9caf38eb551c347f194243fd26149d0c6feefc7f6113867a6",
        "0x37d5f589f20c1448ed711fa1f38dd459dbfc2a37a8a7b9428629bbb0953706ff"
      ],
      "body": {
        "beneficiary": "0x437d15fad24dc5fe77384c34e24ee0b4c2607d79",
        "claimType": 1,
        "amount": "302770498274378042",
        "rewardEpochId": 2817
      }
    },
    {
      "merkleProof": [
        "0x9e99ea92d0bc6f8e36db7cd3583c2baa424af485f4b24a646f5e6b237aa3340f",
        "0xc257f986f55c26fc934ddaa121233e55621df33dda909acab46ebccf68f64fed",
        "0xc9c6b4728dbe4e86eae2e8aa810cb8bf42158a4f135367f61254353e3e7623f6",
        "0x82f5d3b568cb5a31268bd5289c08968fa9e125024d2b8cd44c0511d131bfc9b6",
        "0xd5a71ad4d6220fb871ec62762f9158eedf83674b95223326169f4d2b6fbf0c9a"
      ],
      "body": {
        "beneficiary": "0xd88833424225068867309e0ec02999883c14dc77",
        "claimType": 2,
        "amount": "150175062002911788598",
        "rewardEpochId": 2817
      }
    },
    {
      "merkleProof": [
        "0x76fd9f045c005e404c379a07536fe19e415f87b4550f9f7a92990c016c1c88f3",
        "0xd236f8f4052eb94874a9f5ea07aad9dd01761ecd36db917fbcde9c87df32325d",
        "0x60cc3f3ea960af931105faf5d996a0f7aa2011acc0db5da9f0408873744cac18",
        "0xc88a2841054dcbcd86115e87ecdfb9b1be22ff4de34d5733a9e3beef1b3997aa",
        "0xd5a71ad4d6220fb871ec62762f9158eedf83674b95223326169f4d2b6fbf0c9a"
      ],
      "body": {
        "beneficiary": "0x0bed169e74037b66a2e1c1a4937c285057773dbb",
        "claimType": 1,
        "amount": "2122074491544918699",
        "rewardEpochId": 2817
      }
    },
    {
      "merkleProof": [
        "0x2dcbacad32f23084a6bf889cd84c7321c9eca79c0f583b158708df2205697baf",
        "0x0c89df1973a8e644e84ec91cada0a6d66e31c09e1073cb86d5d74de2ae5959d8",
        "0x0e99744e2e020abe5b1e01a230fbd8d29b88a6f0a739d3d38c11bc3e452a571c",
        "0x028201a944a0c9e9caf38eb551c347f194243fd26149d0c6feefc7f6113867a6",
        "0x37d5f589f20c1448ed711fa1f38dd459dbfc2a37a8a7b9428629bbb0953706ff"
      ],
      "body": {
        "beneficiary": "0xbc9a659af696a4d7375b104db8e5189b54f9d2b3",
        "claimType": 2,
        "amount": "1046671419521724977783",
        "rewardEpochId": 2817
      }
    },
    {
      "merkleProof": [
        "0x317640bdaf37f185cc4589fc6cf58aaf4771a200c0996c88862108afd782bd0a",
        "0x0c89df1973a8e644e84ec91cada0a6d66e31c09e1073cb86d5d74de2ae5959d8",
        "0x0e99744e2e020abe5b1e01a230fbd8d29b88a6f0a739d3d38c11bc3e452a571c",
        "0x028201a944a0c9e9caf38eb551c347f194243fd26149d0c6feefc7f6113867a6",
        "0x37d5f589f20c1448ed711fa1f38dd459dbfc2a37a8a7b9428629bbb0953706ff"
      ],
      "body": {
        "beneficiary": "0xadf3a9a6494b8c1a24f0eec5d44a388afc10df09",
        "claimType": 1,
        "amount": "12108471558483262091",
        "rewardEpochId": 2817
      }
    },
    {
      "merkleProof": [
        "0x8283bc1319a8263cf4b8cff2837447b0be7a802ca0834acc4c006530674d4c16",
        "0xd236f8f4052eb94874a9f5ea07aad9dd01761ecd36db917fbcde9c87df32325d",
        "0x60cc3f3ea960af931105faf5d996a0f7aa2011acc0db5da9f0408873744cac18",
        "0xc88a2841054dcbcd86115e87ecdfb9b1be22ff4de34d5733a9e3beef1b3997aa",
        "0xd5a71ad4d6220fb871ec62762f9158eedf83674b95223326169f4d2b6fbf0c9a"
      ],
      "body": {
        "beneficiary": "0xf75a67d060f28f269d3f7a51fdb2859e7d6a4d78",
        "claimType": 2,
        "amount": "385246955039071749056",
        "rewardEpochId": 2817
      }
    },
    {
      "merkleProof": [
        "0xf1aa10a24f1f1945ecb75d47b22b0163a7401a32d990fa104d40d6cbda26df7e",
        "0x0640ecc7d018adb7f630884b1a880206d56daed2b3452808c063cd70025a43ee",
        "0xec0fdedad6536a74291aceb90c3ff00fd02c1bdf76fa11da1d1d7c50370f4b26",
        "0x067ef0a2ed21845300ad68dd4b19ee8518a4920eeb6f1dc27f44ad94d498e8bc",
        "0x98f1bb8a5f8cb3831d0e0e2f460085e33b71f2a7a78cba9d5fc0a7d95c3a3862",
        "0x37d5f589f20c1448ed711fa1f38dd459dbfc2a37a8a7b9428629bbb0953706ff"
      ],
      "body": {
        "beneficiary": "0x9181f8ed4381ce39dbf4b8336b6295de89527c46",
        "claimType": 1,
        "amount": "780941314756901423",
        "rewardEpochId": 2817
      }
    },
    {
      "merkleProof": [
        "0xe4acadee743d9a6638473115d1e46c3a9dd37c9591c07179f6f98c12297f784c",
        "0xb5110f1e85d2f200294925edc51b3498211f22ffc50aef7511ced57c87d039e7",
        "0x91d8bc37757da62083dbf5650a0df089c48449e173a7486eb4ef1422bb8030b4",
        "0x067ef0a2ed21845300ad68dd4b19ee8518a4920eeb6f1dc27f44ad94d498e8bc",
        "0x98f1bb8a5f8cb3831d0e0e2f460085e33b71f2a7a78cba9d5fc0a7d95c3a3862",
        "0x37d5f589f20c1448ed711fa1f38dd459dbfc2a37a8a7b9428629bbb0953706ff"
      ],
      "body": {
        "beneficiary": "0x884cde7b5f2f0a9ee28f90ce1d4aa526373b3e2c",
        "claimType": 2,
        "amount": "388647239529871453123",
        "rewardEpochId": 2817
      }
    },
    {
      "merkleProof": [
        "0x98c0738eaab7e4e956736af34f75569f8d1be396d2a6438be49bdf072434f1a3",
        "0x6196abe2bfaa364bb78dfa58e62c4b4b38be93ce579ebfc13d3afe2056047d90",
        "0x9e446731bce8b69176f45fbb9fe88b97df466f9893a78c11f8afe5385f8c6623",
        "0xc88a2841054dcbcd86115e87ecdfb9b1be22ff4de34d5733a9e3beef1b3997aa",
        "0xd5a71ad4d6220fb871ec62762f9158eedf83674b95223326169f4d2b6fbf0c9a"
      ],
      "body": {
        "beneficiary": "0x0dd018692f98a7894ecc7ba90cfb8f93a19159d3",
        "claimType": 1,
        "amount": "27635143816088168",
        "rewardEpochId": 2817
      }
    },
    {
      "merkleProof": [
        "0x29df1ea7374f0b345ab0018dc2ec5a72f058afb76ab65c52ec9521acb909217a",
        "0x264837f894a3a7f3b835c6d5a3284382991f9d5be372089a7dd24f9333aeb769",
        "0x6ac2a2af06ce14e5e32162e47ddc5a9ce114078dbeebee63bd95c26d7e987659",
        "0x98f1bb8a5f8cb3831d0e0e2f460085e33b71f2a7a78cba9d5fc0a7d95c3a3862",
        "0x37d5f589f20c1448ed711fa1f38dd459dbfc2a37a8a7b9428629bbb0953706ff"
      ],
      "body": {
        "beneficiary": "0x612cff400ee27c91b956c45f4c50e61b55312430",
        "claimType": 2,
        "amount": "110540575264352856",
        "rewardEpochId": 2817
      }
    },
    {
      "merkleProof": [
        "0xc1ca646331aae0d1f1cb95df6554f2f099d2ec07d7f0a84f2851ace3bb9881d7",
        "0x2109eae2b9281f3924fd52082de0e39df80d06cfff6b4e26c71d212a069ece9c",
        "0xdde58cdf39d16937067c47161afbb6ef3e8dd71acd4668e38109a94c8ff1cdc5",
        "0x82f5d3b568cb5a31268bd5289c08968fa9e125024d2b8cd44c0511d131bfc9b6",
        "0xd5a71ad4d6220fb871ec62762f9158eedf83674b95223326169f4d2b6fbf0c9a"
      ],
      "body": {
        "beneficiary": "0xca84d6086c5b32212a0cf1638803355d7be31482",
        "claimType": 1,
        "amount": "444252979790111808683",
        "rewardEpochId": 2817
      }
    },
    {
      "merkleProof": [
        "0x42a022d3da0dd6a7d0da9bfdcba0ad91e17dd36a768ecb00a124f091a6c16c74",
        "0xe377731d5373f8a8b81f08070cb1821e01c2c1b8857882e19d8808591ba9ecad",
        "0x0e99744e2e020abe5b1e01a230fbd8d29b88a6f0a739d3d38c11bc3e452a571c",
        "0x028201a944a0c9e9caf38eb551c347f194243fd26149d0c6feefc7f6113867a6",
        "0x37d5f589f20c1448ed711fa1f38dd459dbfc2a37a8a7b9428629bbb0953706ff"
      ],
      "body": {
        "beneficiary": "0x55fcf7806f556204141fe90fbe9ce6207d9c52ac",
        "claimType": 2,
        "amount": "1777011919160447235060",
        "rewardEpochId": 2817
      }
    },
    {
      "merkleProof": [
        "0x50529004d7f70b577eda656dd93b94d843fa2650713d783ff9a1fcf9f108a0e2",
        "0x28840839086398a9d81b02221206616412a082917f76da28cfc3c5bab2d62d51",
        "0x8815a36b3e828ac5fb484fae3a63e4491b4cc3043e716cc89229f4b29ee1fe82",
        "0x028201a944a0c9e9caf38eb551c347f194243fd26149d0c6feefc7f6113867a6",
        "0x37d5f589f20c1448ed711fa1f38dd459dbfc2a37a8a7b9428629bbb0953706ff"
      ],
      "body": {
        "beneficiary": "0x19b6fde072fd962dd191e5d17121a6733d7e1977",
        "claimType": 1,
        "amount": "824878485058141759",
        "rewardEpochId": 2817
      }
    },
    {
      "merkleProof": [
        "0xfbc32301c5042dd09cb17ae9e970cf22e7fb2f7f568938e26e7ceaf573439393",
        "0x0640ecc7d018adb7f630884b1a880206d56daed2b3452808c063cd70025a43ee",
        "0xec0fdedad6536a74291aceb90c3ff00fd02c1bdf76fa11da1d1d7c50370f4b26",
        "0x067ef0a2ed21845300ad68dd4b19ee8518a4920eeb6f1dc27f44ad94d498e8bc",
        "0x98f1bb8a5f8cb3831d0e0e2f460085e33b71f2a7a78cba9d5fc0a7d95c3a3862",
        "0x37d5f589f20c1448ed711fa1f38dd459dbfc2a37a8a7b9428629bbb0953706ff"
      ],
      "body": {
        "beneficiary": "0x9faacf0334c62fcd9b2ead3dde72febce796859d",
        "claimType": 2,
        "amount": "411614364044013070892",
        "rewardEpochId": 2817
      }
    },
    {
      "merkleProof": [
        "0xc9b76c6c897f7fab96cbbf2d56c4c2c40340b9f99f79fea2f6195fa389798fc5",
        "0x02d5465d67d7efd7b2a2bbab272adfb76826a2e45805a8285ffa91a197ce9df1",
        "0x91d8bc37757da62083dbf5650a0df089c48449e173a7486eb4ef1422bb8030b4",
        "0x067ef0a2ed21845300ad68dd4b19ee8518a4920eeb6f1dc27f44ad94d498e8bc",
        "0x98f1bb8a5f8cb3831d0e0e2f460085e33b71f2a7a78cba9d5fc0a7d95c3a3862",
        "0x37d5f589f20c1448ed711fa1f38dd459dbfc2a37a8a7b9428629bbb0953706ff"
      ],
      "body": {
        "beneficiary": "0xf355c48aab6ac9f6ed4e1750a34690f4d28cb30e",
        "claimType": 1,
        "amount": "282451431259365840",
        "rewardEpochId": 2817
      }
    },
    {
      "merkleProof": [
        "0xbef69a9a3137add45c66a1577f5f62b2fd384a81906d98c5655f04d193b0a4a4",
        "0x2109eae2b9281f3924fd52082de0e39df80d06cfff6b4e26c71d212a069ece9c",
        "0xdde58cdf39d16937067c47161afbb6ef3e8dd71acd4668e38109a94c8ff1cdc5",
        "0x82f5d3b568cb5a31268bd5289c08968fa9e125024d2b8cd44c0511d131bfc9b6",
        "0xd5a71ad4d6220fb871ec62762f9158eedf83674b95223326169f4d2b6fbf0c9a"
      ],
      "body": {
        "beneficiary": "0xb13a59ecfbbec4d4539be101c5f15521ca23c8ee",
        "claimType": 2,
        "amount": "140773438005226943159",
        "rewardEpochId": 2817
      }
    },
    {
      "merkleProof": [
        "0x71e6b83befe2120cc374038bc5ede29df9b951fafe97d0ad51d619594489df1a",
        "0x62c50f171dc2fbb3a9885e4069d0b943d2e21bffb01c63a57ed41a9d57fcbc20",
        "0x8815a36b3e828ac5fb484fae3a63e4491b4cc3043e716cc89229f4b29ee1fe82",
        "0x028201a944a0c9e9caf38eb551c347f194243fd26149d0c6feefc7f6113867a6",
        "0x37d5f589f20c1448ed711fa1f38dd459dbfc2a37a8a7b9428629bbb0953706ff"
      ],
      "body": {
        "beneficiary": "0x0f4edd405e2550f88903c3f5614a1067f1d9d84c",
        "claimType": 1,
        "amount": "403228886790884",
        "rewardEpochId": 2817
      }
    },
    {
      "merkleProof": [
        "0x9170b5ce2cc2e10ea9ac6db8adb28603322a47553be037e3b1ae2be99ea07360",
        "0x312f55399c5ad0308762937f8b15c42510d73d5a14c2ba8fa9650babcdd21ef8",
        "0x9e446731bce8b69176f45fbb9fe88b97df466f9893a78c11f8afe5385f8c6623",
        "0xc88a2841054dcbcd86115e87ecdfb9b1be22ff4de34d5733a9e3beef1b3997aa",
        "0xd5a71ad4d6220fb871ec62762f9158eedf83674b95223326169f4d2b6fbf0c9a"
      ],
      "body": {
        "beneficiary": "0x67daef0258d83fe9513feaee28a8bbac7e8a031f",
        "claimType": 2,
        "amount": "1612915547163590",
        "rewardEpochId": 2817
      }
    },
    {
      "merkleProof": [
        "0x9125ef65a31e82518a7293520b09fd39013d10f7f292ede2228fc51ba3086531",
        "0x67ef661cd7e24925c92a914a955bda197886c589a2a4ca9182cb34e75dbfda94",
        "0x60cc3f3ea960af931105faf5d996a0f7aa2011acc0db5da9f0408873744cac18",
        "0xc88a2841054dcbcd86115e87ecdfb9b1be22ff4de34d5733a9e3beef1b3997aa",
        "0xd5a71ad4d6220fb871ec62762f9158eedf83674b95223326169f4d2b6fbf0c9a"
      ],
      "body": {
        "beneficiary": "0xa17d0877c137a415f91054c5d988489eb6eb28e4",
        "claimType": 1,
        "amount": "82501088072446495",
        "rewardEpochId": 2817
      }
    },
    {
      "merkleProof": [
        "0x1de0e632325d5d22d2b107bb0fba6caba4da3e0be80aa56028e94f0463c9be4e",
        "0x264837f894a3a7f3b835c6d5a3284382991f9d5be372089a7dd24f9333aeb769",
        "0x6ac2a2af06ce14e5e32162e47ddc5a9ce114078dbeebee63bd95c26d7e987659",
        "0x98f1bb8a5f8cb3831d0e0e2f460085e33b71f2a7a78cba9d5fc0a7d95c3a3862",
        "0x37d5f589f20c1448ed711fa1f38dd459dbfc2a37a8a7b9428629bbb0953706ff"
      ],
      "body": {
        "beneficiary": "0x3a80da2731efa274f9fce54e42c3e1e1a162e3cc",
        "claimType": 2,
        "amount": "330004352289785998",
        "rewardEpochId": 2817
      }
    },
    {
      "merkleProof": [
        "0x98b7b453ad51c083e3e114f804d1de77939807fe0cc7251b88edeb361cb40bfd",
        "0x312f55399c5ad0308762937f8b15c42510d73d5a14c2ba8fa9650babcdd21ef8",
        "0x9e446731bce8b69176f45fbb9fe88b97df466f9893a78c11f8afe5385f8c6623",
        "0xc88a2841054dcbcd86115e87ecdfb9b1be22ff4de34d5733a9e3beef1b3997aa",
        "0xd5a71ad4d6220fb871ec62762f9158eedf83674b95223326169f4d2b6fbf0c9a"
      ],
      "body": {
        "beneficiary": "0xf206f9b8bda82301c19a67b3d272f060bbe51e02",
        "claimType": 1,
        "amount": "6667579831485872",
        "rewardEpochId": 2817
      }
    },
    {
      "merkleProof": [
        "0x08338100108111f8a0e1c8ce1b0cf48c1b0582c3e0eaad2b380ae0a57c09aba3",
        "0x2aef43ec2246bff386b0b7a5d41632c7209d96e80a40329fc800addeacb97fdb",
        "0x6ac2a2af06ce14e5e32162e47ddc5a9ce114078dbeebee63bd95c26d7e987659",
        "0x98f1bb8a5f8cb3831d0e0e2f460085e33b71f2a7a78cba9d5fc0a7d95c3a3862",
        "0x37d5f589f20c1448ed711fa1f38dd459dbfc2a37a8a7b9428629bbb0953706ff"
      ],
      "body": {
        "beneficiary": "0x11cef138b1ee96a481dc040842433bfc5229ad70",
        "claimType": 2,
        "amount": "26670319325943578",
        "rewardEpochId": 2817
      }
    },
    {
      "merkleProof": [
        "0x5ded0b3fe895335bf3eec7bba35d1e8d593f1172c0caa04ba0afede1a5ed9705",
        "0x28840839086398a9d81b02221206616412a082917f76da28cfc3c5bab2d62d51",
        "0x8815a36b3e828ac5fb484fae3a63e4491b4cc3043e716cc89229f4b29ee1fe82",
        "0x028201a944a0c9e9caf38eb551c347f194243fd26149d0c6feefc7f6113867a6",
        "0x37d5f589f20c1448ed711fa1f38dd459dbfc2a37a8a7b9428629bbb0953706ff"
      ],
      "body": {
        "beneficiary": "0xa6a088c1036f4fd6f022d52630842e19f90405ed",
        "claimType": 1,
        "amount": "699248630829808",
        "rewardEpochId": 2817
      }
    },
    {
      "merkleProof": [
        "0xb7b3dd83866c4af51e5a35319e5a06a66672b082e7102fc1fc405b28c8bdb738",
        "0x8972a7c27c306ab784d800254bc2b48497a4be5d12c919e56b4a401fd9a41e44",
        "0xdde58cdf39d16937067c47161afbb6ef3e8dd71acd4668e38109a94c8ff1cdc5",
        "0x82f5d3b568cb5a31268bd5289c08968fa9e125024d2b8cd44c0511d131bfc9b6",
        "0xd5a71ad4d6220fb871ec62762f9158eedf83674b95223326169f4d2b6fbf0c9a"
      ],
      "body": {
        "beneficiary": "0xddef1deac28e2d91f3d3c682c737cc0ef8489aba",
        "claimType": 2,
        "amount": "2796994523319256",
        "rewardEpochId": 2817
      }
    }
  ],
  "noOfWeightBasedClaims": 17,
  "merkleRoot": "0x77fa92c9b6ff4f47732aba04d50eabeb05dcabaf3b4065b8bea477b72f6b8178",
  "abi": {
    "components": [
      {
        "internalType": "uint24",
        "name": "rewardEpochId",
        "type": "uint24"
      },
      {
        "internalType": "bytes20",
        "name": "beneficiary",
        "type": "bytes20"
      },
      {
        "internalType": "uint120",
        "name": "amount",
        "type": "uint120"
      },
      {
        "internalType": "enum IRewardManager.ClaimType",
        "name": "claimType",
        "type": "uint8"
      }
    ],
    "internalType": "struct IRewardManager.RewardClaim",
    "name": "_claim",
    "type": "tuple"
  }
}