{
  "rewardEpochId": 2802,
  "rewardClaims": [
    [
      [
        "0xfbe024f8f5ff957c96710173577d605ff27c8639e0f2971583d0362fd3737f78",
        "0x01547026f2c29547ebe94309adda820332c24ea4d6483a250cee13eb650fb467",
        "0x12abe737531be78386a80d06fd8f7edbe57d6e7045f6b50ccf19b118cb19a62f",
        "0x146ba1cbd46e1657282056062aabd22ee07ca610bf1e81c561167378df7ce63c",
        "0x10a48630730406925b70db3e798547ab625d3ef7b57e1e542ad2243ed48c1d5c"
      ],
      [
        2802,
        "0x0dd018692f98a7894ecc7ba90cfb8f93a19159d3",
        "12804612735927836079",
        1
      ]
    ],
    [
      [
        "0xf38c8fb2a9f89002a2fba92c29b5201096fce774ac6e8c48875698d312b0d2b9",
        "0x14b71f4765276f3e2d2939c8740ab4c1b3e679c5a75972fe49a254f863ac5679",
        "0x4360cd3c6b4242e91086331450cb92e1e602f4630ab7eec732a298bbff796cae",
        "0x146ba1cbd46e1657282056062aabd22ee07ca610bf1e81c561167378df7ce63c",
        "0x10a48630730406925b70db3e798547ab625d3ef7b57e1e542ad2243ed48c1d5c"
      ],
      [
        2802,
        "0x612cff400ee27c91b956c45f4c50e61b55312430",
        "51218450943711344535",
        2
      ]
    ],
    [
      [
        "0x310a8e9a7c00056c17f1d40cd953aae584273780500fa3b4552d4bb8ecc99464",
        "0x9516ba5ab7da2c7cd8cc0b66dc5584edadb30bb60537721c150c432219df45d7",
        "0x73e88831fc87a969a95f351dd96cae6dcbc8ccea0256982f127c77db6594b8dc",
        "0xa7ee32da818aeb3116eaea832ab497bfb0960c748ba7dcc916c17b8f431cca5f",
        "0x330f5ca783da1569c800d949b8816f673aee508fb302f44632dce6c8a3f0a7f5"
      ],
      [
        2802,
        "0xa6a088c1036f4fd6f022d52630842e19f90405ed",
        "6045825622799677",
        1
      ]
    ],
    [
      [
        "0x7e459097971f247d7046a2a4bf0281be6174c212327887e4f575bea370b63b46",
        "0xfe1b002a015fa1a96538c5807e94cd1e2424d06ca00f28ff4cf8c12ff0352c98",
        "0xe7ca5a8f89331d0ac1d4db2ed0c081338556e36e01cca95fa96a8fb8578d629e",
        "0x575c01972519548760fb131d999a74b91df5990db76de1a1240e1ec7e60f6c5c",
        "0x330f5ca783da1569c800d949b8816f673aee508fb302f44632dce6c8a3f0a7f5"
      ],
      [
        2802,
        "0xddef1deac28e2d91f3d3c682c737cc0ef8489aba",
        "24183302491198870",
        2
      ]
    ],
    [
      [
        "0xb8d806dcea0ffea161786c52fe40410698de52108202bbd0593de6cffb4728c7",
        "0x9c73f6309435180857e93433fc39a4c9762de68946f372148c28ca67879ace4c",
        "0xfb49d58387df5a785f28978a238239f9f438d728fb31f9e3ec1279a62807de43",
        "0xc8dcd91a99c7ec5258918dfeb7e1cf458e0a586617ca2d944991c2f33b3e8199",
        "0x10a48630730406925b70db3e798547ab625d3ef7b57e1e542ad2243ed48c1d5c"
      ],
      [
        2802,
        "0xf0b444bdc5522e908ff903e3f1730b5ab60b610a",
        "593221154126310374113",
        1
      ]
    ],
    [
      [
        "0xfcf098f5ef02117b2107bf795007a0b8f7dbc850ecec6cc422b1a8c996a6288e",
        "0x01547026f2c29547ebe94309adda820332c24ea4d6483a250cee13eb650fb467",
        "0x12abe737531be78386a80d06fd8f7edbe57d6e7045f6b50ccf19b118cb19a62f",
        "0x146ba1cbd46e1657282056062aabd22ee07ca610bf1e81c561167378df7ce63c",
        "0x10a48630730406925b70db3e798547ab625d3ef7b57e1e542ad2243ed48c1d5c"
      ],
      [
        2802,
        "0x07f5053c867ae107db15a38aa4421b2c24ac4e51",
        "2372884616505241496834",
        2
      ]
    ],
    [
      [
        "0xed2ab0ed3c294b8991aae74436f267c8c392ec5575a3f69999b18f95a3146133",
        "0x48d9cdcdc20e16357bfedf481490866b452f9d86fc096d5b374efc1f12481d16",
        "0x4360cd3c6b4242e91086331450cb92e1e602f4630ab7eec732a298bbff796cae",
        "0x146ba1cbd46e1657282056062aabd22ee07ca610bf1e81c561167378df7ce63c",
        "0x10a48630730406925b70db3e798547ab625d3ef7b57e1e542ad2243ed48c1d5c"
      ],
      [
        2802,
        "0x000000000000000000000000000000000000dead",
        "14282268494374029799319",
        0
      ]
    ],
    [
      [
        "0x7d790c4510f83ac8e4fb2d0a4097df0593d9e2f22eb6bfa2fac72625e5b21d9f",
        "0xc123bdf4b91ddf5ed72df868b99be153a6ae633f484c4fdc6c065d94c82610a3",
        "0x4c5671e4e08fda074b1c0561a8c7a3aa51a38411ed322678855fea8d0b0bcaac",
        "0xa7ee32da818aeb3116eaea832ab497bfb0960c748ba7dcc916c17b8f431cca5f",
        "0x330f5ca783da1569c800d949b8816f673aee508fb302f44632dce6c8a3f0a7f5"
      ],
      [
        2802,
        "0x25f42def3fcc078de8895cd01de8ab6514020548",
        "24462915516993689796",
        1
      ]
    ],
    [
      [
        "0xa1983e8c86533f1b33ba65b85aeb678979994eb1f4b94364ea9b83b56129992b",
        "0xce7352510382d2179d027dd6c857435bd725edd774cc02a5d5c5a79afb00abcd",
        "0x5714861479003e5534478d93acd9e517dce48535c716d36acaf173e37506cc30",
        "0x575c01972519548760fb131d999a74b91df5990db76de1a1240e1ec7e60f6c5c",
        "0x330f5ca783da1569c800d949b8816f673aee508fb302f44632dce6c8a3f0a7f5"
      ],
      [
        2802,
        "0x256194ca4884dbe2933862f0e9f7e0e4d411eb35",
        "1182544094788499824979",
        2
      ]
    ],
    [
      [
        "0x33392a1cb660f61ee6378c49420f7365fa9afc3e9187c393c3d5834e9e29b6d3",
        "0x000c7ca69336e0c9541addd56aca9284ee254da5c1d7eed08724bdd0c1c5ca04",
        "0x4c5671e4e08fda074b1c0561a8c7a3aa51a38411ed322678855fea8d0b0bcaac",
        "0xa7ee32da818aeb3116eaea832ab497bfb0960c748ba7dcc916c17b8f431cca5f",
        "0x330f5ca783da1569c800d949b8816f673aee508fb302f44632dce6c8a3f0a7f5"
      ],
      [
        2802,
        "0xc6cb03a22213a3e02186a3126d47c7fba20e4ef5",
        "792622610862015398734",
        1
      ]
    ],
    [
      [
        "0x7a8531d01a60f545e995d9c0ba0bfcfd4eef3dedef7f6f468be16b3d0ccc2b33",
        "0x12abe737531be78386a80d06fd8f7edbe57d6e7045f6b50ccf19b118cb19a62f",
        "0x146ba1cbd46e1657282056062aabd22ee07ca610bf1e81c561167378df7ce63c",
        "0x10a48630730406925b70db3e798547ab625d3ef7b57e1e542ad2243ed48c1d5c"
      ],
      [
        2802,
        "0xabaa1718c2d80fc037bf66e3f66f0975d67431a9",
        "3170490443448061595405",
        2
      ]
    ],
    [
      [
        "0xdabb06f3a8665992bafb2c211269a0ea898cb7e3a37c6346188aa04b1c907e46",
        "0xca9dcc21496b78b0d8aba28d1013dc1ca8fa405646fb02ead51faebdd7ae351a",
        "0xb5b8889b61a0602ddbe2a62cf3d2c11a44bfd7c1f85d6feda1a6a272f34ec96d",
        "0xc8dcd91a99c7ec5258918dfeb7e1cf458e0a586617ca2d944991c2f33b3e8199",
        "0x10a48630730406925b70db3e798547ab625d3ef7b57e1e542ad2243ed48c1d5c"
      ],
      [
        2802,
        "0x1d415d28380ff51a507f7b176ca5f27833f7fffd",
        "283549490435466801660",
        1
      ]
    ],
    [
      [
        "0x94213dfdf7569f7f0c4aaae7edcb4253e5ca0ae31506fde461cb97604c28cdc6",
        "0xbc5a847d1b0af29b10ee89c1ab209e218d0d529f75a11bc8ff34481f76b9f0b4",
        "0x5714861479003e5534478d93acd9e517dce48535c716d36acaf173e37506cc30",
        "0x575c01972519548760fb131d999a74b91df5990db76de1a1240e1ec7e60f6c5c",
        "0x330f5ca783da1569c800d949b8816f673aee508fb302f44632dce6c8a3f0a7f5"
      ],
      [
        2802,
        "0xb849b93b585effb7ce4b522ff88d9b3b24955f24",
        "1134197961741867207018",
        2
      ]
    ],
    [
      [
        "0x047e86df434b4995608a2a5c704db5c3d4d5d6edd69aa0e8eee36925dbfb4792",
        "0x2293cb2353f341d8ac14ca175571c79b8e4f2c81c931e9e142d131beb7b46762",
        "0x73e88831fc87a969a95f351dd96cae6dcbc8ccea0256982f127c77db6594b8dc",
        "0xa7ee32da818aeb3116eaea832ab497bfb0960c748ba7dcc916c17b8f431cca5f",
        "0x330f5ca783da1569c800d949b8816f673aee508fb302f44632dce6c8a3f0a7f5"
      ],
      [
        2802,
        "0x2e46e8d1f3636f7036978d054b0a07e7395053c8",
        "622689801815700694725",
        1
      ]
    ],
    [
      [
        "0xd6f732f1aab0186858f4b0f314c3f9019470976050cb81e6784e4d53e96ba3d6",
        "0x7928e2660a2d2a699f3f6251cc37fff4e242a2e1657759b1e517a21625120b0f",
        "0xb5b8889b61a0602ddbe2a62cf3d2c11a44bfd7c1f85d6feda1a6a272f34ec96d",
        "0xc8dcd91a99c7ec5258918dfeb7e1cf458e0a586617ca2d944991c2f33b3e8199",
        "0x10a48630730406925b70db3e798547ab625d3ef7b57e1e542ad2243ed48c1d5c"
      ],
      [
        2802,
        "0xe80c39eae57c0359ee6c4086e2b22300353728e1",
        "2490759207262802779380",
        2
      ]
    ],
    [
      [
        "0x4da2a48176502da7fe12193f1006a4c51b2453595b43b8c268679d1fd0c46fe6",
        "0xc123bdf4b91ddf5ed72df868b99be153a6ae633f484c4fdc6c065d94c82610a3",
        "0x4c5671e4e08fda074b1c0561a8c7a3aa51a38411ed322678855fea8d0b0bcaac",
        "0xa7ee32da818aeb3116eaea832ab497bfb0960c748ba7dcc916c17b8f431cca5f",
        "0x330f5ca783da1569c800d949b8816f673aee508fb302f44632dce6c8a3f0a7f5"
      ],
      [
        2802,
        "0x9181f8ed4381ce39dbf4b8336b6295de89527c46",
        "1389793161720327183",
        1
      ]
    ],
    [
      [
        "0x1d46d64c950dd932d0489e949c6a95200dc175ad736e834b0e541483fd85e063",
        "0x9516ba5ab7da2c7cd8cc0b66dc5584edadb30bb60537721c150c432219df45d7",
        "0x73e88831fc87a969a95f351dd96cae6dcbc8ccea0256982f127c77db6594b8dc",
        "0xa7ee32da818aeb3116eaea832ab497bfb0960c748ba7dcc916c17b8f431cca5f",
        "0x330f5ca783da1569c800d949b8816f673aee508fb302f44632dce6c8a3f0a7f5"
      ],
      [
        2802,
        "0x884cde7b5f2f0a9ee28f90ce1d4aa526373b3e2c",
        "692881544536685104656",
        2
      ]
    ],
    [
      [
        "0xd946fed4c8fd2eb34b23e2ae73acbaca1f6bf6a01b508832b76bcbf57a53b8af",
        "0xca9dcc21496b78b0d8aba28d1013dc1ca8fa405646fb02ead51faebdd7ae351a",
        "0xb5b8889b61a0602ddbe2a62cf3d2c11a44bfd7c1f85d6feda1a6a272f34ec96d",
        "0xc8dcd91a99c7ec5258918dfeb7e1cf458e0a586617ca2d944991c2f33b3e8199",
        "0x10a48630730406925b70db3e798547ab625d3ef7b57e1e542ad2243ed48c1d5c"
      ],
      [
        2802,
        "0xadf3a9a6494b8c1a24f0eec5d44a388afc10df09",
        "3069431253475359509",
        1
      ]
    ],
    [
      [
        "0x871e2686bea6754a02bf4d340f777772fe029749ce784d0e7dfdea3aa2cf5a5b",
        "0xfe1b002a015fa1a96538c5807e94cd1e2424d06ca00f28ff4cf8c12ff0352c98",
        "0xe7ca5a8f89331d0ac1d4db2ed0c081338556e36e01cca95fa96a8fb8578d629e",
        "0x575c01972519548760fb131d999a74b91df5990db76de1a1240e1ec7e60f6c5c",
        "0x330f5ca783da1569c800d949b8816f673aee508fb302f44632dce6c8a3f0a7f5"
      ],
      [
        2802,
        "0xf75a67d060f28f269d3f7a51fdb2859e7d6a4d78",
        "665794733860111855393",
        2
      ]
    ],
    [
      [
        "0x16a3ab84b215bcda34934ce719a4c3e989b5a5fa2541ecfa4705786ad08eb3ff",
        "0x2293cb2353f341d8ac14ca175571c79b8e4f2c81c931e9e142d131beb7b46762",
        "0x73e88831fc87a969a95f351dd96cae6dcbc8ccea0256982f127c77db6594b8dc",
        "0xa7ee32da818aeb3116eaea832ab497bfb0960c748ba7dcc916c17b8f431cca5f",
        "0x330f5ca783da1569c800d949b8816f673aee508fb302f44632dce6c8a3f0a7f5"
      ],
      [
        2802,
        "0x0bed169e74037b66a2e1c1a4937c285057773dbb",
        "16031826522834885998",
        1
      ]
    ],
    [
      [
        "0xe718e23bb994b0c6c0b7e82ba716e73c90531dad87853ee6528f25a3a27c7c76",
        "0x48d9cdcdc20e16357bfedf481490866b452f9d86fc096d5b374efc1f12481d16",
        "0x4360cd3c6b4242e91086331450cb92e1e602f4630ab7eec732a298bbff796cae",
        "0x146ba1cbd46e1657282056062aabd22ee07ca610bf1e81c561167378df7ce63c",
        "0x10a48630730406925b70db3e798547ab625d3ef7b57e1e542ad2243ed48c1d5c"
      ],
      [
        2802,
        "0xbc9a659af696a4d7375b104db8e5189b54f9d2b3",
        "2330470235599952836433",
        2
      ]
    ],
    [
      [
        "0xbd3d07456415aca303defee403d10b5fcc267d39b8f8b188b7391786273f847c",
        "0x7928e2660a2d2a699f3f6251cc37fff4e242a2e1657759b1e517a21625120b0f",
        "0xb5b8889b61a0602ddbe2a62cf3d2c11a44bfd7c1f85d6feda1a6a272f34ec96d",
        "0xc8dcd91a99c7ec5258918dfeb7e1cf458e0a586617ca2d944991c2f33b3e8199",
        "0x10a48630730406925b70db3e798547ab625d3ef7b57e1e542ad2243ed48c1d5c"
      ],
      [
        2802,
        "0xf355c48aab6ac9f6ed4e1750a34690f4d28cb30e",
        "599336013200198265",
        1
      ]
    ],
    [
      [
        "0xb1b7080084b39addd12d669d9fa4bf2a7773891dcf201b8bd228aee4f41c3620",
        "0x9c73f6309435180857e93433fc39a4c9762de68946f372148c28ca67879ace4c",
        "0xfb49d58387df5a785f28978a238239f9f438d728fb31f9e3ec1279a62807de43",
        "0xc8dcd91a99c7ec5258918dfeb7e1cf458e0a586617ca2d944991c2f33b3e8199",
        "0x10a48630730406925b70db3e798547ab625d3ef7b57e1e542ad2243ed48c1d5c"
      ],
      [
        2802,
        "0xb13a59ecfbbec4d4539be101c5f15521ca23c8ee",
        "298500347694324212193",
        2
      ]
    ],
    [
      [
        "0x933a1255a1e4d74381cdcf51cafa725fd18c824434c49b76f989b492b436fa16",
        "0x5754354d0d97e67b35ae5fa1f918856ce0f11c23f20adc8e576dc990c040b298",
        "0xe7ca5a8f89331d0ac1d4db2ed0c081338556e36e01cca95fa96a8fb8578d629e",
        "0x575c01972519548760fb131d999a74b91df5990db76de1a1240e1ec7e60f6c5c",
        "0x330f5ca783da1569c800d949b8816f673aee508fb302f44632dce6c8a3f0a7f5"
      ],
      [
        2802,
        "0x19b6fde072fd962dd191e5d17121a6733d7e1977",
        "2708394836044782980",
        1
      ]
    ],
    [
      [
        "0x925b79fd654a6ea3ffa22f4c94f5d9840047899ad5f39d034f56f1bbd4f07eb1",
        "0x5754354d0d97e67b35ae5fa1f918856ce0f11c23f20adc8e576dc990c040b298",
        "0xe7ca5a8f89331d0ac1d4db2ed0c081338556e36e01cca95fa96a8fb8578d629e",
        "0x575c01972519548760fb131d999a74b91df5990db76de1a1240e1ec7e60f6c5c",
        "0x330f5ca783da1569c800d949b8816f673aee508fb302f44632dce6c8a3f0a7f5"
      ],
      [
        2802,
        "0x9faacf0334c62fcd9b2ead3dde72febce796859d",
        "1351489023186354389833",
        2
      ]
    ],
    [
      [
        "0xa728a32cef0fc2a8a7b9b755caf0e1022ae150d24dbda4c845fd789255ac0b89",
        "0xce7352510382d2179d027dd6c857435bd725edd774cc02a5d5c5a79afb00abcd",
        "0x5714861479003e5534478d93acd9e517dce48535c716d36acaf173e37506cc30",
        "0x575c01972519548760fb131d999a74b91df5990db76de1a1240e1ec7e60f6c5c",
        "0x330f5ca783da1569c800d949b8816f673aee508fb302f44632dce6c8a3f0a7f5"
      ],
      [
        2802,
        "0x437d15fad24dc5fe77384c34e24ee0b4c2607d79",
        "714398550669428651",
        1
      ]
    ],
    [
      [
        "0x46ae84a26b6180a592be2ad8204c2383af934baf4ded7d8c1e1da5dfe4d73c51",
        "0x000c7ca69336e0c9541addd56aca9284ee254da5c1d7eed08724bdd0c1c5ca04",
        "0x4c5671e4e08fda074b1c0561a8c7a3aa51a38411ed322678855fea8d0b0bcaac",
        "0xa7ee32da818aeb3116eaea832ab497bfb0960c748ba7dcc916c17b8f431cca5f",
        "0x330f5ca783da1569c800d949b8816f673aee508fb302f44632dce6c8a3f0a7f5"
      ],
      [
        2802,
        "0xd88833424225068867309e0ec02999883c14dc77",
        "355547334033745312907",
        2
      ]
    ],
    [
      [
        "0xaaaf21c863922dd2d7d1376cf77e474749ada1417c0d765d4dea9e06cf70c9f7",
        "0xc43caaa190b74e55e414abcebabba7c6c47be0fbe9d83630e9e7449b627be93c",
        "0xfb49d58387df5a785f28978a238239f9f438d728fb31f9e3ec1279a62807de43",
        "0xc8dcd91a99c7ec5258918dfeb7e1cf458e0a586617ca2d944991c2f33b3e8199",
        "0x10a48630730406925b70db3e798547ab625d3ef7b57e1e542ad2243ed48c1d5c"
      ],
      [
        2802,
        "0xca84d6086c5b32212a0cf1638803355d7be31482",
        "445571716017868765525",
        1
      ]
    ],
    [
      [
        "0xee78a431dfe2b872bd2c6c58268fc859c5989c8b7a87ab477a9017c12e2640ff",
        "0x14b71f4765276f3e2d2939c8740ab4c1b3e679c5a75972fe49a254f863ac5679",
        "0x4360cd3c6b4242e91086331450cb92e1e602f4630ab7eec732a298bbff796cae",
        "0x146ba1cbd46e1657282056062aabd22ee07ca610bf1e81c561167378df7ce63c",
        "0x10a48630730406925b70db3e798547ab625d3ef7b57e1e542ad2243ed48c1d5c"
      ],
      [
        2802,
        "0x55fcf7806f556204141fe90fbe9ce6207d9c52ac",
        "1782286864071475062455",
        2
      ]
    ],
    [
      [
        "0xac58b753261aec30ad25623ee95e94f6f115c64dd8fd94812e7176a6a4ab2a56",
        "0xc43caaa190b74e55e414abcebabba7c6c47be0fbe9d83630e9e7449b627be93c",
        "0xfb49d58387df5a785f28978a238239f9f438d728fb31f9e3ec1279a62807de43",
        "0xc8dcd91a99c7ec5258918dfeb7e1cf458e0a586617ca2d944991c2f33b3e8199",
        "0x10a48630730406925b70db3e798547ab625d3ef7b57e1e542ad2243ed48c1d5c"
      ],
      [
        2802,
        "0xf206f9b8bda82301c19a67b3d272f060bbe51e02",
        "6019290850752299",
        1
      ]
    ],
    [
      [
        "0x93c019c0fcc8c99fd77934a96e00c30c79ec03a43990015964af44b6d3541bf8",
        "0xbc5a847d1b0af29b10ee89c1ab209e218d0d529f75a11bc8ff34481f76b9f0b4",
        "0x5714861479003e5534478d93acd9e517dce48535c716d36acaf173e37506cc30",
        "0x575c01972519548760fb131d999a74b91df5990db76de1a1240e1ec7e60f6c5c",
        "0x330f5ca783da1569c800d949b8816f673aee508fb302f44632dce6c8a3f0a7f5"
      ],
      [
        2802,
        "0x11cef138b1ee96a481dc040842433bfc5229ad70",
        "24077163403009238",
        2
      ]
    ]
  ],
  "noOfWeightBasedClaims": 15,
  "merkleRoot": "0x886b13af793809583adcd617a80879e76bb69b5b58d19bc6b5aa67cda3634c05",
  "abi": {
    "components": [
      {
        "internalType": "uint24",
        "name": "rewardEpochId",
        "type": "uint24"
      },
      {
        "internalType": "bytes20",
        "name": "beneficiary",
        "type": "bytes20"
      },
      {
        "internalType": "uint120",
        "name": "amount",
        "type": "uint120"
      },
      {
        "internalType": "enum IRewardManager.ClaimType",
        "name": "claimType",
        "type": "uint8"
      }
    ],
    "internalType": "struct IRewardManager.RewardClaim",
    "name": "_claim",
    "type": "tuple"
  }
}