{
  "rewardEpochId": 2852,
  "rewardClaims": [
    [
      [
        "0xf7b020cd2b0163e751bc5090027c30d1ac6bd076fb57799737c841bde03ee3f9",
        "0xb87ccbbd7dc28672899f1ccfa410b62883e942f2ce691230735077cd5e277d18",
        "0x2c1976f42dbfefd005354343ad02f71dadbb9dba3a03acadf2bd0f05ba3028a6",
        "0xd8f8d3aa5d4c8a9f818834ec033fa9a5a1f09c50474d9490ad4b85d542e5ab68",
        "0x650a3fc87e4e2a3e7c6951436cd9c105a3108c6fd973d36bd23e5c48bd5cf597",
        "0x816d04c0ca997403f5b8d88b50d7161d24216bbe83617fb92bc1c79edc818cac"
      ],
      [
        2852,
        "0x000000000000000000000000000000000000dead",
        "15159320478952899963974",
        0
      ]
    ],
    [
      [
        "0x726cb0d9ac87b8c14eba457281801620c25e4f21853e19d508e87e74b6ab9fa5",
        "0x82e882d41ec84fd12c18c04b9aefd0bfdbbfcdd5877296e05302c2024f654436",
        "0xd5ebc0903d334549c45a59f53ceaef9aa74f5dce8c8ebf5f360d159053f013ad",
        "0x0f8ee0f1adfdff3cf34d880712b4064a310416d2d7d28a4231e525bafc0bdcc6",
        "0x2ad68ed158280cee6811df4694ea109ff1733602cb16c3ec3abee0e9d6e7058b"
      ],
      [
        2852,
        "0x437d15fad24dc5fe77384c34e24ee0b4c2607d79",
        "774866397793234727",
        1
      ]
    ],
    [
      [
        "0xfda51643aa16254a53d69c7591b4683a22c5a9be97f68f328d4f4a4bd0d8a033",
        "0x024a4bedfe782073fc485ddd31db368062bfa4d675fc0fa14c205aab25d0391b",
        "0xaa2e9e33aee10a856f276f71e96e3166c70bf8ab8ea1feafe07ec0a18d5efbed",
        "0xd8f8d3aa5d4c8a9f818834ec033fa9a5a1f09c50474d9490ad4b85d542e5ab68",
        "0x650a3fc87e4e2a3e7c6951436cd9c105a3108c6fd973d36bd23e5c48bd5cf597",
        "0x816d04c0ca997403f5b8d88b50d7161d24216bbe83617fb92bc1c79edc818cac"
      ],
      [
        2852,
        "0xd88833424225068867309e0ec02999883c14dc77",
        "386424987772271326318",
        2
      ]
    ],
    [
      [
        "0xb35925373f0f5a4b902d4898a5d6c916d5cd1cf995eeb3b1c7c9fbf343301009",
        "0x114a0534296d2dbbe18567abf2e019eb16f47a222b7b0c19d17a31c47ac7840b",
        "0x33a4fdbb1890d165ee9c0df4e9de3850e44b5f2dfda30286cc5f4ff236ff7573",
        "0x3fdbbb9411f22f6f7cc791ceda1ec9c6c5d9ae9b6d3f6f0f3da3027292e579b5",
        "0x2ad68ed158280cee6811df4694ea109ff1733602cb16c3ec3abee0e9d6e7058b"
      ],
      [
        2852,
        "0x9181f8ed4381ce39dbf4b8336b6295de89527c46",
        "2595749437158030800",
        1
      ]
    ],
    [
      [
        "0x3410cc885ff2c0416680f6ad53428e3d4879956f622b80a58c8fec2d7f762530",
        "0x602fcceebe76786a4bd36d64dceea89b461f17c062820817ea87448eb37ad774",
        "0x2b05eb96c9055218ecd1ae909fd429418647101bbca26f57957e8562e0fb3e4b",
        "0x98055d97efd4595ae21e451214c9cddbd10215bd966fffc1285db8713eeb6a82",
        "0x816d04c0ca997403f5b8d88b50d7161d24216bbe83617fb92bc1c79edc818cac"
      ],
      [
        2852,
        "0x884cde7b5f2f0a9ee28f90ce1d4aa526373b3e2c",
        "854454348705659830693",
        2
      ]
    ],
    [
      [
        "0xc3fd2b44d45c364543bb43a3a94a8b0525bc52e0b7205429d1abc8f206fbd27e",
        "0x5dcd5ba44bea4a301ad065d8c63e11c1168fb4f4526b8af081f08eaaa7fb2f24",
        "0x6a9be6a9e47cbf119d950d4af620e0ee97cbe3f66f2dc2042e82d96c7ab13ab7",
        "0x3fdbbb9411f22f6f7cc791ceda1ec9c6c5d9ae9b6d3f6f0f3da3027292e579b5",
        "0x2ad68ed158280cee6811df4694ea109ff1733602cb16c3ec3abee0e9d6e7058b"
      ],
      [
        2852,
        "0x19b6fde072fd962dd191e5d17121a6733d7e1977",
        "2366439738955869290",
        1
      ]
    ],
    [
      [
        "0x6424af44cc1c38de664a92297ac068ca1970d94c48fd0577288c5a7988b5221c",
        "0xbeea4d20a65bd868a7895910c8d8a29374ea08ffb74671610240f187764303d1",
        "0x76834d9863c1d3d58d594e1d4ef7e7cdca0d8deb211e311b8682a8988c5b1296",
        "0x98055d97efd4595ae21e451214c9cddbd10215bd966fffc1285db8713eeb6a82",
        "0x816d04c0ca997403f5b8d88b50d7161d24216bbe83617fb92bc1c79edc818cac"
      ],
      [
        2852,
        "0x9faacf0334c62fcd9b2ead3dde72febce796859d",
        "1180853429738985813065",
        2
      ]
    ],
    [
      [
        "0x41fa34a2629533bdef581f21af686a04b5df632bc416b658126f290c090a25e9",
        "0xd494ed8c9bcd059b2f9e16877e59ab69b6d33016b60b25935b1d50af10dfc18c",
        "0x76834d9863c1d3d58d594e1d4ef7e7cdca0d8deb211e311b8682a8988c5b1296",
        "0x98055d97efd4595ae21e451214c9cddbd10215bd966fffc1285db8713eeb6a82",
        "0x816d04c0ca997403f5b8d88b50d7161d24216bbe83617fb92bc1c79edc818cac"
      ],
      [
        2852,
        "0x526e10f59b79d4e434d367f30a5cf6aa49641642",
        "1690321073946705504",
        1
      ]
    ],
    [
      [
        "0xc4aacaceb9c31c039881e5242b642c9a635aedc601758a1d76fe9421dc73b0da",
        "0x61efda90ec4c59140a8c5b184c10d795a488cc9954ac563df49e7f054f110176",
        "0x6a9be6a9e47cbf119d950d4af620e0ee97cbe3f66f2dc2042e82d96c7ab13ab7",
        "0x3fdbbb9411f22f6f7cc791ceda1ec9c6c5d9ae9b6d3f6f0f3da3027292e579b5",
        "0x2ad68ed158280cee6811df4694ea109ff1733602cb16c3ec3abee0e9d6e7058b"
      ],
      [
        2852,
        "0x07acc8fe6affb0bd54ec19acb6d27c2f87ae8f63",
        "843470215899411166748",
        2
      ]
    ],
    [
      [
        "0x6a2a5063ff17be748e110655491f3940f2369e406bd34d7974068e9afccc201f",
        "0x4dc180b3ef21ab245acec6d5b793939c13172a387aaa6dab6b74d91dbb931682",
        "0xd5ebc0903d334549c45a59f53ceaef9aa74f5dce8c8ebf5f360d159053f013ad",
        "0x0f8ee0f1adfdff3cf34d880712b4064a310416d2d7d28a4231e525bafc0bdcc6",
        "0x2ad68ed158280cee6811df4694ea109ff1733602cb16c3ec3abee0e9d6e7058b"
      ],
      [
        2852,
        "0xadf3a9a6494b8c1a24f0eec5d44a388afc10df09",
        "2554628653782425048",
        1
      ]
    ],
    [
      [
        "0x944a2244fb4ad2ebb474cc148c949266b96647aad2816967ade0773234e8adf2",
        "0xf08bf4b4604d8f6cadb601b761183ffcc78cf1d1d5f3827024b1ad33b8ef6067",
        "0xc388787921897b8d5ca19634daa3d7a0e261673df46310759d12c52667dc26ca",
        "0x0f8ee0f1adfdff3cf34d880712b4064a310416d2d7d28a4231e525bafc0bdcc6",
        "0x2ad68ed158280cee6811df4694ea109ff1733602cb16c3ec3abee0e9d6e7058b"
      ],
      [
        2852,
        "0xf75a67d060f28f269d3f7a51fdb2859e7d6a4d78",
        "788313406056495274787",
        2
      ]
    ],
    [
      [
        "0xa36a29d165b340973efad98e4500108194f029e5c7262b5bdc5db5cb9b404c11",
        "0x754a872bb0bf76ace6bb95d0e842377bca0b3a788bd39f7e5f4f162d0d3ab1ea",
        "0xc388787921897b8d5ca19634daa3d7a0e261673df46310759d12c52667dc26ca",
        "0x0f8ee0f1adfdff3cf34d880712b4064a310416d2d7d28a4231e525bafc0bdcc6",
        "0x2ad68ed158280cee6811df4694ea109ff1733602cb16c3ec3abee0e9d6e7058b"
      ],
      [
        2852,
        "0x0bed169e74037b66a2e1c1a4937c285057773dbb",
        "8303102199128885655",
        1
      ]
    ],
    [
      [
        "0x7714c3829df4dc89a15e000cc4764f4108180084fe348cb9fb1cc4cb76ee4311",
        "0xaa2e9e33aee10a856f276f71e96e3166c70bf8ab8ea1feafe07ec0a18d5efbed",
        "0xd8f8d3aa5d4c8a9f818834ec033fa9a5a1f09c50474d9490ad4b85d542e5ab68",
        "0x650a3fc87e4e2a3e7c6951436cd9c105a3108c6fd973d36bd23e5c48bd5cf597",
        "0x816d04c0ca997403f5b8d88b50d7161d24216bbe83617fb92bc1c79edc818cac"
      ],
      [
        2852,
        "0xbc9a659af696a4d7375b104db8e5189b54f9d2b3",
        "2324039495819655466477",
        2
      ]
    ],
    [
      [
        "0xf75f60d5ac9a0df8c2f6defcd063cbf3fd338e9901f33cfd95d71bc83c00e168",
        "0xb87ccbbd7dc28672899f1ccfa410b62883e942f2ce691230735077cd5e277d18",
        "0x2c1976f42dbfefd005354343ad02f71dadbb9dba3a03acadf2bd0f05ba3028a6",
        "0xd8f8d3aa5d4c8a9f818834ec033fa9a5a1f09c50474d9490ad4b85d542e5ab68",
        "0x650a3fc87e4e2a3e7c6951436cd9c105a3108c6fd973d36bd23e5c48bd5cf597",
        "0x816d04c0ca997403f5b8d88b50d7161d24216bbe83617fb92bc1c79edc818cac"
      ],
      [
        2852,
        "0x0f4edd405e2550f88903c3f5614a1067f1d9d84c",
        "804308205789801904",
        1
      ]
    ],
    [
      [
        "0x6baccbb98a1982fa70b2727c5f4cace2ba3deb40b40e3f5052c5567685133bcb",
        "0x4dc180b3ef21ab245acec6d5b793939c13172a387aaa6dab6b74d91dbb931682",
        "0xd5ebc0903d334549c45a59f53ceaef9aa74f5dce8c8ebf5f360d159053f013ad",
        "0x0f8ee0f1adfdff3cf34d880712b4064a310416d2d7d28a4231e525bafc0bdcc6",
        "0x2ad68ed158280cee6811df4694ea109ff1733602cb16c3ec3abee0e9d6e7058b"
      ],
      [
        2852,
        "0x67daef0258d83fe9513feaee28a8bbac7e8a031f",
        "401332565038425950481",
        2
      ]
    ],
    [
      [
        "0x13d9413503d34bc8ccd52034357352cc9ea79d5fa2abb1a2a01fe63c9663fa44",
        "0xa7f7392e6989c3336fc6d6fbfe9ed62bc0d17cbe4b7bd60a80e855338543b6a6",
        "0xcfbf46bfd9c270aae66b6a60b067b5a8bc3a78becef31a3d9146c5270d8ad7d0",
        "0x650a3fc87e4e2a3e7c6951436cd9c105a3108c6fd973d36bd23e5c48bd5cf597",
        "0x816d04c0ca997403f5b8d88b50d7161d24216bbe83617fb92bc1c79edc818cac"
      ],
      [
        2852,
        "0x3134c526171f16e14ac0dfbe56d10ef09273817f",
        "11912401717203515244",
        1
      ]
    ],
    [
      [
        "0x29784f364550de7611b2620e4619cde3d97b630e332c81cd397465cbc22e0ce9",
        "0x5b8bf6f74a28f3637d1d51e35efbffaec4598563a349a587e531a1cce8eb25f9",
        "0x2b05eb96c9055218ecd1ae909fd429418647101bbca26f57957e8562e0fb3e4b",
        "0x98055d97efd4595ae21e451214c9cddbd10215bd966fffc1285db8713eeb6a82",
        "0x816d04c0ca997403f5b8d88b50d7161d24216bbe83617fb92bc1c79edc818cac"
      ],
      [
        2852,
        "0xaf47c84608043ba7d58122e5c3a46adf67371df3",
        "47649606868814061283",
        2
      ]
    ],
    [
      [
        "0x06ca3eca6f53e06341dd299fd49fc29cd5f6a757012a481f62455d5d742b30cb",
        "0xa7f7392e6989c3336fc6d6fbfe9ed62bc0d17cbe4b7bd60a80e855338543b6a6",
        "0xcfbf46bfd9c270aae66b6a60b067b5a8bc3a78becef31a3d9146c5270d8ad7d0",
        "0x650a3fc87e4e2a3e7c6951436cd9c105a3108c6fd973d36bd23e5c48bd5cf597",
        "0x816d04c0ca997403f5b8d88b50d7161d24216bbe83617fb92bc1c79edc818cac"
      ],
      [
        2852,
        "0x1d415d28380ff51a507f7b176ca5f27833f7fffd",
        "262027404255326910438",
        1
      ]
    ],
    [
      [
        "0x2da3e201c7bc1e7b7c8a3ba5325561f56432eb58331ceec7d35f03435bbb7710",
        "0x5b8bf6f74a28f3637d1d51e35efbffaec4598563a349a587e531a1cce8eb25f9",
        "0x2b05eb96c9055218ecd1ae909fd429418647101bbca26f57957e8562e0fb3e4b",
        "0x98055d97efd4595ae21e451214c9cddbd10215bd966fffc1285db8713eeb6a82",
        "0x816d04c0ca997403f5b8d88b50d7161d24216bbe83617fb92bc1c79edc818cac"
      ],
      [
        2852,
        "0xb849b93b585effb7ce4b522ff88d9b3b24955f24",
        "1048109617021307642202",
        2
      ]
    ],
    [
      [
        "0x91e47f9a39606bb02397978500225d4c2663c865e8a0a11c6e81536b2d3b105d",
        "0xf08bf4b4604d8f6cadb601b761183ffcc78cf1d1d5f3827024b1ad33b8ef6067",
        "0xc388787921897b8d5ca19634daa3d7a0e261673df46310759d12c52667dc26ca",
        "0x0f8ee0f1adfdff3cf34d880712b4064a310416d2d7d28a4231e525bafc0bdcc6",
        "0x2ad68ed158280cee6811df4694ea109ff1733602cb16c3ec3abee0e9d6e7058b"
      ],
      [
        2852,
        "0x2e46e8d1f3636f7036978d054b0a07e7395053c8",
        "575144139269824054996",
        1
      ]
    ],
    [
      [
        "0x456dd93a5a94919186ad29d4605e710ac45ed15d108dd483975f96664bb723e3",
        "0xd494ed8c9bcd059b2f9e16877e59ab69b6d33016b60b25935b1d50af10dfc18c",
        "0x76834d9863c1d3d58d594e1d4ef7e7cdca0d8deb211e311b8682a8988c5b1296",
        "0x98055d97efd4595ae21e451214c9cddbd10215bd966fffc1285db8713eeb6a82",
        "0x816d04c0ca997403f5b8d88b50d7161d24216bbe83617fb92bc1c79edc818cac"
      ],
      [
        2852,
        "0xe80c39eae57c0359ee6c4086e2b22300353728e1",
        "2300576557079296220281",
        2
      ]
    ],
    [
      [
        "0xdf33deeb7133b17c934e98806014ee5f55aeb08cacd23ea190362c0f583bb78c",
        "0xb0132d07601da87939b49e32c0c951e5a9871cca0be866c4cecf3632144d58a0",
        "0x2c1976f42dbfefd005354343ad02f71dadbb9dba3a03acadf2bd0f05ba3028a6",
        "0xd8f8d3aa5d4c8a9f818834ec033fa9a5a1f09c50474d9490ad4b85d542e5ab68",
        "0x650a3fc87e4e2a3e7c6951436cd9c105a3108c6fd973d36bd23e5c48bd5cf597",
        "0x816d04c0ca997403f5b8d88b50d7161d24216bbe83617fb92bc1c79edc818cac"
      ],
      [
        2852,
        "0xc6cb03a22213a3e02186a3126d47c7fba20e4ef5",
        "746067682672200427179",
        1
      ]
    ],
    [
      [
        "0xb672d34983ce39a05b3f892cb9383dd87714c263bd9638b6eb7564adc485d8c5",
        "0x5dcd5ba44bea4a301ad065d8c63e11c1168fb4f4526b8af081f08eaaa7fb2f24",
        "0x6a9be6a9e47cbf119d950d4af620e0ee97cbe3f66f2dc2042e82d96c7ab13ab7",
        "0x3fdbbb9411f22f6f7cc791ceda1ec9c6c5d9ae9b6d3f6f0f3da3027292e579b5",
        "0x2ad68ed158280cee6811df4694ea109ff1733602cb16c3ec3abee0e9d6e7058b"
      ],
      [
        2852,
        "0xabaa1718c2d80fc037bf66e3f66f0975d67431a9",
        "2984270730688801709068",
        2
      ]
    ],
    [
      [
        "0xb38027100d288ff3b8f5bd3f20b74aad8850b85ad992d7d6a4e19cc1cbbc83b4",
        "0xedef1299cc0870074ad38b144778554fba28f80456297f559881bd5ff6d3a07d",
        "0x33a4fdbb1890d165ee9c0df4e9de3850e44b5f2dfda30286cc5f4ff236ff7573",
        "0x3fdbbb9411f22f6f7cc791ceda1ec9c6c5d9ae9b6d3f6f0f3da3027292e579b5",
        "0x2ad68ed158280cee6811df4694ea109ff1733602cb16c3ec3abee0e9d6e7058b"
      ],
      [
        2852,
        "0xca84d6086c5b32212a0cf1638803355d7be31482",
        "385553747830693972734",
        1
      ]
    ],
    [
      [
        "0x4990df4718ebb4072d82b74c84fb4a77457c44695f2a1f63e521252e46fd3799",
        "0xbeea4d20a65bd868a7895910c8d8a29374ea08ffb74671610240f187764303d1",
        "0x76834d9863c1d3d58d594e1d4ef7e7cdca0d8deb211e311b8682a8988c5b1296",
        "0x98055d97efd4595ae21e451214c9cddbd10215bd966fffc1285db8713eeb6a82",
        "0x816d04c0ca997403f5b8d88b50d7161d24216bbe83617fb92bc1c79edc818cac"
      ],
      [
        2852,
        "0x55fcf7806f556204141fe90fbe9ce6207d9c52ac",
        "1542214991322775891388",
        2
      ]
    ],
    [
      [
        "0xe5e9495c4e814c7067ba3c29d44b7a1c0644e9da342edec81fde21b25cf32d0f",
        "0xb0132d07601da87939b49e32c0c951e5a9871cca0be866c4cecf3632144d58a0",
        "0x2c1976f42dbfefd005354343ad02f71dadbb9dba3a03acadf2bd0f05ba3028a6",
        "0xd8f8d3aa5d4c8a9f818834ec033fa9a5a1f09c50474d9490ad4b85d542e5ab68",
        "0x650a3fc87e4e2a3e7c6951436cd9c105a3108c6fd973d36bd23e5c48bd5cf597",
        "0x816d04c0ca997403f5b8d88b50d7161d24216bbe83617fb92bc1c79edc818cac"
      ],
      [
        2852,
        "0x25f42def3fcc078de8895cd01de8ab6514020548",
        "40798531088671051",
        1
      ]
    ],
    [
      [
        "0x98758d44a503b1bbe9a1792e3cf7e07dc2dfb80c47ff71f1ac35dd99d4eda10b",
        "0x754a872bb0bf76ace6bb95d0e842377bca0b3a788bd39f7e5f4f162d0d3ab1ea",
        "0xc388787921897b8d5ca19634daa3d7a0e261673df46310759d12c52667dc26ca",
        "0x0f8ee0f1adfdff3cf34d880712b4064a310416d2d7d28a4231e525bafc0bdcc6",
        "0x2ad68ed158280cee6811df4694ea109ff1733602cb16c3ec3abee0e9d6e7058b"
      ],
      [
        2852,
        "0x256194ca4884dbe2933862f0e9f7e0e4d411eb35",
        "163194124354684279",
        2
      ]
    ],
    [
      [
        "0x32da9cee34a551f68cf173da0a8616ec25375cdd0103588a9e6d074267c3e36e",
        "0x602fcceebe76786a4bd36d64dceea89b461f17c062820817ea87448eb37ad774",
        "0x2b05eb96c9055218ecd1ae909fd429418647101bbca26f57957e8562e0fb3e4b",
        "0x98055d97efd4595ae21e451214c9cddbd10215bd966fffc1285db8713eeb6a82",
        "0x816d04c0ca997403f5b8d88b50d7161d24216bbe83617fb92bc1c79edc818cac"
      ],
      [
        2852,
        "0xf0b444bdc5522e908ff903e3f1730b5ab60b610a",
        "598190688421705226678",
        1
      ]
    ],
    [
      [
        "0xb402f26a8407b02fe9a18fc20c9b1a5286d539a02d02820789274966d093a1a1",
        "0xedef1299cc0870074ad38b144778554fba28f80456297f559881bd5ff6d3a07d",
        "0x33a4fdbb1890d165ee9c0df4e9de3850e44b5f2dfda30286cc5f4ff236ff7573",
        "0x3fdbbb9411f22f6f7cc791ceda1ec9c6c5d9ae9b6d3f6f0f3da3027292e579b5",
        "0x2ad68ed158280cee6811df4694ea109ff1733602cb16c3ec3abee0e9d6e7058b"
      ],
      [
        2852,
        "0x07f5053c867ae107db15a38aa4421b2c24ac4e51",
        "2392762753686820907031",
        2
      ]
    ],
    [
      [
        "0xf8737efe2ac21f70591fc1f9d8a2a5f211ab27b13d6a5896e7de8637ca9c0206",
        "0x024a4bedfe782073fc485ddd31db368062bfa4d675fc0fa14c205aab25d0391b",
        "0xaa2e9e33aee10a856f276f71e96e3166c70bf8ab8ea1feafe07ec0a18d5efbed",
        "0xd8f8d3aa5d4c8a9f818834ec033fa9a5a1f09c50474d9490ad4b85d542e5ab68",
        "0x650a3fc87e4e2a3e7c6951436cd9c105a3108c6fd973d36bd23e5c48bd5cf597",
        "0x816d04c0ca997403f5b8d88b50d7161d24216bbe83617fb92bc1c79edc818cac"
      ],
      [
        2852,
        "0x0dd018692f98a7894ecc7ba90cfb8f93a19159d3",
        "21758920558471604861",
        1
      ]
    ],
    [
      [
        "0x290e885861aa5cc76e69123da6ea078342f0f1465e2452cb999f95d30803c903",
        "0xf45f17fa85e9bbccde61de6f2e81bc0f50e180c30cfeac8750776a9ba3f9919f",
        "0xcfbf46bfd9c270aae66b6a60b067b5a8bc3a78becef31a3d9146c5270d8ad7d0",
        "0x650a3fc87e4e2a3e7c6951436cd9c105a3108c6fd973d36bd23e5c48bd5cf597",
        "0x816d04c0ca997403f5b8d88b50d7161d24216bbe83617fb92bc1c79edc818cac"
      ],
      [
        2852,
        "0x612cff400ee27c91b956c45f4c50e61b55312430",
        "87035682233886419581",
        2
      ]
    ],
    [
      [
        "0x283e657ee1bbf93e6a8d0b12635d6996be4c1278f53b0aea6529d4db45a7c8a4",
        "0xf45f17fa85e9bbccde61de6f2e81bc0f50e180c30cfeac8750776a9ba3f9919f",
        "0xcfbf46bfd9c270aae66b6a60b067b5a8bc3a78becef31a3d9146c5270d8ad7d0",
        "0x650a3fc87e4e2a3e7c6951436cd9c105a3108c6fd973d36bd23e5c48bd5cf597",
        "0x816d04c0ca997403f5b8d88b50d7161d24216bbe83617fb92bc1c79edc818cac"
      ],
      [
        2852,
        "0xf206f9b8bda82301c19a67b3d272f060bbe51e02",
        "8883792100886472",
        1
      ]
    ],
    [
      [
        "0x85766e5eea8296647ab98c16e997bb28769873ca15b6e49ee494b8c486f85934",
        "0x82e882d41ec84fd12c18c04b9aefd0bfdbbfcdd5877296e05302c2024f654436",
        "0xd5ebc0903d334549c45a59f53ceaef9aa74f5dce8c8ebf5f360d159053f013ad",
        "0x0f8ee0f1adfdff3cf34d880712b4064a310416d2d7d28a4231e525bafc0bdcc6",
        "0x2ad68ed158280cee6811df4694ea109ff1733602cb16c3ec3abee0e9d6e7058b"
      ],
      [
        2852,
        "0x11cef138b1ee96a481dc040842433bfc5229ad70",
        "35535168403545974",
        2
      ]
    ],
    [
      [
        "0xa3dd79c38af114971808b347e8a942cb548306c659b4ea5b12c249cb0e44f7da",
        "0x114a0534296d2dbbe18567abf2e019eb16f47a222b7b0c19d17a31c47ac7840b",
        "0x33a4fdbb1890d165ee9c0df4e9de3850e44b5f2dfda30286cc5f4ff236ff7573",
        "0x3fdbbb9411f22f6f7cc791ceda1ec9c6c5d9ae9b6d3f6f0f3da3027292e579b5",
        "0x2ad68ed158280cee6811df4694ea109ff1733602cb16c3ec3abee0e9d6e7058b"
      ],
      [
        2852,
        "0xa6a088c1036f4fd6f022d52630842e19f90405ed",
        "1496109061350103",
        1
      ]
    ],
    [
      [
        "0xcec3fb087f57f8e697d1b840ea2f4886ac0a4d01070f31da68370e3e9c84152f",
        "0x61efda90ec4c59140a8c5b184c10d795a488cc9954ac563df49e7f054f110176",
        "0x6a9be6a9e47cbf119d950d4af620e0ee97cbe3f66f2dc2042e82d96c7ab13ab7",
        "0x3fdbbb9411f22f6f7cc791ceda1ec9c6c5d9ae9b6d3f6f0f3da3027292e579b5",
        "0x2ad68ed158280cee6811df4694ea109ff1733602cb16c3ec3abee0e9d6e7058b"
      ],
      [
        2852,
        "0xddef1deac28e2d91f3d3c682c737cc0ef8489aba",
        "5984436245400481",
        2
      ]
    ]
  ],
  "noOfWeightBasedClaims": 17,
  "merkleRoot": "0x6a7d76a536c58a7496c41da987b62cf29c2a2571ee541f11320e853c725a0da5",
  "abi": {
    "components": [
      {
        "internalType": "uint24",
        "name": "rewardEpochId",
        "type": "uint24"
      },
      {
        "internalType": "bytes20",
        "name": "beneficiary",
        "type": "bytes20"
      },
      {
        "internalType": "uint120",
        "name": "amount",
        "type": "uint120"
      },
      {
        "internalType": "enum IRewardManager.ClaimType",
        "name": "claimType",
        "type": "uint8"
      }
    ],
    "internalType": "struct IRewardManager.RewardClaim",
    "name": "_claim",
    "type": "tuple"
  }
}