{
  "rewardEpochId": 2869,
  "rewardClaims": [
    [
      [
        "0x42993cffbf7f70856a580e8c5f2ca57efbac80e64e986f7f9a05a37c9f96f2ff",
        "0x6786b51e4fa0763f0d61e5285ff2fb967f90e4563670bd9d0489f4e4dc0b5d55",
        "0x65d8af9288beea4dc81639cc6595ba2e4b54e73f86d0e0e0d3e7ae03f303ecea",
        "0xfb41e5193c314e3c736f56684748628008fc43f8e87e3b60b46c32143de2d4e4",
        "0x8d6e8a7c5f4ea28d79e90f884d77e8346f58c0114d8d348f8b0221460f953495"
      ],
      [
        2869,
        "0xf0b444bdc5522e908ff903e3f1730b5ab60b610a",
        "566875819298653754144",
        1
      ]
    ],
    [
      [
        "0x27c4072c54dd9a0b776d83c83958495d0c25c8a2b3b27af2a541963cd1f863a0",
        "0x03422011d46adda1f81d3a07c1f5841e3b8a2c4edbedd6b52dbddc12cc7b6d32",
        "0x0fce9519aa213381fcf87c1885fb7daa8cd5103f7fa70e1199834500d5b41fdd",
        "0x9a23679fe322632ad4148160f573a65df0e1b584aeb7870e1e0a0d5ba4e36fb7",
        "0x8d6e8a7c5f4ea28d79e90f884d77e8346f58c0114d8d348f8b0221460f953495"
      ],
      [
        2869,
        "0x07f5053c867ae107db15a38aa4421b2c24ac4e51",
        "2267503277194615016930",
        2
      ]
    ],
    [
      [
        "0x6c9339ef736e51d9ee2969383e454ba0e9929b724fa3cef8457b885448f562cc",
        "0x9d1baa7b3eda35ec5b0de2511704bc4b6a057b8e65087e73e373eba8fb166014",
        "0xbf1304ee90ddac4236bebc3766fcca4d939f526ce801a574226db2d1164e03ae",
        "0x014b2ddc15f157b4ebd1b37443929e575d84d3038d0663f586f1f5fbb38fefac",
        "0xeeeac9cbdf59b1ddcdf362522fd7df0ed9741a55357c2070fa908b5a6c5e9629"
      ],
      [
        2869,
        "0x25f42def3fcc078de8895cd01de8ab6514020548",
        "16795600758362127109",
        1
      ]
    ],
    [
      [
        "0xa695edf7d5a183bff08e9341a2efc5b0929d8ec92927728141fcf7ee391f9b93",
        "0x4d013bbaaee137cf99a5c29094349394ffa3f1db47f2c15a63b699726a106ca0",
        "0xddf935d7b76207ba071dff70e5c0ab8823557c7e401285bda54619a8004d3bcf",
        "0x014b2ddc15f157b4ebd1b37443929e575d84d3038d0663f586f1f5fbb38fefac",
        "0xeeeac9cbdf59b1ddcdf362522fd7df0ed9741a55357c2070fa908b5a6c5e9629"
      ],
      [
        2869,
        "0x256194ca4884dbe2933862f0e9f7e0e4d411eb35",
        "1879226503170264471366",
        2
      ]
    ],
    [
      [
        "0x4f125a53849df643efa8245cfb8d4dddf07c8a479355de14024d42c29f27c2d1",
        "0x66162513c6ea2b6c13793acac2a5add7daa5cd1fdc9b1bff7615a565efc95ab2",
        "0xd9497d12e77ac42317decf0f50a4b9756b46ced46a295708a83d12e4f96e61e8",
        "0xe11a99b0538daf09974d70a63b0db1af4df8d13e164500fa6ee1064adc104985",
        "0xeeeac9cbdf59b1ddcdf362522fd7df0ed9741a55357c2070fa908b5a6c5e9629"
      ],
      [
        2869,
        "0x2e46e8d1f3636f7036978d054b0a07e7395053c8",
        "552405503040543913663",
        1
      ]
    ],
    [
      [
        "0x2af12df4fd58abe47030dd447d97582e990db69ab4dc33fba5b300795ed72938",
        "0x5c50e18c572dfaa2ca729b20456a0339c2643bea3425a049b45ef3df1e2f532a",
        "0x23a981ad50f5b224d7b0306f9ee6e2c2052b0b1ceb0ec582a7c14eddcd62de9b",
        "0xfb41e5193c314e3c736f56684748628008fc43f8e87e3b60b46c32143de2d4e4",
        "0x8d6e8a7c5f4ea28d79e90f884d77e8346f58c0114d8d348f8b0221460f953495"
      ],
      [
        2869,
        "0xe80c39eae57c0359ee6c4086e2b22300353728e1",
        "2209622012162175654925",
        2
      ]
    ],
    [
      [
        "0x1e943c517fa42114e22b0c98167baf8ba03be02c41627238f11c3871a8651a61",
        "0x03422011d46adda1f81d3a07c1f5841e3b8a2c4edbedd6b52dbddc12cc7b6d32",
        "0x0fce9519aa213381fcf87c1885fb7daa8cd5103f7fa70e1199834500d5b41fdd",
        "0x9a23679fe322632ad4148160f573a65df0e1b584aeb7870e1e0a0d5ba4e36fb7",
        "0x8d6e8a7c5f4ea28d79e90f884d77e8346f58c0114d8d348f8b0221460f953495"
      ],
      [
        2869,
        "0x9181f8ed4381ce39dbf4b8336b6295de89527c46",
        "1193565161785383909",
        1
      ]
    ],
    [
      [
        "0xc894b1e078b0dafbeb6f44f3ac79c0a52f23da0519d4a7612b76be24da340979",
        "0xd07e884b976cda27672b05fd2d12feef546cf2329dcfb613ee42b9378f9d8da2",
        "0x98ebd0540ab1fb4a3f18e1b6897b8027a1372deb5b6a3ae2a783f33a66cc696e",
        "0x9ef56b66c770c5d1a3bbc6749bced3e6c5ea04131bc6d6fe7bfa413ed5a535ab",
        "0x9a23679fe322632ad4148160f573a65df0e1b584aeb7870e1e0a0d5ba4e36fb7",
        "0x8d6e8a7c5f4ea28d79e90f884d77e8346f58c0114d8d348f8b0221460f953495"
      ],
      [
        2869,
        "0x884cde7b5f2f0a9ee28f90ce1d4aa526373b3e2c",
        "594555389242721027189",
        2
      ]
    ],
    [
      [
        "0xbcf4a4de2631047f7f96b9c5b9ce7707109c87edbd24652dc0a5ad78379bc480",
        "0x4d013bbaaee137cf99a5c29094349394ffa3f1db47f2c15a63b699726a106ca0",
        "0xddf935d7b76207ba071dff70e5c0ab8823557c7e401285bda54619a8004d3bcf",
        "0x014b2ddc15f157b4ebd1b37443929e575d84d3038d0663f586f1f5fbb38fefac",
        "0xeeeac9cbdf59b1ddcdf362522fd7df0ed9741a55357c2070fa908b5a6c5e9629"
      ],
      [
        2869,
        "0x000000000000000000000000000000000000dead",
        "16128466118959125276497",
        0
      ]
    ],
    [
      [
        "0x6bebb562e189c618ee84549b07568b99902276d5c3617a87d2bb1fbdf46982b3",
        "0x9d1baa7b3eda35ec5b0de2511704bc4b6a057b8e65087e73e373eba8fb166014",
        "0xbf1304ee90ddac4236bebc3766fcca4d939f526ce801a574226db2d1164e03ae",
        "0x014b2ddc15f157b4ebd1b37443929e575d84d3038d0663f586f1f5fbb38fefac",
        "0xeeeac9cbdf59b1ddcdf362522fd7df0ed9741a55357c2070fa908b5a6c5e9629"
      ],
      [
        2869,
        "0x19b6fde072fd962dd191e5d17121a6733d7e1977",
        "1815558238230786474",
        1
      ]
    ],
    [
      [
        "0xcf15afe76877e679c9b56a8c70601fb42d6ffaee5ee623e6698d601423a0dfa7",
        "0xd07e884b976cda27672b05fd2d12feef546cf2329dcfb613ee42b9378f9d8da2",
        "0x98ebd0540ab1fb4a3f18e1b6897b8027a1372deb5b6a3ae2a783f33a66cc696e",
        "0x9ef56b66c770c5d1a3bbc6749bced3e6c5ea04131bc6d6fe7bfa413ed5a535ab",
        "0x9a23679fe322632ad4148160f573a65df0e1b584aeb7870e1e0a0d5ba4e36fb7",
        "0x8d6e8a7c5f4ea28d79e90f884d77e8346f58c0114d8d348f8b0221460f953495"
      ],
      [
        2869,
        "0x9faacf0334c62fcd9b2ead3dde72febce796859d",
        "905963560877170237828",
        2
      ]
    ],
    [
      [
        "0xfa48406f5c8b5de66371c0ddaa9a116f02c4be749c1871656dea2606d9892e48",
        "0x0c5d62aa4d2faf0759fe575f5af5215c95594faeb5941afd43c2f161a0e81cf9",
        "0xe8d67055745a90ffc8459f631475464db5e813c6af6ebba745769513e6c1e584",
        "0x9ef56b66c770c5d1a3bbc6749bced3e6c5ea04131bc6d6fe7bfa413ed5a535ab",
        "0x9a23679fe322632ad4148160f573a65df0e1b584aeb7870e1e0a0d5ba4e36fb7",
        "0x8d6e8a7c5f4ea28d79e90f884d77e8346f58c0114d8d348f8b0221460f953495"
      ],
      [
        2869,
        "0x0bed169e74037b66a2e1c1a4937c285057773dbb",
        "6879430339328249397",
        1
      ]
    ],
    [
      [
        "0x2cfb96a3582a18dfb770c60beda59a0bffefbce03bf322deb91cf2b55164dabc",
        "0x5c50e18c572dfaa2ca729b20456a0339c2643bea3425a049b45ef3df1e2f532a",
        "0x23a981ad50f5b224d7b0306f9ee6e2c2052b0b1ceb0ec582a7c14eddcd62de9b",
        "0xfb41e5193c314e3c736f56684748628008fc43f8e87e3b60b46c32143de2d4e4",
        "0x8d6e8a7c5f4ea28d79e90f884d77e8346f58c0114d8d348f8b0221460f953495"
      ],
      [
        2869,
        "0xbc9a659af696a4d7375b104db8e5189b54f9d2b3",
        "1813977380309056160280",
        2
      ]
    ],
    [
      [
        "0x60f93d2b3438f69e120ee965747d9e0abfcaa328192322049236b301ac2e1185",
        "0xc67fa52c08f358497996d8c9d61f8b87080f72e11c75df7fade047486badaf61",
        "0x94e455436bf2032a11e67ce44ae03f91e1aae0b2e6e82c31a488f55a53e2b62c",
        "0xe11a99b0538daf09974d70a63b0db1af4df8d13e164500fa6ee1064adc104985",
        "0xeeeac9cbdf59b1ddcdf362522fd7df0ed9741a55357c2070fa908b5a6c5e9629"
      ],
      [
        2869,
        "0xadf3a9a6494b8c1a24f0eec5d44a388afc10df09",
        "1152130808461032559",
        1
      ]
    ],
    [
      [
        "0x731d7e660d2d095507ec914ff4f3a93b2b0e38b3a980ff087c1fa48c6e2b4945",
        "0x6658f83b7353a836e08c28d03814e279854e37831589a07f60a00b33f7c94883",
        "0xddf935d7b76207ba071dff70e5c0ab8823557c7e401285bda54619a8004d3bcf",
        "0x014b2ddc15f157b4ebd1b37443929e575d84d3038d0663f586f1f5fbb38fefac",
        "0xeeeac9cbdf59b1ddcdf362522fd7df0ed9741a55357c2070fa908b5a6c5e9629"
      ],
      [
        2869,
        "0xf75a67d060f28f269d3f7a51fdb2859e7d6a4d78",
        "573457044832550703781",
        2
      ]
    ],
    [
      [
        "0x6620a33a3d516e76437aac427d8a7396e712f14e57dfb41f94cd7abc4c8d9e4d",
        "0xc67fa52c08f358497996d8c9d61f8b87080f72e11c75df7fade047486badaf61",
        "0x94e455436bf2032a11e67ce44ae03f91e1aae0b2e6e82c31a488f55a53e2b62c",
        "0xe11a99b0538daf09974d70a63b0db1af4df8d13e164500fa6ee1064adc104985",
        "0xeeeac9cbdf59b1ddcdf362522fd7df0ed9741a55357c2070fa908b5a6c5e9629"
      ],
      [
        2869,
        "0x0f4edd405e2550f88903c3f5614a1067f1d9d84c",
        "562215799899156243",
        1
      ]
    ],
    [
      [
        "0x49fcfa26964ab267086cac0bb1407246420d868807bb2c8a15c917591a5aba42",
        "0x7bca4acacd5baeb1a1fb08eeb91debfbc0ad846bf7283d9f04fb0439c9ce4f4c",
        "0xd9497d12e77ac42317decf0f50a4b9756b46ced46a295708a83d12e4f96e61e8",
        "0xe11a99b0538daf09974d70a63b0db1af4df8d13e164500fa6ee1064adc104985",
        "0xeeeac9cbdf59b1ddcdf362522fd7df0ed9741a55357c2070fa908b5a6c5e9629"
      ],
      [
        2869,
        "0x67daef0258d83fe9513feaee28a8bbac7e8a031f",
        "280285541469890483571",
        2
      ]
    ],
    [
      [
        "0x3a6a5b57b5de7db06354c0b52e58b53cdd6f4ebe0d6ff8174ba98e17efd97516",
        "0x6786b51e4fa0763f0d61e5285ff2fb967f90e4563670bd9d0489f4e4dc0b5d55",
        "0x65d8af9288beea4dc81639cc6595ba2e4b54e73f86d0e0e0d3e7ae03f303ecea",
        "0xfb41e5193c314e3c736f56684748628008fc43f8e87e3b60b46c32143de2d4e4",
        "0x8d6e8a7c5f4ea28d79e90f884d77e8346f58c0114d8d348f8b0221460f953495"
      ],
      [
        2869,
        "0x437d15fad24dc5fe77384c34e24ee0b4c2607d79",
        "557752157450776302",
        1
      ]
    ],
    [
      [
        "0x6df716dadb844177b1bffc66478fe4b6abd377d61c7583a484d7068dcb9d77bd",
        "0xe9ea92c9ef4dffe4df18aa889e527685f18d31b8dc4a0f88103f02a8b1f98b41",
        "0xbf1304ee90ddac4236bebc3766fcca4d939f526ce801a574226db2d1164e03ae",
        "0x014b2ddc15f157b4ebd1b37443929e575d84d3038d0663f586f1f5fbb38fefac",
        "0xeeeac9cbdf59b1ddcdf362522fd7df0ed9741a55357c2070fa908b5a6c5e9629"
      ],
      [
        2869,
        "0xd88833424225068867309e0ec02999883c14dc77",
        "278087197189028363836",
        2
      ]
    ],
    [
      [
        "0x4e5fc02a6d3d278270b6c15a36c9a5795c5e5a03baf3096d9e0e18bf29be881c",
        "0x66162513c6ea2b6c13793acac2a5add7daa5cd1fdc9b1bff7615a565efc95ab2",
        "0xd9497d12e77ac42317decf0f50a4b9756b46ced46a295708a83d12e4f96e61e8",
        "0xe11a99b0538daf09974d70a63b0db1af4df8d13e164500fa6ee1064adc104985",
        "0xeeeac9cbdf59b1ddcdf362522fd7df0ed9741a55357c2070fa908b5a6c5e9629"
      ],
      [
        2869,
        "0x526e10f59b79d4e434d367f30a5cf6aa49641642",
        "1163153065467307630",
        1
      ]
    ],
    [
      [
        "0x108a98c2571c1a7b58e955f157154f8f23467dc8c0dbaf3f42ea50bb0143da2d",
        "0x040cc6d8ff7f1f8f606bfab11c805b66603d9b92ad1e04fa38109ae649e714ae",
        "0x0fce9519aa213381fcf87c1885fb7daa8cd5103f7fa70e1199834500d5b41fdd",
        "0x9a23679fe322632ad4148160f573a65df0e1b584aeb7870e1e0a0d5ba4e36fb7",
        "0x8d6e8a7c5f4ea28d79e90f884d77e8346f58c0114d8d348f8b0221460f953495"
      ],
      [
        2869,
        "0x07acc8fe6affb0bd54ec19acb6d27c2f87ae8f63",
        "580240007994888609042",
        2
      ]
    ],
    [
      [
        "0x477bedb339356323205586f8001c7cfcc68f3c9c935c8dd5f34e90c53c5467eb",
        "0x7bca4acacd5baeb1a1fb08eeb91debfbc0ad846bf7283d9f04fb0439c9ce4f4c",
        "0xd9497d12e77ac42317decf0f50a4b9756b46ced46a295708a83d12e4f96e61e8",
        "0xe11a99b0538daf09974d70a63b0db1af4df8d13e164500fa6ee1064adc104985",
        "0xeeeac9cbdf59b1ddcdf362522fd7df0ed9741a55357c2070fa908b5a6c5e9629"
      ],
      [
        2869,
        "0x1d415d28380ff51a507f7b176ca5f27833f7fffd",
        "156923765912006078286",
        1
      ]
    ],
    [
      [
        "0x6caa1ac87f8443fd14fc410aa3911aa8bab3f7e5a504e2b05c92130dee0305b0",
        "0xe9ea92c9ef4dffe4df18aa889e527685f18d31b8dc4a0f88103f02a8b1f98b41",
        "0xbf1304ee90ddac4236bebc3766fcca4d939f526ce801a574226db2d1164e03ae",
        "0x014b2ddc15f157b4ebd1b37443929e575d84d3038d0663f586f1f5fbb38fefac",
        "0xeeeac9cbdf59b1ddcdf362522fd7df0ed9741a55357c2070fa908b5a6c5e9629"
      ],
      [
        2869,
        "0xb849b93b585effb7ce4b522ff88d9b3b24955f24",
        "627695063648024313343",
        2
      ]
    ],
    [
      [
        "0x5ae21d78f6c523d27c0fc422119a179057194bca6fb195af58d1171935d791e4",
        "0x13a459c59673de9541fce6268d919d29842c5e70b676907a07406024f8cb2275",
        "0x94e455436bf2032a11e67ce44ae03f91e1aae0b2e6e82c31a488f55a53e2b62c",
        "0xe11a99b0538daf09974d70a63b0db1af4df8d13e164500fa6ee1064adc104985",
        "0xeeeac9cbdf59b1ddcdf362522fd7df0ed9741a55357c2070fa908b5a6c5e9629"
      ],
      [
        2869,
        "0xca84d6086c5b32212a0cf1638803355d7be31482",
        "385439634094432758033",
        1
      ]
    ],
    [
      [
        "0x86baaec5c335cffe1fd86f71ec78483d7dc034f20b7f3406626596a438983c4b",
        "0x6658f83b7353a836e08c28d03814e279854e37831589a07f60a00b33f7c94883",
        "0xddf935d7b76207ba071dff70e5c0ab8823557c7e401285bda54619a8004d3bcf",
        "0x014b2ddc15f157b4ebd1b37443929e575d84d3038d0663f586f1f5fbb38fefac",
        "0xeeeac9cbdf59b1ddcdf362522fd7df0ed9741a55357c2070fa908b5a6c5e9629"
      ],
      [
        2869,
        "0x55fcf7806f556204141fe90fbe9ce6207d9c52ac",
        "1541758536377731032448",
        2
      ]
    ],
    [
      [
        "0x33ad7b39857e8a4fccf9d557f314380d06a8dc5ff75e93231268898fc7f07f36",
        "0x39f42f460a161cc11093eceb6a573e85b7a85ed7b66cb1412ac7a3adae6dc20a",
        "0x23a981ad50f5b224d7b0306f9ee6e2c2052b0b1ceb0ec582a7c14eddcd62de9b",
        "0xfb41e5193c314e3c736f56684748628008fc43f8e87e3b60b46c32143de2d4e4",
        "0x8d6e8a7c5f4ea28d79e90f884d77e8346f58c0114d8d348f8b0221460f953495"
      ],
      [
        2869,
        "0xc6cb03a22213a3e02186a3126d47c7fba20e4ef5",
        "718138186011171011145",
        1
      ]
    ],
    [
      [
        "0x14ea71f04b238553f4d534aea6d94ac64151cf8d5e07c8351ea1ce660ef8c51d",
        "0x040cc6d8ff7f1f8f606bfab11c805b66603d9b92ad1e04fa38109ae649e714ae",
        "0x0fce9519aa213381fcf87c1885fb7daa8cd5103f7fa70e1199834500d5b41fdd",
        "0x9a23679fe322632ad4148160f573a65df0e1b584aeb7870e1e0a0d5ba4e36fb7",
        "0x8d6e8a7c5f4ea28d79e90f884d77e8346f58c0114d8d348f8b0221460f953495"
      ],
      [
        2869,
        "0xabaa1718c2d80fc037bf66e3f66f0975d67431a9",
        "2872552744044684044974",
        2
      ]
    ],
    [
      [
        "0x33ccc373960db8d94baedf6eece05f3eb376608f4ac63368ab63c9e5824f61c7",
        "0xbc79e18eb21611254abd9cb15078de730650d1268e88844ce721ddc80f36b5c1",
        "0x65d8af9288beea4dc81639cc6595ba2e4b54e73f86d0e0e0d3e7ae03f303ecea",
        "0xfb41e5193c314e3c736f56684748628008fc43f8e87e3b60b46c32143de2d4e4",
        "0x8d6e8a7c5f4ea28d79e90f884d77e8346f58c0114d8d348f8b0221460f953495"
      ],
      [
        2869,
        "0xa6a088c1036f4fd6f022d52630842e19f90405ed",
        "150848190848183",
        1
      ]
    ],
    [
      [
        "0x302ab7dbb138ce78d704bb7c1ac7895938f69be144804616d49ba8b029f15cc9",
        "0x39f42f460a161cc11093eceb6a573e85b7a85ed7b66cb1412ac7a3adae6dc20a",
        "0x23a981ad50f5b224d7b0306f9ee6e2c2052b0b1ceb0ec582a7c14eddcd62de9b",
        "0xfb41e5193c314e3c736f56684748628008fc43f8e87e3b60b46c32143de2d4e4",
        "0x8d6e8a7c5f4ea28d79e90f884d77e8346f58c0114d8d348f8b0221460f953495"
      ],
      [
        2869,
        "0xddef1deac28e2d91f3d3c682c737cc0ef8489aba",
        "603392763392737",
        2
      ]
    ],
    [
      [
        "0x3843a010cbf72d93b688cfaf07387829c9126d08d21d604b04ae855763639ca1",
        "0xbc79e18eb21611254abd9cb15078de730650d1268e88844ce721ddc80f36b5c1",
        "0x65d8af9288beea4dc81639cc6595ba2e4b54e73f86d0e0e0d3e7ae03f303ecea",
        "0xfb41e5193c314e3c736f56684748628008fc43f8e87e3b60b46c32143de2d4e4",
        "0x8d6e8a7c5f4ea28d79e90f884d77e8346f58c0114d8d348f8b0221460f953495"
      ],
      [
        2869,
        "0xf206f9b8bda82301c19a67b3d272f060bbe51e02",
        "13522422273830730",
        1
      ]
    ],
    [
      [
        "0xd59ca70fb85e4d4d1b572b37d3ab29dc837de1b1b49415b014da8376861dc23d",
        "0x3337fc5dca7fcf3f09195403fcf433a44239671c66eb4be393f831b514c6c43a",
        "0x98ebd0540ab1fb4a3f18e1b6897b8027a1372deb5b6a3ae2a783f33a66cc696e",
        "0x9ef56b66c770c5d1a3bbc6749bced3e6c5ea04131bc6d6fe7bfa413ed5a535ab",
        "0x9a23679fe322632ad4148160f573a65df0e1b584aeb7870e1e0a0d5ba4e36fb7",
        "0x8d6e8a7c5f4ea28d79e90f884d77e8346f58c0114d8d348f8b0221460f953495"
      ],
      [
        2869,
        "0x11cef138b1ee96a481dc040842433bfc5229ad70",
        "54089689095323131",
        2
      ]
    ],
    [
      [
        "0xea872703634c72d3b9c9c5698206a8caf73e072f8a1d953d69fe2733a3194639",
        "0x0c5d62aa4d2faf0759fe575f5af5215c95594faeb5941afd43c2f161a0e81cf9",
        "0xe8d67055745a90ffc8459f631475464db5e813c6af6ebba745769513e6c1e584",
        "0x9ef56b66c770c5d1a3bbc6749bced3e6c5ea04131bc6d6fe7bfa413ed5a535ab",
        "0x9a23679fe322632ad4148160f573a65df0e1b584aeb7870e1e0a0d5ba4e36fb7",
        "0x8d6e8a7c5f4ea28d79e90f884d77e8346f58c0114d8d348f8b0221460f953495"
      ],
      [
        2869,
        "0x43844ca777a776ae50d09734bd5d481144dee95c",
        "1878265030936196",
        1
      ]
    ],
    [
      [
        "0x5ee92ca3bef4434564a19abf770719800bfdb2add59e9dca7034b1017155ad1b",
        "0x13a459c59673de9541fce6268d919d29842c5e70b676907a07406024f8cb2275",
        "0x94e455436bf2032a11e67ce44ae03f91e1aae0b2e6e82c31a488f55a53e2b62c",
        "0xe11a99b0538daf09974d70a63b0db1af4df8d13e164500fa6ee1064adc104985",
        "0xeeeac9cbdf59b1ddcdf362522fd7df0ed9741a55357c2070fa908b5a6c5e9629"
      ],
      [
        2869,
        "0x9b512e398b8e8cf4ba966822554ac10b345b023a",
        "7513060123744833",
        2
      ]
    ],
    [
      [
        "0x785464f932da4e91433a9c7464f33090e00e70682362983006e33b170f39c62f",
        "0xe8d67055745a90ffc8459f631475464db5e813c6af6ebba745769513e6c1e584",
        "0x9ef56b66c770c5d1a3bbc6749bced3e6c5ea04131bc6d6fe7bfa413ed5a535ab",
        "0x9a23679fe322632ad4148160f573a65df0e1b584aeb7870e1e0a0d5ba4e36fb7",
        "0x8d6e8a7c5f4ea28d79e90f884d77e8346f58c0114d8d348f8b0221460f953495"
      ],
      [
        2869,
        "0x0dd018692f98a7894ecc7ba90cfb8f93a19159d3",
        "4685550095449285",
        1
      ]
    ],
    [
      [
        "0xdb524532d6aa7667afe47da76618ea3cb4a4a2df56769bafc997e3ab78a4746c",
        "0x3337fc5dca7fcf3f09195403fcf433a44239671c66eb4be393f831b514c6c43a",
        "0x98ebd0540ab1fb4a3f18e1b6897b8027a1372deb5b6a3ae2a783f33a66cc696e",
        "0x9ef56b66c770c5d1a3bbc6749bced3e6c5ea04131bc6d6fe7bfa413ed5a535ab",
        "0x9a23679fe322632ad4148160f573a65df0e1b584aeb7870e1e0a0d5ba4e36fb7",
        "0x8d6e8a7c5f4ea28d79e90f884d77e8346f58c0114d8d348f8b0221460f953495"
      ],
      [
        2869,
        "0x612cff400ee27c91b956c45f4c50e61b55312430",
        "18742200381797161",
        2
      ]
    ]
  ],
  "noOfWeightBasedClaims": 17,
  "merkleRoot": "0x131693955a054811b54dce0070eb419decd1a928f258cfe1fd5e92124311de64",
  "abi": {
    "components": [
      {
        "internalType": "uint24",
        "name": "rewardEpochId",
        "type": "uint24"
      },
      {
        "internalType": "bytes20",
        "name": "beneficiary",
        "type": "bytes20"
      },
      {
        "internalType": "uint120",
        "name": "amount",
        "type": "uint120"
      },
      {
        "internalType": "enum IRewardManager.ClaimType",
        "name": "claimType",
        "type": "uint8"
      }
    ],
    "internalType": "struct IRewardManager.RewardClaim",
    "name": "_claim",
    "type": "tuple"
  }
}