{
  "rewardEpochId": 2805,
  "rewardClaims": [
    {
      "merkleProof": [
        "0x5183b9b2d479540fc8f1b4f9baacb3ab4d1c3e7b517ee0c77f14dd310cd1ff5f",
        "0xf7c2f0cd0bfa9217907ac8fb9f5fe91c04933bc93175070173c890b7594292d2",
        "0x3ebd9e5905adae9e20dc14885ae611c2e59e4e266b7fabb1dd36377462d3b488",
        "0xa42eb0513da9d924d3ae1e65f4e8f46e5afb3291edf9af7240e7bae288299e6e",
        "0x8ea2264b826a20f89d18fc08264a3812a6980c3ffe420ffe83a4bd2eac23b4df"
      ],
      "body": {
        "beneficiary": "0xf0b444bdc5522e908ff903e3f1730b5ab60b610a",
        "claimType": 1,
        "amount": "476052096797987848339",
        "rewardEpochId": 2805
      }
    },
    {
      "merkleProof": [
        "0x4ac6e6311f432795e069787591fc5249b2a410d8ce56c84a5487d828c68906e3",
        "0x9318f9d0f6ed0ed6482ec3a09ea47602a9f61d119849d68f396abefae54bc9b5",
        "0x3ebd9e5905adae9e20dc14885ae611c2e59e4e266b7fabb1dd36377462d3b488",
        "0xa42eb0513da9d924d3ae1e65f4e8f46e5afb3291edf9af7240e7bae288299e6e",
        "0x8ea2264b826a20f89d18fc08264a3812a6980c3ffe420ffe83a4bd2eac23b4df"
      ],
      "body": {
        "beneficiary": "0x07f5053c867ae107db15a38aa4421b2c24ac4e51",
        "claimType": 2,
        "amount": "1904208387191951393683",
        "rewardEpochId": 2805
      }
    },
    {
      "merkleProof": [
        "0x2a8ef6fe9197fa9a030359d1b8ae91e9b319e572ddc82796747c5f542b89b894",
        "0x9130aebda668f88cbac379f75868e86477afb36f5b826f85b633bebb7f4a91fe",
        "0x679784399b26c77fc930129ee75a37561a456dbccc94f6f981ad83f78273f001",
        "0x058ebe2ee038b378347563f374ad7db3de3108103cb6d844abcfbfe9431fd953",
        "0x8ea2264b826a20f89d18fc08264a3812a6980c3ffe420ffe83a4bd2eac23b4df"
      ],
      "body": {
        "beneficiary": "0xca84d6086c5b32212a0cf1638803355d7be31482",
        "claimType": 1,
        "amount": "375445985986820479592",
        "rewardEpochId": 2805
      }
    },
    {
      "merkleProof": [
        "0xacaa5ffed2e3cb10c3f7c29c862f87ecddd2e6e15a087f09faebe979b087fee5",
        "0x2f770fa4e8307be22e40355b40cfd23b67a1ffcd3d3505e43f46ec224415c8a2",
        "0xb6925a17e0f6ac0c10cb24531605fd5444fc32fd6f670d6ed7143441218a2106",
        "0xf00c5c4ca657dfcbf4345640ec0ebf6a0b5c6e0c4ef82d5aab65b65319bbb09a",
        "0x5529e5277bf21472969e63a9bf035bf541343b7e060b895f489c6b589749cda9"
      ],
      "body": {
        "beneficiary": "0x55fcf7806f556204141fe90fbe9ce6207d9c52ac",
        "claimType": 2,
        "amount": "1501783943947281918717",
        "rewardEpochId": 2805
      }
    },
    {
      "merkleProof": [
        "0x33ac5aefcf6fd7c1b248d85b57cef46464615c49d2e0e5d47c474d180941a25f",
        "0xdff72992fa2ebd8d5587225541fbb206dc7be9c659dc719781c1144575fb78f7",
        "0x679784399b26c77fc930129ee75a37561a456dbccc94f6f981ad83f78273f001",
        "0x058ebe2ee038b378347563f374ad7db3de3108103cb6d844abcfbfe9431fd953",
        "0x8ea2264b826a20f89d18fc08264a3812a6980c3ffe420ffe83a4bd2eac23b4df"
      ],
      "body": {
        "beneficiary": "0x000000000000000000000000000000000000dead",
        "claimType": 0,
        "amount": "16594489057181696522082",
        "rewardEpochId": 2805
      }
    },
    {
      "merkleProof": [
        "0xdae62243de8a67464e2ac6a18c7fd92b9771845fc52f91e6ffbc8a55f3cf9377",
        "0xf2d0dde13a40f4705d4fc7f75ca0a48c4db016dedebeedbc9e9bb3eada5033e1",
        "0x55f2c021e63ca011b2f7907f82c5e0bdd314a70af7fe54daa0f05fed2ef84907",
        "0xf00c5c4ca657dfcbf4345640ec0ebf6a0b5c6e0c4ef82d5aab65b65319bbb09a",
        "0x5529e5277bf21472969e63a9bf035bf541343b7e060b895f489c6b589749cda9"
      ],
      "body": {
        "beneficiary": "0x0bed169e74037b66a2e1c1a4937c285057773dbb",
        "claimType": 1,
        "amount": "4454301624282809131",
        "rewardEpochId": 2805
      }
    },
    {
      "merkleProof": [
        "0xfe302e2ca7bb162f2d15a2a5738b691f465b7baaba4d60917a30b4969a392761",
        "0x02fe67458ff540d14dd94ceddf081e1dc250323c963b31146eb1c3bb2cf89a76",
        "0x033f558f8aabf518d5d5ac31d8232aebd4eea319b07a893febc57874775a3d28",
        "0xf87c453f7a20fd6eee49e14ee369d0a639510082bd949f86058218ec89cad268",
        "0x058ebe2ee038b378347563f374ad7db3de3108103cb6d844abcfbfe9431fd953",
        "0x8ea2264b826a20f89d18fc08264a3812a6980c3ffe420ffe83a4bd2eac23b4df"
      ],
      "body": {
        "beneficiary": "0xbc9a659af696a4d7375b104db8e5189b54f9d2b3",
        "claimType": 2,
        "amount": "2210578135619993203830",
        "rewardEpochId": 2805
      }
    },
    {
      "merkleProof": [
        "0x705bd5e7d28bef8017a36806481d54b686497c46a7a475e20d7c398707626271",
        "0x4b44aafd718c27e2e0cfee6f7c791eeb7736e90490d97c90a8b83aa9d63b8e34",
        "0x857564e9cee21eecad38e3dd062fb3d8fc95fd560f5c1e772bddcbc0c7b2f6c7",
        "0xee3fede2bc4774c527a79aa9dc3ed23a3ecb55515408994b5808097cba0f32fb",
        "0x5529e5277bf21472969e63a9bf035bf541343b7e060b895f489c6b589749cda9"
      ],
      "body": {
        "beneficiary": "0x9181f8ed4381ce39dbf4b8336b6295de89527c46",
        "claimType": 1,
        "amount": "1510924988340977011",
        "rewardEpochId": 2805
      }
    },
    {
      "merkleProof": [
        "0x8b79a03f1c6b08932b4074aab58159e3dac655ccf2cc7bec079be0357914d2f5",
        "0xcf75e43c6f938fffc673180cd427816cb16ac7a05d5d96fa4315c5b4c35baddb",
        "0x0bb0480192827f225f41aa51a8d37242d21f6376bd46efae884beba9a259e685",
        "0xee3fede2bc4774c527a79aa9dc3ed23a3ecb55515408994b5808097cba0f32fb",
        "0x5529e5277bf21472969e63a9bf035bf541343b7e060b895f489c6b589749cda9"
      ],
      "body": {
        "beneficiary": "0x884cde7b5f2f0a9ee28f90ce1d4aa526373b3e2c",
        "claimType": 2,
        "amount": "753255518655383303364",
        "rewardEpochId": 2805
      }
    },
    {
      "merkleProof": [
        "0x4366dd6ebbf3a37615d82810200251e34f512c56bc220a496d1693c50c583e34",
        "0x5750fe8995d674d87607e00e1e04b3798ee308d4b6bc80d24f3b62744ac0fb2f",
        "0xddf1269bc5af3f0d252adb4317a8a07244923770d2d74cb3d9637c73b448c146",
        "0xa42eb0513da9d924d3ae1e65f4e8f46e5afb3291edf9af7240e7bae288299e6e",
        "0x8ea2264b826a20f89d18fc08264a3812a6980c3ffe420ffe83a4bd2eac23b4df"
      ],
      "body": {
        "beneficiary": "0x25f42def3fcc078de8895cd01de8ab6514020548",
        "claimType": 1,
        "amount": "2283616302947944596",
        "rewardEpochId": 2805
      }
    },
    {
      "merkleProof": [
        "0x20400a97121eef5f3b82c2b13a272159f957d896f278404541e1196ab5a02a9a",
        "0x632de851f1c1a4ea0fbb89d8e378ad7a252ee158a57bf0be1e2bca3d6ce09063",
        "0xf87c453f7a20fd6eee49e14ee369d0a639510082bd949f86058218ec89cad268",
        "0x058ebe2ee038b378347563f374ad7db3de3108103cb6d844abcfbfe9431fd953",
        "0x8ea2264b826a20f89d18fc08264a3812a6980c3ffe420ffe83a4bd2eac23b4df"
      ],
      "body": {
        "beneficiary": "0x256194ca4884dbe2933862f0e9f7e0e4d411eb35",
        "claimType": 2,
        "amount": "1125501510499318097424",
        "rewardEpochId": 2805
      }
    },
    {
      "merkleProof": [
        "0x3dccd9069ec631a048002c22faada4ee044172efd104929b0f1e16ed1bacec8a",
        "0x5750fe8995d674d87607e00e1e04b3798ee308d4b6bc80d24f3b62744ac0fb2f",
        "0xddf1269bc5af3f0d252adb4317a8a07244923770d2d74cb3d9637c73b448c146",
        "0xa42eb0513da9d924d3ae1e65f4e8f46e5afb3291edf9af7240e7bae288299e6e",
        "0x8ea2264b826a20f89d18fc08264a3812a6980c3ffe420ffe83a4bd2eac23b4df"
      ],
      "body": {
        "beneficiary": "0xf355c48aab6ac9f6ed4e1750a34690f4d28cb30e",
        "claimType": 1,
        "amount": "725359996163569425",
        "rewardEpochId": 2805
      }
    },
    {
      "merkleProof": [
        "0x9a8181083aaccd16c4ce09f3be348889e6d54fcfd3b544759f223f6ddd38a6c8",
        "0x033f558f8aabf518d5d5ac31d8232aebd4eea319b07a893febc57874775a3d28",
        "0xf87c453f7a20fd6eee49e14ee369d0a639510082bd949f86058218ec89cad268",
        "0x058ebe2ee038b378347563f374ad7db3de3108103cb6d844abcfbfe9431fd953",
        "0x8ea2264b826a20f89d18fc08264a3812a6980c3ffe420ffe83a4bd2eac23b4df"
      ],
      "body": {
        "beneficiary": "0xb13a59ecfbbec4d4539be101c5f15521ca23c8ee",
        "claimType": 2,
        "amount": "361725686074483915915",
        "rewardEpochId": 2805
      }
    },
    {
      "merkleProof": [
        "0x73ab154abbbf6f644ae7ca894ca0955c22e2fa57c5b3dfd743fd9a1c94a98c9c",
        "0x9c3577e1f6cd599a5e40b8a76d77e5acaa12d00d5a29a3accd4da8f2246b3b41",
        "0x857564e9cee21eecad38e3dd062fb3d8fc95fd560f5c1e772bddcbc0c7b2f6c7",
        "0xee3fede2bc4774c527a79aa9dc3ed23a3ecb55515408994b5808097cba0f32fb",
        "0x5529e5277bf21472969e63a9bf035bf541343b7e060b895f489c6b589749cda9"
      ],
      "body": {
        "beneficiary": "0x19b6fde072fd962dd191e5d17121a6733d7e1977",
        "claimType": 1,
        "amount": "2280812346971889792",
        "rewardEpochId": 2805
      }
    },
    {
      "merkleProof": [
        "0x3d9e279ce9465e471881a7a97a8b0041c41c40b269906e5620f0dc91b2151653",
        "0x34861bbd360395e12119b2daea4909752f511b0fd9330577aea36ad039a86e14",
        "0xddf1269bc5af3f0d252adb4317a8a07244923770d2d74cb3d9637c73b448c146",
        "0xa42eb0513da9d924d3ae1e65f4e8f46e5afb3291edf9af7240e7bae288299e6e",
        "0x8ea2264b826a20f89d18fc08264a3812a6980c3ffe420ffe83a4bd2eac23b4df"
      ],
      "body": {
        "beneficiary": "0x9faacf0334c62fcd9b2ead3dde72febce796859d",
        "claimType": 2,
        "amount": "1138125361138979722285",
        "rewardEpochId": 2805
      }
    },
    {
      "merkleProof": [
        "0xaba6a94df00b249c45831bbd5cf3e0004ee03dd8b81d20866430f25277ab94e8",
        "0x1c332e1170c5ea3dcc31b840067be9a69912550675ac1a5f0e693ac8db078877",
        "0xb6925a17e0f6ac0c10cb24531605fd5444fc32fd6f670d6ed7143441218a2106",
        "0xf00c5c4ca657dfcbf4345640ec0ebf6a0b5c6e0c4ef82d5aab65b65319bbb09a",
        "0x5529e5277bf21472969e63a9bf035bf541343b7e060b895f489c6b589749cda9"
      ],
      "body": {
        "beneficiary": "0xadf3a9a6494b8c1a24f0eec5d44a388afc10df09",
        "claimType": 1,
        "amount": "1498724454029527153",
        "rewardEpochId": 2805
      }
    },
    {
      "merkleProof": [
        "0x88295f67f2108605f530368a5d4457985fe1350e2bb70c5e5c916ad8a8611bf2",
        "0xb0edab2de7a1c401c221a1185048fd121ca901f2993d6e17ba490007c679651a",
        "0x0bb0480192827f225f41aa51a8d37242d21f6376bd46efae884beba9a259e685",
        "0xee3fede2bc4774c527a79aa9dc3ed23a3ecb55515408994b5808097cba0f32fb",
        "0x5529e5277bf21472969e63a9bf035bf541343b7e060b895f489c6b589749cda9"
      ],
      "body": {
        "beneficiary": "0xf75a67d060f28f269d3f7a51fdb2859e7d6a4d78",
        "claimType": 2,
        "amount": "745020631065906415853",
        "rewardEpochId": 2805
      }
    },
    {
      "merkleProof": [
        "0xf33f78516d84bedd62faad0d5e2acb93629f6f74979ebc71fefb747df5f87bbc",
        "0xf2d0dde13a40f4705d4fc7f75ca0a48c4db016dedebeedbc9e9bb3eada5033e1",
        "0x55f2c021e63ca011b2f7907f82c5e0bdd314a70af7fe54daa0f05fed2ef84907",
        "0xf00c5c4ca657dfcbf4345640ec0ebf6a0b5c6e0c4ef82d5aab65b65319bbb09a",
        "0x5529e5277bf21472969e63a9bf035bf541343b7e060b895f489c6b589749cda9"
      ],
      "body": {
        "beneficiary": "0x437d15fad24dc5fe77384c34e24ee0b4c2607d79",
        "claimType": 1,
        "amount": "796912279496404661",
        "rewardEpochId": 2805
      }
    },
    {
      "merkleProof": [
        "0x72562c623f944047a8fcc7aa46251a1604afdfbe5822cd8fb450e48c58901ed8",
        "0x9c3577e1f6cd599a5e40b8a76d77e5acaa12d00d5a29a3accd4da8f2246b3b41",
        "0x857564e9cee21eecad38e3dd062fb3d8fc95fd560f5c1e772bddcbc0c7b2f6c7",
        "0xee3fede2bc4774c527a79aa9dc3ed23a3ecb55515408994b5808097cba0f32fb",
        "0x5529e5277bf21472969e63a9bf035bf541343b7e060b895f489c6b589749cda9"
      ],
      "body": {
        "beneficiary": "0xd88833424225068867309e0ec02999883c14dc77",
        "claimType": 2,
        "amount": "397077124010716897950",
        "rewardEpochId": 2805
      }
    },
    {
      "merkleProof": [
        "0xc99134192558be38bda5a100780abba64794532d40f9aa380b3945a32ccd1870",
        "0x7410ade660945e3dd380eb663551092014c55495a493d45ef854779b6814c262",
        "0x55f2c021e63ca011b2f7907f82c5e0bdd314a70af7fe54daa0f05fed2ef84907",
        "0xf00c5c4ca657dfcbf4345640ec0ebf6a0b5c6e0c4ef82d5aab65b65319bbb09a",
        "0x5529e5277bf21472969e63a9bf035bf541343b7e060b895f489c6b589749cda9"
      ],
      "body": {
        "beneficiary": "0x0dd018692f98a7894ecc7ba90cfb8f93a19159d3",
        "claimType": 1,
        "amount": "21448432287013741",
        "rewardEpochId": 2805
      }
    },
    {
      "merkleProof": [
        "0x91763d85880c796fb684d6de2c7a6c35f82596209fa9c43c0f94f4205fb2a130",
        "0xcf75e43c6f938fffc673180cd427816cb16ac7a05d5d96fa4315c5b4c35baddb",
        "0x0bb0480192827f225f41aa51a8d37242d21f6376bd46efae884beba9a259e685",
        "0xee3fede2bc4774c527a79aa9dc3ed23a3ecb55515408994b5808097cba0f32fb",
        "0x5529e5277bf21472969e63a9bf035bf541343b7e060b895f489c6b589749cda9"
      ],
      "body": {
        "beneficiary": "0x612cff400ee27c91b956c45f4c50e61b55312430",
        "claimType": 2,
        "amount": "85793729148055125",
        "rewardEpochId": 2805
      }
    },
    {
      "merkleProof": [
        "0x76e6aaf25ead4987aa253a69bbe96cb783d0f6ba6d82de538a592fdf95e3d1f1",
        "0xb0edab2de7a1c401c221a1185048fd121ca901f2993d6e17ba490007c679651a",
        "0x0bb0480192827f225f41aa51a8d37242d21f6376bd46efae884beba9a259e685",
        "0xee3fede2bc4774c527a79aa9dc3ed23a3ecb55515408994b5808097cba0f32fb",
        "0x5529e5277bf21472969e63a9bf035bf541343b7e060b895f489c6b589749cda9"
      ],
      "body": {
        "beneficiary": "0x1d415d28380ff51a507f7b176ca5f27833f7fffd",
        "claimType": 1,
        "amount": "275769244451633783929",
        "rewardEpochId": 2805
      }
    },
    {
      "merkleProof": [
        "0x344ca39840d4b62eea0e9f2911999e3af57a973ff3d7f47918448c47db46f880",
        "0x34861bbd360395e12119b2daea4909752f511b0fd9330577aea36ad039a86e14",
        "0xddf1269bc5af3f0d252adb4317a8a07244923770d2d74cb3d9637c73b448c146",
        "0xa42eb0513da9d924d3ae1e65f4e8f46e5afb3291edf9af7240e7bae288299e6e",
        "0x8ea2264b826a20f89d18fc08264a3812a6980c3ffe420ffe83a4bd2eac23b4df"
      ],
      "body": {
        "beneficiary": "0xb849b93b585effb7ce4b522ff88d9b3b24955f24",
        "claimType": 2,
        "amount": "1103076977806535136115",
        "rewardEpochId": 2805
      }
    },
    {
      "merkleProof": [
        "0x20da510e529cdf03bb799e58e9ea9f487373367d7424f662625b44960518edc3",
        "0x9130aebda668f88cbac379f75868e86477afb36f5b826f85b633bebb7f4a91fe",
        "0x679784399b26c77fc930129ee75a37561a456dbccc94f6f981ad83f78273f001",
        "0x058ebe2ee038b378347563f374ad7db3de3108103cb6d844abcfbfe9431fd953",
        "0x8ea2264b826a20f89d18fc08264a3812a6980c3ffe420ffe83a4bd2eac23b4df"
      ],
      "body": {
        "beneficiary": "0x2e46e8d1f3636f7036978d054b0a07e7395053c8",
        "claimType": 1,
        "amount": "649563504470074151701",
        "rewardEpochId": 2805
      }
    },
    {
      "merkleProof": [
        "0xd2ea43cfdbcd7ffefa662ccabda30c9075f0bb2cafba601790c56b7de93ada3b",
        "0x7410ade660945e3dd380eb663551092014c55495a493d45ef854779b6814c262",
        "0x55f2c021e63ca011b2f7907f82c5e0bdd314a70af7fe54daa0f05fed2ef84907",
        "0xf00c5c4ca657dfcbf4345640ec0ebf6a0b5c6e0c4ef82d5aab65b65319bbb09a",
        "0x5529e5277bf21472969e63a9bf035bf541343b7e060b895f489c6b589749cda9"
      ],
      "body": {
        "beneficiary": "0xe80c39eae57c0359ee6c4086e2b22300353728e1",
        "claimType": 2,
        "amount": "2598254017880296607112",
        "rewardEpochId": 2805
      }
    },
    {
      "merkleProof": [
        "0x4548a2bace0235f37ae07de2d9f40f9f8e2e84aa3962bfce8956a2ecc4495f1d",
        "0x9318f9d0f6ed0ed6482ec3a09ea47602a9f61d119849d68f396abefae54bc9b5",
        "0x3ebd9e5905adae9e20dc14885ae611c2e59e4e266b7fabb1dd36377462d3b488",
        "0xa42eb0513da9d924d3ae1e65f4e8f46e5afb3291edf9af7240e7bae288299e6e",
        "0x8ea2264b826a20f89d18fc08264a3812a6980c3ffe420ffe83a4bd2eac23b4df"
      ],
      "body": {
        "beneficiary": "0xc6cb03a22213a3e02186a3126d47c7fba20e4ef5",
        "claimType": 1,
        "amount": "536020386706926678456",
        "rewardEpochId": 2805
      }
    },
    {
      "merkleProof": [
        "0xc8e4a4df24736424240aac372bc176d12e48729f0706499a0479b059b5652213",
        "0x2f770fa4e8307be22e40355b40cfd23b67a1ffcd3d3505e43f46ec224415c8a2",
        "0xb6925a17e0f6ac0c10cb24531605fd5444fc32fd6f670d6ed7143441218a2106",
        "0xf00c5c4ca657dfcbf4345640ec0ebf6a0b5c6e0c4ef82d5aab65b65319bbb09a",
        "0x5529e5277bf21472969e63a9bf035bf541343b7e060b895f489c6b589749cda9"
      ],
      "body": {
        "beneficiary": "0xabaa1718c2d80fc037bf66e3f66f0975d67431a9",
        "claimType": 2,
        "amount": "2144081546827706714167",
        "rewardEpochId": 2805
      }
    },
    {
      "merkleProof": [
        "0x0e29fe5b2d88c1336a56a0669e0236c0cc6734b03facb91e27c214644673a1f1",
        "0x632de851f1c1a4ea0fbb89d8e378ad7a252ee158a57bf0be1e2bca3d6ce09063",
        "0xf87c453f7a20fd6eee49e14ee369d0a639510082bd949f86058218ec89cad268",
        "0x058ebe2ee038b378347563f374ad7db3de3108103cb6d844abcfbfe9431fd953",
        "0x8ea2264b826a20f89d18fc08264a3812a6980c3ffe420ffe83a4bd2eac23b4df"
      ],
      "body": {
        "beneficiary": "0xa6a088c1036f4fd6f022d52630842e19f90405ed",
        "claimType": 1,
        "amount": "3645095450363120",
        "rewardEpochId": 2805
      }
    },
    {
      "merkleProof": [
        "0xfe46546c02d2bc3cfda913b0640c455dc7a8fb88febd158ce8e204e9d25cabf2",
        "0x02fe67458ff540d14dd94ceddf081e1dc250323c963b31146eb1c3bb2cf89a76",
        "0x033f558f8aabf518d5d5ac31d8232aebd4eea319b07a893febc57874775a3d28",
        "0xf87c453f7a20fd6eee49e14ee369d0a639510082bd949f86058218ec89cad268",
        "0x058ebe2ee038b378347563f374ad7db3de3108103cb6d844abcfbfe9431fd953",
        "0x8ea2264b826a20f89d18fc08264a3812a6980c3ffe420ffe83a4bd2eac23b4df"
      ],
      "body": {
        "beneficiary": "0xddef1deac28e2d91f3d3c682c737cc0ef8489aba",
        "claimType": 2,
        "amount": "14580381801452583",
        "rewardEpochId": 2805
      }
    },
    {
      "merkleProof": [
        "0x52d13587545adcd76d05d92dca9ca7a24c32d6e285f3d99693a8c9c52d74cba3",
        "0xf7c2f0cd0bfa9217907ac8fb9f5fe91c04933bc93175070173c890b7594292d2",
        "0x3ebd9e5905adae9e20dc14885ae611c2e59e4e266b7fabb1dd36377462d3b488",
        "0xa42eb0513da9d924d3ae1e65f4e8f46e5afb3291edf9af7240e7bae288299e6e",
        "0x8ea2264b826a20f89d18fc08264a3812a6980c3ffe420ffe83a4bd2eac23b4df"
      ],
      "body": {
        "beneficiary": "0xc21db9cb4728b86ae69b4191afb47d410e265eac",
        "claimType": 1,
        "amount": "11420846648751572535",
        "rewardEpochId": 2805
      }
    },
    {
      "merkleProof": [
        "0x9fa5736b3e1094d1cb7dd0b760751816e72550b8c7c4f8f17293a9c62b3f83ff",
        "0x1c332e1170c5ea3dcc31b840067be9a69912550675ac1a5f0e693ac8db078877",
        "0xb6925a17e0f6ac0c10cb24531605fd5444fc32fd6f670d6ed7143441218a2106",
        "0xf00c5c4ca657dfcbf4345640ec0ebf6a0b5c6e0c4ef82d5aab65b65319bbb09a",
        "0x5529e5277bf21472969e63a9bf035bf541343b7e060b895f489c6b589749cda9"
      ],
      "body": {
        "beneficiary": "0xf5e53990e4e4c42356fcc96d86618728e0b602b6",
        "claimType": 2,
        "amount": "45683386595006290179",
        "rewardEpochId": 2805
      }
    },
    {
      "merkleProof": [
        "0x2f8cb98fba5ab9747fab88b5b3233c0df8e926fc84e0c7a621ef94506a4e0528",
        "0xdff72992fa2ebd8d5587225541fbb206dc7be9c659dc719781c1144575fb78f7",
        "0x679784399b26c77fc930129ee75a37561a456dbccc94f6f981ad83f78273f001",
        "0x058ebe2ee038b378347563f374ad7db3de3108103cb6d844abcfbfe9431fd953",
        "0x8ea2264b826a20f89d18fc08264a3812a6980c3ffe420ffe83a4bd2eac23b4df"
      ],
      "body": {
        "beneficiary": "0xf206f9b8bda82301c19a67b3d272f060bbe51e02",
        "claimType": 1,
        "amount": "3938058043733595",
        "rewardEpochId": 2805
      }
    },
    {
      "merkleProof": [
        "0x57ba9c99d10bb4e6175ab8cc6510924f900a4dd2fce0534d94a9bd8bf3a1d33b",
        "0x4b44aafd718c27e2e0cfee6f7c791eeb7736e90490d97c90a8b83aa9d63b8e34",
        "0x857564e9cee21eecad38e3dd062fb3d8fc95fd560f5c1e772bddcbc0c7b2f6c7",
        "0xee3fede2bc4774c527a79aa9dc3ed23a3ecb55515408994b5808097cba0f32fb",
        "0x5529e5277bf21472969e63a9bf035bf541343b7e060b895f489c6b589749cda9"
      ],
      "body": {
        "beneficiary": "0x11cef138b1ee96a481dc040842433bfc5229ad70",
        "claimType": 2,
        "amount": "15752232174934403",
        "rewardEpochId": 2805
      }
    }
  ],
  "noOfWeightBasedClaims": 16,
  "merkleRoot": "0xb98e479b91bbd281969a93346a7ab46916914f4991ad983f4ea8e0464bcee50e",
  "abi": {
    "components": [
      {
        "internalType": "uint24",
        "name": "rewardEpochId",
        "type": "uint24"
      },
      {
        "internalType": "bytes20",
        "name": "beneficiary",
        "type": "bytes20"
      },
      {
        "internalType": "uint120",
        "name": "amount",
        "type": "uint120"
      },
      {
        "internalType": "enum IRewardManager.ClaimType",
        "name": "claimType",
        "type": "uint8"
      }
    ],
    "internalType": "struct IRewardManager.RewardClaim",
    "name": "_claim",
    "type": "tuple"
  }
}