{
  "rewardEpochId": 2825,
  "rewardClaims": [
    {
      "merkleProof": [
        "0x7501318395242c3dc75d04a02762895f5bc0aa3cb6cb40ce4240be3963e93b2d",
        "0xb265e9d7b720fbcae4a6a5e3fcc73a29c729897a9922cb7585cc90792aae2077",
        "0xeaa6be66f1dfb0d4ed3898ef4fb9a450aa2061909750c2c6914bfda82b0f99fe",
        "0xbcbe8cdd4a9122505f9556d39ba9ce1b8bc44e61039435f146b5759b45d7c474",
        "0xd40044680401e6e1b187a6ed22428303379b40a51094342f2ab1ad93ac5e1a1c"
      ],
      "body": {
        "beneficiary": "0x000000000000000000000000000000000000dead",
        "claimType": 0,
        "amount": "16470335982449778832502",
        "rewardEpochId": 2825
      }
    },
    {
      "merkleProof": [
        "0x47af252d4ebf7541d2cfc00a7756432b20cf1fdf56c6ac7a9c14295b0ea74a86",
        "0x2cbeca67c3dc466ad240f7817ee99e779e1156b47f1ae4bd817482d093d0b347",
        "0xaf44933f10cb1127b8b393db654706acb3a8150e53e496547fa77f39173b099f",
        "0xc3664632d0be27599e06b6a96cf8fc506846d180b7716ac76116677700edc3c1",
        "0x3280049ebdfb58c2260bf0433d95cb8b639931e2d73063afe00f871eafd0ad4f"
      ],
      "body": {
        "beneficiary": "0x25f42def3fcc078de8895cd01de8ab6514020548",
        "claimType": 1,
        "amount": "14182700268839622358",
        "rewardEpochId": 2825
      }
    },
    {
      "merkleProof": [
        "0x089cdd07ecfe0a77c55409d65bbef78b8541d8560b49d452575123bd4547dece",
        "0xd291d08977668804b30c269d4da03b2d797ccaca88264304be4d4d1ac80675dc",
        "0x02e6ab690bdfc477dc9b508e5b54afe748a622e0ad8cd7f1d67c45015279e8bb",
        "0x2b111f919cb40b68601ee594803597f219e4201559725783e80c980a6d5932f4",
        "0x3280049ebdfb58c2260bf0433d95cb8b639931e2d73063afe00f871eafd0ad4f"
      ],
      "body": {
        "beneficiary": "0x256194ca4884dbe2933862f0e9f7e0e4d411eb35",
        "claimType": 2,
        "amount": "2806462719947132451819",
        "rewardEpochId": 2825
      }
    },
    {
      "merkleProof": [
        "0x2ae0b4501f2ad5291cdf178b033f7efe894f326397e46823c1057e0a6559b94a",
        "0xf14f1af4e1809e3dfec9cffc24cedbe125429ab153e8ee286d68e354bfd52730",
        "0x728332d7e924736da6efddf85cce30337cd78c51f1042fd50610da00828eb46d",
        "0xc3664632d0be27599e06b6a96cf8fc506846d180b7716ac76116677700edc3c1",
        "0x3280049ebdfb58c2260bf0433d95cb8b639931e2d73063afe00f871eafd0ad4f"
      ],
      "body": {
        "beneficiary": "0xadf3a9a6494b8c1a24f0eec5d44a388afc10df09",
        "claimType": 1,
        "amount": "11763654505702351089",
        "rewardEpochId": 2825
      }
    },
    {
      "merkleProof": [
        "0xb23e57811b6cb8707414564fff3ce61179e34a48c3dcb3d3e3805d4c274a9ea2",
        "0xb328cea36e38140822f7f371dd6e3167886ab226d41c4325b60310d2804f03d4",
        "0x8f809e5c9abd1af8f9e81d78701a5f5844b61d73d579628c990aad9aed06feb1",
        "0xcdaef6645d3b8f4caf169220e6306aaa877b1682e9f8d6b15601acb3d3916669",
        "0xd40044680401e6e1b187a6ed22428303379b40a51094342f2ab1ad93ac5e1a1c"
      ],
      "body": {
        "beneficiary": "0xf75a67d060f28f269d3f7a51fdb2859e7d6a4d78",
        "claimType": 2,
        "amount": "473345436546122217287",
        "rewardEpochId": 2825
      }
    },
    {
      "merkleProof": [
        "0x80886b124059b15b6a8bf4f1788c640e09e583b516a01436d122f381bb82e95e",
        "0x073f8f3b063649044cc916c8557b9a6f86a027dac858f5c807503caefd892c53",
        "0x18343094b831684478e95a271fa7d5261929b8f838d7d56b0db25facacea7b7a",
        "0xbcbe8cdd4a9122505f9556d39ba9ce1b8bc44e61039435f146b5759b45d7c474",
        "0xd40044680401e6e1b187a6ed22428303379b40a51094342f2ab1ad93ac5e1a1c"
      ],
      "body": {
        "beneficiary": "0x0dd018692f98a7894ecc7ba90cfb8f93a19159d3",
        "claimType": 1,
        "amount": "3212269147769619654",
        "rewardEpochId": 2825
      }
    },
    {
      "merkleProof": [
        "0x5a6188ad4ebe767ad2f76f6605717a9ef043f5b90b514272364cca5f81ebcfd4",
        "0x15cff0257ebe1dd9d1dabd24e69586188599812eed11da5d1b61d3e0a605e729",
        "0xeaa6be66f1dfb0d4ed3898ef4fb9a450aa2061909750c2c6914bfda82b0f99fe",
        "0xbcbe8cdd4a9122505f9556d39ba9ce1b8bc44e61039435f146b5759b45d7c474",
        "0xd40044680401e6e1b187a6ed22428303379b40a51094342f2ab1ad93ac5e1a1c"
      ],
      "body": {
        "beneficiary": "0x612cff400ee27c91b956c45f4c50e61b55312430",
        "claimType": 2,
        "amount": "12849076591078478862",
        "rewardEpochId": 2825
      }
    },
    {
      "merkleProof": [
        "0xbe770dd0e0126ae9dbf493ac98a9bb6e2801ed43584c92305b4e607b6e7b10f0",
        "0xb996324387e9f9859291b6f2f02a028fcff899f0280f756f553917f15bb6fc8d",
        "0x8f809e5c9abd1af8f9e81d78701a5f5844b61d73d579628c990aad9aed06feb1",
        "0xcdaef6645d3b8f4caf169220e6306aaa877b1682e9f8d6b15601acb3d3916669",
        "0xd40044680401e6e1b187a6ed22428303379b40a51094342f2ab1ad93ac5e1a1c"
      ],
      "body": {
        "beneficiary": "0xc6cb03a22213a3e02186a3126d47c7fba20e4ef5",
        "claimType": 1,
        "amount": "754739905861925295437",
        "rewardEpochId": 2825
      }
    },
    {
      "merkleProof": [
        "0xfe9fb73097487fc2f5a75bf1c0e98ab095dbe91654a4e1916b586e4e99f437a0",
        "0x05de67b0420a2284dd51a3807c954a6dfcec179df4ce658322b6ca2816e61d5a",
        "0xfb46a5234e7aa98846bf44f5ddf90d374806919fba2d673ee8823ac2b6b29bee",
        "0x02e6ab690bdfc477dc9b508e5b54afe748a622e0ad8cd7f1d67c45015279e8bb",
        "0x2b111f919cb40b68601ee594803597f219e4201559725783e80c980a6d5932f4",
        "0x3280049ebdfb58c2260bf0433d95cb8b639931e2d73063afe00f871eafd0ad4f"
      ],
      "body": {
        "beneficiary": "0xabaa1718c2d80fc037bf66e3f66f0975d67431a9",
        "claimType": 2,
        "amount": "3018959623447701182187",
        "rewardEpochId": 2825
      }
    },
    {
      "merkleProof": [
        "0xfd121e1170cf64e0c20699b41056ca216fe3c0fcbd852f851043bd39738f25d1",
        "0x05de67b0420a2284dd51a3807c954a6dfcec179df4ce658322b6ca2816e61d5a",
        "0xfb46a5234e7aa98846bf44f5ddf90d374806919fba2d673ee8823ac2b6b29bee",
        "0x02e6ab690bdfc477dc9b508e5b54afe748a622e0ad8cd7f1d67c45015279e8bb",
        "0x2b111f919cb40b68601ee594803597f219e4201559725783e80c980a6d5932f4",
        "0x3280049ebdfb58c2260bf0433d95cb8b639931e2d73063afe00f871eafd0ad4f"
      ],
      "body": {
        "beneficiary": "0x437d15fad24dc5fe77384c34e24ee0b4c2607d79",
        "claimType": 1,
        "amount": "458083928517792208",
        "rewardEpochId": 2825
      }
    },
    {
      "merkleProof": [
        "0xcaf5b9f55e7e113acd1b708f879443f05a9c70c5709b8857f032cac99d773121",
        "0x867d95bf2777a04854cfced07389b8a504775eddfd5987253e153c13af8425c3",
        "0x06f70d90bc14fe873551ea02e2d68440b77e1b8703ecc1659416bb07375841c8",
        "0x8f4b6762718a28c7431da7fb3448920a33e84f46d8cf1518943420c3d46a89ea",
        "0x2b111f919cb40b68601ee594803597f219e4201559725783e80c980a6d5932f4",
        "0x3280049ebdfb58c2260bf0433d95cb8b639931e2d73063afe00f871eafd0ad4f"
      ],
      "body": {
        "beneficiary": "0xd88833424225068867309e0ec02999883c14dc77",
        "claimType": 2,
        "amount": "228154494951240462292",
        "rewardEpochId": 2825
      }
    },
    {
      "merkleProof": [
        "0x91abddbd8a5104f2865b569ec81297cc45350984840a53db1b747707f57b2077",
        "0x9d70b54a936c4a5b39a5a68e21ce553d56fab2f63210546adb5b84ad0b1c1ae1",
        "0x13ff4f071c87308b9b5713b0df799142169af174714f56fc420c9eb2bbdfcca2",
        "0xcdaef6645d3b8f4caf169220e6306aaa877b1682e9f8d6b15601acb3d3916669",
        "0xd40044680401e6e1b187a6ed22428303379b40a51094342f2ab1ad93ac5e1a1c"
      ],
      "body": {
        "beneficiary": "0xca84d6086c5b32212a0cf1638803355d7be31482",
        "claimType": 1,
        "amount": "445675155730306463850",
        "rewardEpochId": 2825
      }
    },
    {
      "merkleProof": [
        "0x9fdd23c0ced1fb615b9d72620f55a5ede80577fb9ff98c2748f36a40277dbd71",
        "0xfb46a5234e7aa98846bf44f5ddf90d374806919fba2d673ee8823ac2b6b29bee",
        "0x02e6ab690bdfc477dc9b508e5b54afe748a622e0ad8cd7f1d67c45015279e8bb",
        "0x2b111f919cb40b68601ee594803597f219e4201559725783e80c980a6d5932f4",
        "0x3280049ebdfb58c2260bf0433d95cb8b639931e2d73063afe00f871eafd0ad4f"
      ],
      "body": {
        "beneficiary": "0x55fcf7806f556204141fe90fbe9ce6207d9c52ac",
        "claimType": 2,
        "amount": "1782700622921225855727",
        "rewardEpochId": 2825
      }
    },
    {
      "merkleProof": [
        "0x8e53eb4da10c99b423717025592a1ea03b0c2658e8d191b5681b3322f496ddad",
        "0x12270bcde72588b19a7711c0599343e83f4c555e867a54ac288767ab90144ae8",
        "0x18343094b831684478e95a271fa7d5261929b8f838d7d56b0db25facacea7b7a",
        "0xbcbe8cdd4a9122505f9556d39ba9ce1b8bc44e61039435f146b5759b45d7c474",
        "0xd40044680401e6e1b187a6ed22428303379b40a51094342f2ab1ad93ac5e1a1c"
      ],
      "body": {
        "beneficiary": "0xf355c48aab6ac9f6ed4e1750a34690f4d28cb30e",
        "claimType": 1,
        "amount": "347780904513922894",
        "rewardEpochId": 2825
      }
    },
    {
      "merkleProof": [
        "0x442ff22370340a402297f26326bc25ac9d3673c8c37ca78d1c470f1084eff94d",
        "0x968540dc3c2f43368b21cfce83695b2337ba0576261a1dc001f8fb3ffe2edc4c",
        "0xaf44933f10cb1127b8b393db654706acb3a8150e53e496547fa77f39173b099f",
        "0xc3664632d0be27599e06b6a96cf8fc506846d180b7716ac76116677700edc3c1",
        "0x3280049ebdfb58c2260bf0433d95cb8b639931e2d73063afe00f871eafd0ad4f"
      ],
      "body": {
        "beneficiary": "0xb13a59ecfbbec4d4539be101c5f15521ca23c8ee",
        "claimType": 2,
        "amount": "173360577815848394646",
        "rewardEpochId": 2825
      }
    },
    {
      "merkleProof": [
        "0x78abbe6b188b84c44b02706cd315e764782c2ab49dda40d71ebbabc020cf7b39",
        "0x073f8f3b063649044cc916c8557b9a6f86a027dac858f5c807503caefd892c53",
        "0x18343094b831684478e95a271fa7d5261929b8f838d7d56b0db25facacea7b7a",
        "0xbcbe8cdd4a9122505f9556d39ba9ce1b8bc44e61039435f146b5759b45d7c474",
        "0xd40044680401e6e1b187a6ed22428303379b40a51094342f2ab1ad93ac5e1a1c"
      ],
      "body": {
        "beneficiary": "0x0bed169e74037b66a2e1c1a4937c285057773dbb",
        "claimType": 1,
        "amount": "4120418510655485447",
        "rewardEpochId": 2825
      }
    },
    {
      "merkleProof": [
        "0x0c769346d6bb55e1dc45d4a8a7dcac50d2d74355794dd8bca41cd9c733121aea",
        "0xd291d08977668804b30c269d4da03b2d797ccaca88264304be4d4d1ac80675dc",
        "0x02e6ab690bdfc477dc9b508e5b54afe748a622e0ad8cd7f1d67c45015279e8bb",
        "0x2b111f919cb40b68601ee594803597f219e4201559725783e80c980a6d5932f4",
        "0x3280049ebdfb58c2260bf0433d95cb8b639931e2d73063afe00f871eafd0ad4f"
      ],
      "body": {
        "beneficiary": "0xbc9a659af696a4d7375b104db8e5189b54f9d2b3",
        "claimType": 2,
        "amount": "982712263202983133837",
        "rewardEpochId": 2825
      }
    },
    {
      "merkleProof": [
        "0xc150037c929140e33b8f1822b40e153eb09b4cb385844253f8819811fc1257f3",
        "0x867d95bf2777a04854cfced07389b8a504775eddfd5987253e153c13af8425c3",
        "0x06f70d90bc14fe873551ea02e2d68440b77e1b8703ecc1659416bb07375841c8",
        "0x8f4b6762718a28c7431da7fb3448920a33e84f46d8cf1518943420c3d46a89ea",
        "0x2b111f919cb40b68601ee594803597f219e4201559725783e80c980a6d5932f4",
        "0x3280049ebdfb58c2260bf0433d95cb8b639931e2d73063afe00f871eafd0ad4f"
      ],
      "body": {
        "beneficiary": "0x19b6fde072fd962dd191e5d17121a6733d7e1977",
        "claimType": 1,
        "amount": "1148683035196382965",
        "rewardEpochId": 2825
      }
    },
    {
      "merkleProof": [
        "0x1a3174cdb1b6b384b4936ab7fcf6f1b14bb295af0557d5353962ac4ab8aad0ff",
        "0xfcbc15b1c3622780670fd43aff171910a97eecf0001b0db2b48331fb52bc9406",
        "0x728332d7e924736da6efddf85cce30337cd78c51f1042fd50610da00828eb46d",
        "0xc3664632d0be27599e06b6a96cf8fc506846d180b7716ac76116677700edc3c1",
        "0x3280049ebdfb58c2260bf0433d95cb8b639931e2d73063afe00f871eafd0ad4f"
      ],
      "body": {
        "beneficiary": "0x9faacf0334c62fcd9b2ead3dde72febce796859d",
        "claimType": 2,
        "amount": "573192834562995698120",
        "rewardEpochId": 2825
      }
    },
    {
      "merkleProof": [
        "0x8daa595a9e2fd7b69d520ce58f1e790c0740c9519cdf3542eb5b045ee9a588d1",
        "0x12270bcde72588b19a7711c0599343e83f4c555e867a54ac288767ab90144ae8",
        "0x18343094b831684478e95a271fa7d5261929b8f838d7d56b0db25facacea7b7a",
        "0xbcbe8cdd4a9122505f9556d39ba9ce1b8bc44e61039435f146b5759b45d7c474",
        "0xd40044680401e6e1b187a6ed22428303379b40a51094342f2ab1ad93ac5e1a1c"
      ],
      "body": {
        "beneficiary": "0x2e46e8d1f3636f7036978d054b0a07e7395053c8",
        "claimType": 1,
        "amount": "547513334181337100949",
        "rewardEpochId": 2825
      }
    },
    {
      "merkleProof": [
        "0xac7a1b288648ba5229bf403181e8393b9ff9c4ce4b683d2f4ad1f8992d53ddc3",
        "0x731ba5342bdd4cc146d6667ff4abf0f860906b2752902156694dd892d24dd6a9",
        "0x13ff4f071c87308b9b5713b0df799142169af174714f56fc420c9eb2bbdfcca2",
        "0xcdaef6645d3b8f4caf169220e6306aaa877b1682e9f8d6b15601acb3d3916669",
        "0xd40044680401e6e1b187a6ed22428303379b40a51094342f2ab1ad93ac5e1a1c"
      ],
      "body": {
        "beneficiary": "0xe80c39eae57c0359ee6c4086e2b22300353728e1",
        "claimType": 2,
        "amount": "2190053336725348404386",
        "rewardEpochId": 2825
      }
    },
    {
      "merkleProof": [
        "0x49095a3d4bd55f02dfedf891a6a84eb774e431fc7528451a16afea05fca74fa9",
        "0x2cbeca67c3dc466ad240f7817ee99e779e1156b47f1ae4bd817482d093d0b347",
        "0xaf44933f10cb1127b8b393db654706acb3a8150e53e496547fa77f39173b099f",
        "0xc3664632d0be27599e06b6a96cf8fc506846d180b7716ac76116677700edc3c1",
        "0x3280049ebdfb58c2260bf0433d95cb8b639931e2d73063afe00f871eafd0ad4f"
      ],
      "body": {
        "beneficiary": "0xf0b444bdc5522e908ff903e3f1730b5ab60b610a",
        "claimType": 1,
        "amount": "502796808200353602695",
        "rewardEpochId": 2825
      }
    },
    {
      "merkleProof": [
        "0x1d02963a69d48b0523f6a45485245a768c3cfe1b45e700d62226d2256d635d8a",
        "0xfcbc15b1c3622780670fd43aff171910a97eecf0001b0db2b48331fb52bc9406",
        "0x728332d7e924736da6efddf85cce30337cd78c51f1042fd50610da00828eb46d",
        "0xc3664632d0be27599e06b6a96cf8fc506846d180b7716ac76116677700edc3c1",
        "0x3280049ebdfb58c2260bf0433d95cb8b639931e2d73063afe00f871eafd0ad4f"
      ],
      "body": {
        "beneficiary": "0x07f5053c867ae107db15a38aa4421b2c24ac4e51",
        "claimType": 2,
        "amount": "2011187232801414411344",
        "rewardEpochId": 2825
      }
    },
    {
      "merkleProof": [
        "0x43d73be85522c5090823858f22995d4017ae9829b9121c6a1641edb04e3c49df",
        "0x968540dc3c2f43368b21cfce83695b2337ba0576261a1dc001f8fb3ffe2edc4c",
        "0xaf44933f10cb1127b8b393db654706acb3a8150e53e496547fa77f39173b099f",
        "0xc3664632d0be27599e06b6a96cf8fc506846d180b7716ac76116677700edc3c1",
        "0x3280049ebdfb58c2260bf0433d95cb8b639931e2d73063afe00f871eafd0ad4f"
      ],
      "body": {
        "beneficiary": "0x3134c526171f16e14ac0dfbe56d10ef09273817f",
        "claimType": 1,
        "amount": "28566637420973945588",
        "rewardEpochId": 2825
      }
    },
    {
      "merkleProof": [
        "0xfc107b8ca4d3b8a457a1b967456590ca2e9a9065afff7e7f744aa777465d6ce5",
        "0xb20a7f0df1a1fa593b47d0c065ff109640f25853b118ad015833dd12ebbac9e9",
        "0x52452008892730d7365d02e0596d97c62f3127f77839a4d8d357c2714965f9a5",
        "0x8f4b6762718a28c7431da7fb3448920a33e84f46d8cf1518943420c3d46a89ea",
        "0x2b111f919cb40b68601ee594803597f219e4201559725783e80c980a6d5932f4",
        "0x3280049ebdfb58c2260bf0433d95cb8b639931e2d73063afe00f871eafd0ad4f"
      ],
      "body": {
        "beneficiary": "0xaf47c84608043ba7d58122e5c3a46adf67371df3",
        "claimType": 2,
        "amount": "114266549683895782773",
        "rewardEpochId": 2825
      }
    },
    {
      "merkleProof": [
        "0xe2000a9fd3055f70b40ec8f42cc9651ca41fdf62deec8ffc9d43d5fef7dbfd78",
        "0x477e9d3aabdbe9a444ac6c970697cc3a831763279266c56a899bb5def95adc9c",
        "0x52452008892730d7365d02e0596d97c62f3127f77839a4d8d357c2714965f9a5",
        "0x8f4b6762718a28c7431da7fb3448920a33e84f46d8cf1518943420c3d46a89ea",
        "0x2b111f919cb40b68601ee594803597f219e4201559725783e80c980a6d5932f4",
        "0x3280049ebdfb58c2260bf0433d95cb8b639931e2d73063afe00f871eafd0ad4f"
      ],
      "body": {
        "beneficiary": "0x1d415d28380ff51a507f7b176ca5f27833f7fffd",
        "claimType": 1,
        "amount": "261747595180163166721",
        "rewardEpochId": 2825
      }
    },
    {
      "merkleProof": [
        "0x4cfe7bc50856883704bb5af86a36bbf542ba70f3f387649d398fbb2f4931133e",
        "0x15cff0257ebe1dd9d1dabd24e69586188599812eed11da5d1b61d3e0a605e729",
        "0xeaa6be66f1dfb0d4ed3898ef4fb9a450aa2061909750c2c6914bfda82b0f99fe",
        "0xbcbe8cdd4a9122505f9556d39ba9ce1b8bc44e61039435f146b5759b45d7c474",
        "0xd40044680401e6e1b187a6ed22428303379b40a51094342f2ab1ad93ac5e1a1c"
      ],
      "body": {
        "beneficiary": "0xb849b93b585effb7ce4b522ff88d9b3b24955f24",
        "claimType": 2,
        "amount": "1046990380720652667302",
        "rewardEpochId": 2825
      }
    },
    {
      "merkleProof": [
        "0xbe65266a5b55884515881eaa7c704ca42d49cef5e5e1c88b67ccbeeffee397b8",
        "0xb996324387e9f9859291b6f2f02a028fcff899f0280f756f553917f15bb6fc8d",
        "0x8f809e5c9abd1af8f9e81d78701a5f5844b61d73d579628c990aad9aed06feb1",
        "0xcdaef6645d3b8f4caf169220e6306aaa877b1682e9f8d6b15601acb3d3916669",
        "0xd40044680401e6e1b187a6ed22428303379b40a51094342f2ab1ad93ac5e1a1c"
      ],
      "body": {
        "beneficiary": "0x9181f8ed4381ce39dbf4b8336b6295de89527c46",
        "claimType": 1,
        "amount": "865246006100411123",
        "rewardEpochId": 2825
      }
    },
    {
      "merkleProof": [
        "0xbacb7a4273890f09bf439e31609fa5bec4f3564b072b7fe1d80e50ff2cc43328",
        "0xb328cea36e38140822f7f371dd6e3167886ab226d41c4325b60310d2804f03d4",
        "0x8f809e5c9abd1af8f9e81d78701a5f5844b61d73d579628c990aad9aed06feb1",
        "0xcdaef6645d3b8f4caf169220e6306aaa877b1682e9f8d6b15601acb3d3916669",
        "0xd40044680401e6e1b187a6ed22428303379b40a51094342f2ab1ad93ac5e1a1c"
      ],
      "body": {
        "beneficiary": "0x884cde7b5f2f0a9ee28f90ce1d4aa526373b3e2c",
        "claimType": 2,
        "amount": "431264966236256497451",
        "rewardEpochId": 2825
      }
    },
    {
      "merkleProof": [
        "0x9f44badddcf1580298bb5a63a21d6d32bf158c2a6e462b6e5547b308df070ba3",
        "0x731ba5342bdd4cc146d6667ff4abf0f860906b2752902156694dd892d24dd6a9",
        "0x13ff4f071c87308b9b5713b0df799142169af174714f56fc420c9eb2bbdfcca2",
        "0xcdaef6645d3b8f4caf169220e6306aaa877b1682e9f8d6b15601acb3d3916669",
        "0xd40044680401e6e1b187a6ed22428303379b40a51094342f2ab1ad93ac5e1a1c"
      ],
      "body": {
        "beneficiary": "0xf206f9b8bda82301c19a67b3d272f060bbe51e02",
        "claimType": 1,
        "amount": "2129072349858142149",
        "rewardEpochId": 2825
      }
    },
    {
      "merkleProof": [
        "0x67841e28964758754685ee1e90d681fcc86b7e1dba0fec0f3eec2fa52c539b03",
        "0xb265e9d7b720fbcae4a6a5e3fcc73a29c729897a9922cb7585cc90792aae2077",
        "0xeaa6be66f1dfb0d4ed3898ef4fb9a450aa2061909750c2c6914bfda82b0f99fe",
        "0xbcbe8cdd4a9122505f9556d39ba9ce1b8bc44e61039435f146b5759b45d7c474",
        "0xd40044680401e6e1b187a6ed22428303379b40a51094342f2ab1ad93ac5e1a1c"
      ],
      "body": {
        "beneficiary": "0x11cef138b1ee96a481dc040842433bfc5229ad70",
        "claimType": 2,
        "amount": "8516289399432568665",
        "rewardEpochId": 2825
      }
    },
    {
      "merkleProof": [
        "0xcc7cecfeb2b63f295dbef4e1c0e3c83922dc79a017564f0e10357c94b2e53afb",
        "0x2bf83498880b6ed71c1f33f01a9ca9c76693af2177f8b914e6ec00a32a11e5c9",
        "0x06f70d90bc14fe873551ea02e2d68440b77e1b8703ecc1659416bb07375841c8",
        "0x8f4b6762718a28c7431da7fb3448920a33e84f46d8cf1518943420c3d46a89ea",
        "0x2b111f919cb40b68601ee594803597f219e4201559725783e80c980a6d5932f4",
        "0x3280049ebdfb58c2260bf0433d95cb8b639931e2d73063afe00f871eafd0ad4f"
      ],
      "body": {
        "beneficiary": "0x0f4edd405e2550f88903c3f5614a1067f1d9d84c",
        "claimType": 1,
        "amount": "251579173489301",
        "rewardEpochId": 2825
      }
    },
    {
      "merkleProof": [
        "0xde0261b3c97f50517ce53562e8167901324119a28ce92d95f8a33b54feaa83e9",
        "0x477e9d3aabdbe9a444ac6c970697cc3a831763279266c56a899bb5def95adc9c",
        "0x52452008892730d7365d02e0596d97c62f3127f77839a4d8d357c2714965f9a5",
        "0x8f4b6762718a28c7431da7fb3448920a33e84f46d8cf1518943420c3d46a89ea",
        "0x2b111f919cb40b68601ee594803597f219e4201559725783e80c980a6d5932f4",
        "0x3280049ebdfb58c2260bf0433d95cb8b639931e2d73063afe00f871eafd0ad4f"
      ],
      "body": {
        "beneficiary": "0x67daef0258d83fe9513feaee28a8bbac7e8a031f",
        "claimType": 2,
        "amount": "1006316693957227",
        "rewardEpochId": 2825
      }
    },
    {
      "merkleProof": [
        "0x410f6c248d26725777ef8785f41745e705c29283d6cbf77db0de24068eac4f6c",
        "0xf14f1af4e1809e3dfec9cffc24cedbe125429ab153e8ee286d68e354bfd52730",
        "0x728332d7e924736da6efddf85cce30337cd78c51f1042fd50610da00828eb46d",
        "0xc3664632d0be27599e06b6a96cf8fc506846d180b7716ac76116677700edc3c1",
        "0x3280049ebdfb58c2260bf0433d95cb8b639931e2d73063afe00f871eafd0ad4f"
      ],
      "body": {
        "beneficiary": "0xa6a088c1036f4fd6f022d52630842e19f90405ed",
        "claimType": 1,
        "amount": "1044160728631198",
        "rewardEpochId": 2825
      }
    },
    {
      "merkleProof": [
        "0xda96b4d333f8a16b6cf1b4bdd4d408ca38d04c6e47f41104f128bb390825b664",
        "0x2bf83498880b6ed71c1f33f01a9ca9c76693af2177f8b914e6ec00a32a11e5c9",
        "0x06f70d90bc14fe873551ea02e2d68440b77e1b8703ecc1659416bb07375841c8",
        "0x8f4b6762718a28c7431da7fb3448920a33e84f46d8cf1518943420c3d46a89ea",
        "0x2b111f919cb40b68601ee594803597f219e4201559725783e80c980a6d5932f4",
        "0x3280049ebdfb58c2260bf0433d95cb8b639931e2d73063afe00f871eafd0ad4f"
      ],
      "body": {
        "beneficiary": "0xddef1deac28e2d91f3d3c682c737cc0ef8489aba",
        "claimType": 2,
        "amount": "4176642914524833",
        "rewardEpochId": 2825
      }
    },
    {
      "merkleProof": [
        "0x9274a2326f9f29e440b64689b9b57e9d2b6a66e503375a2ad3f6f6ff0c89e57a",
        "0x9d70b54a936c4a5b39a5a68e21ce553d56fab2f63210546adb5b84ad0b1c1ae1",
        "0x13ff4f071c87308b9b5713b0df799142169af174714f56fc420c9eb2bbdfcca2",
        "0xcdaef6645d3b8f4caf169220e6306aaa877b1682e9f8d6b15601acb3d3916669",
        "0xd40044680401e6e1b187a6ed22428303379b40a51094342f2ab1ad93ac5e1a1c"
      ],
      "body": {
        "beneficiary": "0xa17d0877c137a415f91054c5d988489eb6eb28e4",
        "claimType": 1,
        "amount": "11440589508782379229",
        "rewardEpochId": 2825
      }
    },
    {
      "merkleProof": [
        "0xfa814eb1b4f6a721b4971f479971e9d5b560a0e650b776adc17bfb8bf851271a",
        "0xb20a7f0df1a1fa593b47d0c065ff109640f25853b118ad015833dd12ebbac9e9",
        "0x52452008892730d7365d02e0596d97c62f3127f77839a4d8d357c2714965f9a5",
        "0x8f4b6762718a28c7431da7fb3448920a33e84f46d8cf1518943420c3d46a89ea",
        "0x2b111f919cb40b68601ee594803597f219e4201559725783e80c980a6d5932f4",
        "0x3280049ebdfb58c2260bf0433d95cb8b639931e2d73063afe00f871eafd0ad4f"
      ],
      "body": {
        "beneficiary": "0x3a80da2731efa274f9fce54e42c3e1e1a162e3cc",
        "claimType": 2,
        "amount": "45762358035129516924",
        "rewardEpochId": 2825
      }
    }
  ],
  "noOfWeightBasedClaims": 18,
  "merkleRoot": "0x5fce0824f2ef31c8c30f9325871e09d3385cc30b823d2ee081d43507133a9277",
  "abi": {
    "components": [
      {
        "internalType": "uint24",
        "name": "rewardEpochId",
        "type": "uint24"
      },
      {
        "internalType": "bytes20",
        "name": "beneficiary",
        "type": "bytes20"
      },
      {
        "internalType": "uint120",
        "name": "amount",
        "type": "uint120"
      },
      {
        "internalType": "enum IRewardManager.ClaimType",
        "name": "claimType",
        "type": "uint8"
      }
    ],
    "internalType": "struct IRewardManager.RewardClaim",
    "name": "_claim",
    "type": "tuple"
  }
}