{
  "rewardEpochId": 2851,
  "rewardClaims": [
    [
      [
        "0x68e8e5f691bfe8bf654bfe0c7250581db66bd7404780c0bcae0c0308f5667403",
        "0xd192058b54f777bbc8fb4ad90570d473dfa61b665175ad4d1efdda2630f6e476",
        "0x77ffc0d69186776c769dcbaf5349e033046930a686f848d8a8f0aa34acbea05c",
        "0xd494a653ce6b053b8afce394730f433e55c89b510d89a1be8d23eaab527ecbf1",
        "0x06db9b22f7a3cc428fc8d77326581e0fc6bc98068759bbb22b0657f1a3a39da3"
      ],
      [
        2851,
        "0x000000000000000000000000000000000000dead",
        "15946225136433089622889",
        0
      ]
    ],
    [
      [
        "0x290514f86c127427d206fb3fd92b23402d5889d06e9128209105e3b228f0b1d4",
        "0x9190e2dd5267c877f6332fc811865c6ca9e7f9b202ff59beb898b38bb69793e9",
        "0x8b651a3fcbca49c067ae80b416d093a383dc9d7bc2488d040a81ce5c1736a39f",
        "0xb3f987fd6c1aa1742c067d9530f4cf81ef7e927e97022ae82b8bc5b187189a5c",
        "0x13894a2ea188d87b96bb17e1e36e83f9fe8e33659e0fdbeb94a3ea6839dca5b5"
      ],
      [
        2851,
        "0x0bed169e74037b66a2e1c1a4937c285057773dbb",
        "21727655893497979879",
        1
      ]
    ],
    [
      [
        "0xc1a99824c2248a4f922d18f487393d77807ae6858fbff243d936681575473785",
        "0x1c13ad1a928c36badde7c3ca6ded22d935b77cd56b21f793b156067bbb6ae98c",
        "0x60392995e2029d50362b0d3eac5c8ddbc0423b03f76fab3574dbbeddc64ca53c",
        "0xb3d3b9d03a5200a05d900eb7d66c9efbab330a1919dad7e1469d9044963226a5",
        "0x06db9b22f7a3cc428fc8d77326581e0fc6bc98068759bbb22b0657f1a3a39da3"
      ],
      [
        2851,
        "0xbc9a659af696a4d7375b104db8e5189b54f9d2b3",
        "2754552140711825691588",
        2
      ]
    ],
    [
      [
        "0xeae1f6808e2800aa2c3a8350e58bfe50dabcbbf7faa92d3e5baf1cc4141e459d",
        "0x0245592f8c8f9055a982fc9b2f28c665a7aeb45f2192f4d9d3ce7b62aaad0d91",
        "0xc0329078fa5f19b4a0c720ca5da743612dedcb0d986fd6f3119ad040b91e0c26",
        "0x38c4aebc1f056c86520beb820eedae48f9ba7599c4c6170720e9b99a1fb40165",
        "0x94639eb26a4d2ec79c02aaa06bcbc7a19896dac23a58458c5f4930affd44c1d5",
        "0x13894a2ea188d87b96bb17e1e36e83f9fe8e33659e0fdbeb94a3ea6839dca5b5"
      ],
      [
        2851,
        "0xadf3a9a6494b8c1a24f0eec5d44a388afc10df09",
        "1750251428499178730",
        1
      ]
    ],
    [
      [
        "0xba553e7abec7e902c72fc6b03b0645160582369dc3b9769a29452ff57fba145a",
        "0x1c13ad1a928c36badde7c3ca6ded22d935b77cd56b21f793b156067bbb6ae98c",
        "0x60392995e2029d50362b0d3eac5c8ddbc0423b03f76fab3574dbbeddc64ca53c",
        "0xb3d3b9d03a5200a05d900eb7d66c9efbab330a1919dad7e1469d9044963226a5",
        "0x06db9b22f7a3cc428fc8d77326581e0fc6bc98068759bbb22b0657f1a3a39da3"
      ],
      [
        2851,
        "0xf75a67d060f28f269d3f7a51fdb2859e7d6a4d78",
        "869684186368567974685",
        2
      ]
    ],
    [
      [
        "0x065ebe359862108705856d112da98c62dd251b377ab1cf7cb2f3d5dc6f778ca1",
        "0x50f8a06e4ce4012ebb23c6d3985b5144bfc772b7f1b6d1b1c37cc13a4f996a35",
        "0x38c4aebc1f056c86520beb820eedae48f9ba7599c4c6170720e9b99a1fb40165",
        "0x94639eb26a4d2ec79c02aaa06bcbc7a19896dac23a58458c5f4930affd44c1d5",
        "0x13894a2ea188d87b96bb17e1e36e83f9fe8e33659e0fdbeb94a3ea6839dca5b5"
      ],
      [
        2851,
        "0x9181f8ed4381ce39dbf4b8336b6295de89527c46",
        "1733622237026819666",
        1
      ]
    ],
    [
      [
        "0x585b7e9b64d644416e4282305a1abedee89a67680237d9cdac9cf351656e3909",
        "0x0f52ff25166ee0ec85b3575d520d8b1e5a3e04383c5fdd116f65f2e494236321",
        "0xee3f4cde5c633888fb6f9f05b03ea0c7e792a49ce4e23890a4e9ba72a219186d",
        "0xb3f987fd6c1aa1742c067d9530f4cf81ef7e927e97022ae82b8bc5b187189a5c",
        "0x13894a2ea188d87b96bb17e1e36e83f9fe8e33659e0fdbeb94a3ea6839dca5b5"
      ],
      [
        2851,
        "0x884cde7b5f2f0a9ee28f90ce1d4aa526373b3e2c",
        "864671326755073240346",
        2
      ]
    ],
    [
      [
        "0xd8b4d39f9cfe20db4aa426d7768f051b5b3994ace5d332a68a368ade6a47445a",
        "0xa9ceceefaee662c44814b57f8985f4ab4411f451fa28ec55faf215f8c446ed78",
        "0x5419b4c70d24fe2eea30e08d70ff8b303afcc595072bff1090cf8ac62331e17d",
        "0xb3d3b9d03a5200a05d900eb7d66c9efbab330a1919dad7e1469d9044963226a5",
        "0x06db9b22f7a3cc428fc8d77326581e0fc6bc98068759bbb22b0657f1a3a39da3"
      ],
      [
        2851,
        "0x19b6fde072fd962dd191e5d17121a6733d7e1977",
        "2735278038549062593",
        1
      ]
    ],
    [
      [
        "0x63789bf1a951329679edfad51a899d373a26dcba2f1d739c4b8ab573b02b5717",
        "0x441d23e5d458f14a512a746a98251d580ed54cb6fc3d725265d093e3284af323",
        "0x77ffc0d69186776c769dcbaf5349e033046930a686f848d8a8f0aa34acbea05c",
        "0xd494a653ce6b053b8afce394730f433e55c89b510d89a1be8d23eaab527ecbf1",
        "0x06db9b22f7a3cc428fc8d77326581e0fc6bc98068759bbb22b0657f1a3a39da3"
      ],
      [
        2851,
        "0x9faacf0334c62fcd9b2ead3dde72febce796859d",
        "1364903741235990457542",
        2
      ]
    ],
    [
      [
        "0xe23de3a5199dde3b3781ee914ba79dbc967e4b07ea7feb8c23559f54e367c418",
        "0xa9ceceefaee662c44814b57f8985f4ab4411f451fa28ec55faf215f8c446ed78",
        "0x5419b4c70d24fe2eea30e08d70ff8b303afcc595072bff1090cf8ac62331e17d",
        "0xb3d3b9d03a5200a05d900eb7d66c9efbab330a1919dad7e1469d9044963226a5",
        "0x06db9b22f7a3cc428fc8d77326581e0fc6bc98068759bbb22b0657f1a3a39da3"
      ],
      [
        2851,
        "0x0f4edd405e2550f88903c3f5614a1067f1d9d84c",
        "1018011751971225866",
        1
      ]
    ],
    [
      [
        "0xc7ee70e84c6fe08706e81dd587faabf13bde5f671b5b4ade1e3fa03177341b9a",
        "0xc033df151854e7fefe727b88761b38116a5fa9a66f4453c6e42b0c088e7d724b",
        "0x5419b4c70d24fe2eea30e08d70ff8b303afcc595072bff1090cf8ac62331e17d",
        "0xb3d3b9d03a5200a05d900eb7d66c9efbab330a1919dad7e1469d9044963226a5",
        "0x06db9b22f7a3cc428fc8d77326581e0fc6bc98068759bbb22b0657f1a3a39da3"
      ],
      [
        2851,
        "0x67daef0258d83fe9513feaee28a8bbac7e8a031f",
        "507865658281317995310",
        2
      ]
    ],
    [
      [
        "0xc31bd56cea2eb641375071a078b73a138efdac8f045b6fb7f68e5b3469255547",
        "0xc033df151854e7fefe727b88761b38116a5fa9a66f4453c6e42b0c088e7d724b",
        "0x5419b4c70d24fe2eea30e08d70ff8b303afcc595072bff1090cf8ac62331e17d",
        "0xb3d3b9d03a5200a05d900eb7d66c9efbab330a1919dad7e1469d9044963226a5",
        "0x06db9b22f7a3cc428fc8d77326581e0fc6bc98068759bbb22b0657f1a3a39da3"
      ],
      [
        2851,
        "0xc6cb03a22213a3e02186a3126d47c7fba20e4ef5",
        "732651114329084120435",
        1
      ]
    ],
    [
      [
        "0x4e711ccc28baa52b30c559dda8eb8303e04552fe37fcc655d380811a609d70d9",
        "0xe15442f631be8654224097e3c473865666af5bc8b843a7765d03a073d9fd76ed",
        "0x8b651a3fcbca49c067ae80b416d093a383dc9d7bc2488d040a81ce5c1736a39f",
        "0xb3f987fd6c1aa1742c067d9530f4cf81ef7e927e97022ae82b8bc5b187189a5c",
        "0x13894a2ea188d87b96bb17e1e36e83f9fe8e33659e0fdbeb94a3ea6839dca5b5"
      ],
      [
        2851,
        "0xabaa1718c2d80fc037bf66e3f66f0975d67431a9",
        "2930604457316336482049",
        2
      ]
    ],
    [
      [
        "0x1ad57c00898d2cfc112bd77f30520f8fb74689fcd3d6ee6e8cfd0f4ded1ec0cd",
        "0x9190e2dd5267c877f6332fc811865c6ca9e7f9b202ff59beb898b38bb69793e9",
        "0x8b651a3fcbca49c067ae80b416d093a383dc9d7bc2488d040a81ce5c1736a39f",
        "0xb3f987fd6c1aa1742c067d9530f4cf81ef7e927e97022ae82b8bc5b187189a5c",
        "0x13894a2ea188d87b96bb17e1e36e83f9fe8e33659e0fdbeb94a3ea6839dca5b5"
      ],
      [
        2851,
        "0xf206f9b8bda82301c19a67b3d272f060bbe51e02",
        "11563970894467278",
        1
      ]
    ],
    [
      [
        "0x8cb14f510321466ccb90bbea4cc9ba31b85b2ec8b0592e24a45672ef6f799376",
        "0x754d8bdad07f8ef88ac17e80371adc6efcd6d4998265f115aa1ede98d78ee75d",
        "0xf2659c783ef736414a141c66db1335cd5b58d183554774765b58be8ecac119c5",
        "0xd494a653ce6b053b8afce394730f433e55c89b510d89a1be8d23eaab527ecbf1",
        "0x06db9b22f7a3cc428fc8d77326581e0fc6bc98068759bbb22b0657f1a3a39da3"
      ],
      [
        2851,
        "0x11cef138b1ee96a481dc040842433bfc5229ad70",
        "46255883577869239",
        2
      ]
    ],
    [
      [
        "0xf6f251a51b2e0508bb3f06363552d85cfaf4768003bf3ec5990dc58590be36d0",
        "0x0245592f8c8f9055a982fc9b2f28c665a7aeb45f2192f4d9d3ce7b62aaad0d91",
        "0xc0329078fa5f19b4a0c720ca5da743612dedcb0d986fd6f3119ad040b91e0c26",
        "0x38c4aebc1f056c86520beb820eedae48f9ba7599c4c6170720e9b99a1fb40165",
        "0x94639eb26a4d2ec79c02aaa06bcbc7a19896dac23a58458c5f4930affd44c1d5",
        "0x13894a2ea188d87b96bb17e1e36e83f9fe8e33659e0fdbeb94a3ea6839dca5b5"
      ],
      [
        2851,
        "0x3134c526171f16e14ac0dfbe56d10ef09273817f",
        "27740180166303596868",
        1
      ]
    ],
    [
      [
        "0xb49aa7d5b48f18146eaa31edc0c5d065c6404930ad7fea6dfabbcd04ceb15739",
        "0x09c57b15ac6c5e02f8bb8c45865a393d37b1c44cdac808a347584b7fcd85ca6b",
        "0xf2659c783ef736414a141c66db1335cd5b58d183554774765b58be8ecac119c5",
        "0xd494a653ce6b053b8afce394730f433e55c89b510d89a1be8d23eaab527ecbf1",
        "0x06db9b22f7a3cc428fc8d77326581e0fc6bc98068759bbb22b0657f1a3a39da3"
      ],
      [
        2851,
        "0xaf47c84608043ba7d58122e5c3a46adf67371df3",
        "110960720665214387811",
        2
      ]
    ],
    [
      [
        "0x6ec21e82722f051f986a4bdeff57e8bbdbe90e267326acef1149b8230af614d5",
        "0xd192058b54f777bbc8fb4ad90570d473dfa61b665175ad4d1efdda2630f6e476",
        "0x77ffc0d69186776c769dcbaf5349e033046930a686f848d8a8f0aa34acbea05c",
        "0xd494a653ce6b053b8afce394730f433e55c89b510d89a1be8d23eaab527ecbf1",
        "0x06db9b22f7a3cc428fc8d77326581e0fc6bc98068759bbb22b0657f1a3a39da3"
      ],
      [
        2851,
        "0x1d415d28380ff51a507f7b176ca5f27833f7fffd",
        "167798180928061363596",
        1
      ]
    ],
    [
      [
        "0x9d9c59a6e7a0e05eb424a29a17373e7f91398194c860878e5c9ffa501c753c07",
        "0x754d8bdad07f8ef88ac17e80371adc6efcd6d4998265f115aa1ede98d78ee75d",
        "0xf2659c783ef736414a141c66db1335cd5b58d183554774765b58be8ecac119c5",
        "0xd494a653ce6b053b8afce394730f433e55c89b510d89a1be8d23eaab527ecbf1",
        "0x06db9b22f7a3cc428fc8d77326581e0fc6bc98068759bbb22b0657f1a3a39da3"
      ],
      [
        2851,
        "0xb849b93b585effb7ce4b522ff88d9b3b24955f24",
        "671192723712245454790",
        2
      ]
    ],
    [
      [
        "0x0a15eea30b8839cfeca54efe13b48705075f7c79c7ea8c92d8b0f2e9fd8bf4cc",
        "0x4fdf835027c12dae0b1f6e1df46fc5e7b3755d6c4577a66f82e1521641d087a7",
        "0x16f3537e3f41c50227896b4854f8c51762e082831fbc0d0005591dd5f65b72f8",
        "0x94639eb26a4d2ec79c02aaa06bcbc7a19896dac23a58458c5f4930affd44c1d5",
        "0x13894a2ea188d87b96bb17e1e36e83f9fe8e33659e0fdbeb94a3ea6839dca5b5"
      ],
      [
        2851,
        "0xf0b444bdc5522e908ff903e3f1730b5ab60b610a",
        "538893236527857433981",
        1
      ]
    ],
    [
      [
        "0x12110993d5a3a4b45d97a880d935742a584b2a1abffa0e260fda150bc9e9f653",
        "0x4fdf835027c12dae0b1f6e1df46fc5e7b3755d6c4577a66f82e1521641d087a7",
        "0x16f3537e3f41c50227896b4854f8c51762e082831fbc0d0005591dd5f65b72f8",
        "0x94639eb26a4d2ec79c02aaa06bcbc7a19896dac23a58458c5f4930affd44c1d5",
        "0x13894a2ea188d87b96bb17e1e36e83f9fe8e33659e0fdbeb94a3ea6839dca5b5"
      ],
      [
        2851,
        "0x07f5053c867ae107db15a38aa4421b2c24ac4e51",
        "2155572946111429736344",
        2
      ]
    ],
    [
      [
        "0x04a82c4e9d427953fe41969e53a3c3c78162d33c57994f1c8549f32c9f07f79d",
        "0x50f8a06e4ce4012ebb23c6d3985b5144bfc772b7f1b6d1b1c37cc13a4f996a35",
        "0x38c4aebc1f056c86520beb820eedae48f9ba7599c4c6170720e9b99a1fb40165",
        "0x94639eb26a4d2ec79c02aaa06bcbc7a19896dac23a58458c5f4930affd44c1d5",
        "0x13894a2ea188d87b96bb17e1e36e83f9fe8e33659e0fdbeb94a3ea6839dca5b5"
      ],
      [
        2851,
        "0x437d15fad24dc5fe77384c34e24ee0b4c2607d79",
        "855210687203100226",
        1
      ]
    ],
    [
      [
        "0x34ebbf730cedc30e0332a23144d48be5819329173d86ec3943bd3b30dd88516a",
        "0xe15442f631be8654224097e3c473865666af5bc8b843a7765d03a073d9fd76ed",
        "0x8b651a3fcbca49c067ae80b416d093a383dc9d7bc2488d040a81ce5c1736a39f",
        "0xb3f987fd6c1aa1742c067d9530f4cf81ef7e927e97022ae82b8bc5b187189a5c",
        "0x13894a2ea188d87b96bb17e1e36e83f9fe8e33659e0fdbeb94a3ea6839dca5b5"
      ],
      [
        2851,
        "0xd88833424225068867309e0ec02999883c14dc77",
        "427049597757539447556",
        2
      ]
    ],
    [
      [
        "0x189c5fcff38167e097490f60831831c2b0b18300d8d998edbbd098b37ab2034e",
        "0x81a94b9a88500e2ce6ff1f4a9cf125f391e3b3f13299227552f53c44767c729e",
        "0x16f3537e3f41c50227896b4854f8c51762e082831fbc0d0005591dd5f65b72f8",
        "0x94639eb26a4d2ec79c02aaa06bcbc7a19896dac23a58458c5f4930affd44c1d5",
        "0x13894a2ea188d87b96bb17e1e36e83f9fe8e33659e0fdbeb94a3ea6839dca5b5"
      ],
      [
        2851,
        "0x25f42def3fcc078de8895cd01de8ab6514020548",
        "44218135577960834",
        1
      ]
    ],
    [
      [
        "0x63063a68f3cf169d0f7e9c4c640bd08a96a21a27e2d9b30932fcb8eab26bb3f6",
        "0x441d23e5d458f14a512a746a98251d580ed54cb6fc3d725265d093e3284af323",
        "0x77ffc0d69186776c769dcbaf5349e033046930a686f848d8a8f0aa34acbea05c",
        "0xd494a653ce6b053b8afce394730f433e55c89b510d89a1be8d23eaab527ecbf1",
        "0x06db9b22f7a3cc428fc8d77326581e0fc6bc98068759bbb22b0657f1a3a39da3"
      ],
      [
        2851,
        "0x256194ca4884dbe2933862f0e9f7e0e4d411eb35",
        "176872542311843496",
        2
      ]
    ],
    [
      [
        "0x5c8efd9bf6b984630d86785c9140cd97aaaa3f42b1923221ca7d06e92caa10ba",
        "0x3e5accf25c3ea282d26c609ae576e8f6b6c9efdfa7d35f10367eb1628d009e8e",
        "0xee3f4cde5c633888fb6f9f05b03ea0c7e792a49ce4e23890a4e9ba72a219186d",
        "0xb3f987fd6c1aa1742c067d9530f4cf81ef7e927e97022ae82b8bc5b187189a5c",
        "0x13894a2ea188d87b96bb17e1e36e83f9fe8e33659e0fdbeb94a3ea6839dca5b5"
      ],
      [
        2851,
        "0x0dd018692f98a7894ecc7ba90cfb8f93a19159d3",
        "23498130036077032",
        1
      ]
    ],
    [
      [
        "0x13d6417f91c7629d572ea70ccc1229c1325381f0ff65d32390a51fb145f95b22",
        "0x81a94b9a88500e2ce6ff1f4a9cf125f391e3b3f13299227552f53c44767c729e",
        "0x16f3537e3f41c50227896b4854f8c51762e082831fbc0d0005591dd5f65b72f8",
        "0x94639eb26a4d2ec79c02aaa06bcbc7a19896dac23a58458c5f4930affd44c1d5",
        "0x13894a2ea188d87b96bb17e1e36e83f9fe8e33659e0fdbeb94a3ea6839dca5b5"
      ],
      [
        2851,
        "0x612cff400ee27c91b956c45f4c50e61b55312430",
        "93992520144308259",
        2
      ]
    ],
    [
      [
        "0x5c01f30334cc19013378d6e9ddb4279f07323f0aaff753b9dbae6a7b0c2f20b9",
        "0x3e5accf25c3ea282d26c609ae576e8f6b6c9efdfa7d35f10367eb1628d009e8e",
        "0xee3f4cde5c633888fb6f9f05b03ea0c7e792a49ce4e23890a4e9ba72a219186d",
        "0xb3f987fd6c1aa1742c067d9530f4cf81ef7e927e97022ae82b8bc5b187189a5c",
        "0x13894a2ea188d87b96bb17e1e36e83f9fe8e33659e0fdbeb94a3ea6839dca5b5"
      ],
      [
        2851,
        "0x2e46e8d1f3636f7036978d054b0a07e7395053c8",
        "569165103290152585254",
        1
      ]
    ],
    [
      [
        "0x8134e16c184a025fc2bc4b7c7eb65d62bf54b2db7b9fe52a5ac39c66b79dad4d",
        "0xc0329078fa5f19b4a0c720ca5da743612dedcb0d986fd6f3119ad040b91e0c26",
        "0x38c4aebc1f056c86520beb820eedae48f9ba7599c4c6170720e9b99a1fb40165",
        "0x94639eb26a4d2ec79c02aaa06bcbc7a19896dac23a58458c5f4930affd44c1d5",
        "0x13894a2ea188d87b96bb17e1e36e83f9fe8e33659e0fdbeb94a3ea6839dca5b5"
      ],
      [
        2851,
        "0xe80c39eae57c0359ee6c4086e2b22300353728e1",
        "2276660413160610341428",
        2
      ]
    ],
    [
      [
        "0xc2dbc34fcd5fe32b0ee94fbd04b359b5fbd9106d2ce5b63db94d1639dacbd7b9",
        "0xd9e560cd5d970d8fa213f113ff61eec1107b06e3b887501539aab15fc0815c67",
        "0x60392995e2029d50362b0d3eac5c8ddbc0423b03f76fab3574dbbeddc64ca53c",
        "0xb3d3b9d03a5200a05d900eb7d66c9efbab330a1919dad7e1469d9044963226a5",
        "0x06db9b22f7a3cc428fc8d77326581e0fc6bc98068759bbb22b0657f1a3a39da3"
      ],
      [
        2851,
        "0xca84d6086c5b32212a0cf1638803355d7be31482",
        "402881771039022800954",
        1
      ]
    ],
    [
      [
        "0xa83ae77bb5f4bf39afb0a9ef1bcf75cedcf3fbf31b82a62797a2b924be75ea76",
        "0x09c57b15ac6c5e02f8bb8c45865a393d37b1c44cdac808a347584b7fcd85ca6b",
        "0xf2659c783ef736414a141c66db1335cd5b58d183554774765b58be8ecac119c5",
        "0xd494a653ce6b053b8afce394730f433e55c89b510d89a1be8d23eaab527ecbf1",
        "0x06db9b22f7a3cc428fc8d77326581e0fc6bc98068759bbb22b0657f1a3a39da3"
      ],
      [
        2851,
        "0x55fcf7806f556204141fe90fbe9ce6207d9c52ac",
        "1611527084156091204223",
        2
      ]
    ],
    [
      [
        "0x5b914e856e19369e5271a8664e3eb6f9feceed3316bc7a4f11c5772399bd3032",
        "0x0f52ff25166ee0ec85b3575d520d8b1e5a3e04383c5fdd116f65f2e494236321",
        "0xee3f4cde5c633888fb6f9f05b03ea0c7e792a49ce4e23890a4e9ba72a219186d",
        "0xb3f987fd6c1aa1742c067d9530f4cf81ef7e927e97022ae82b8bc5b187189a5c",
        "0x13894a2ea188d87b96bb17e1e36e83f9fe8e33659e0fdbeb94a3ea6839dca5b5"
      ],
      [
        2851,
        "0xa6a088c1036f4fd6f022d52630842e19f90405ed",
        "2601862727803195",
        1
      ]
    ],
    [
      [
        "0xc20e93ce4ecf9b67dfc0cdf8f7108e7d36d423291e4896ddca2f1c31b39557f7",
        "0xd9e560cd5d970d8fa213f113ff61eec1107b06e3b887501539aab15fc0815c67",
        "0x60392995e2029d50362b0d3eac5c8ddbc0423b03f76fab3574dbbeddc64ca53c",
        "0xb3d3b9d03a5200a05d900eb7d66c9efbab330a1919dad7e1469d9044963226a5",
        "0x06db9b22f7a3cc428fc8d77326581e0fc6bc98068759bbb22b0657f1a3a39da3"
      ],
      [
        2851,
        "0xddef1deac28e2d91f3d3c682c737cc0ef8489aba",
        "10407450911212852",
        2
      ]
    ]
  ],
  "noOfWeightBasedClaims": 16,
  "merkleRoot": "0x91ed0dbe8b889bcdd0afe2a293a2d5cab8641e8baf83b0af08c49e33e43b8e2b",
  "abi": {
    "components": [
      {
        "internalType": "uint24",
        "name": "rewardEpochId",
        "type": "uint24"
      },
      {
        "internalType": "bytes20",
        "name": "beneficiary",
        "type": "bytes20"
      },
      {
        "internalType": "uint120",
        "name": "amount",
        "type": "uint120"
      },
      {
        "internalType": "enum IRewardManager.ClaimType",
        "name": "claimType",
        "type": "uint8"
      }
    ],
    "internalType": "struct IRewardManager.RewardClaim",
    "name": "_claim",
    "type": "tuple"
  }
}