{
  "rewardEpochId": 2862,
  "rewardClaims": [
    [
      [
        "0xce4bed3ba25989e1f504c1ab3d1056cc4a8a596b40e7b5c101f5cf373591fc80",
        "0x27d7183d911e97f0ac97b24f7a9dc6c333ca245716acbe7e0022845159bb975a",
        "0xa02ab496406088f34e2565fa45601462f5182aee6c55f1a6082dafe767a4b3f1",
        "0x29b2c34d291e788f40c8c659be9c789a6050dd46e37c7f9f0586d16a5afeaee2",
        "0x1fe39377382ea1318598c8e5a3e154ec584f8fc2bf11f8a3886e7503c4714482"
      ],
      [
        2862,
        "0x000000000000000000000000000000000000dead",
        "14751586099375193149688",
        0
      ]
    ],
    [
      [
        "0x262eb98f52894dfcb6c12731f763edf7cce8984dccfc8d3153b01d585ecc074e",
        "0x78ca8410962284ba09d5e35e73a46dacdd932467e7aad332cdc0eecdb9edefdb",
        "0x17346a8d565bae78ae3ebead0fc0d7434a7eeda6851a138f20598ae7871e1841",
        "0x3325fcaef5723b8307827caf2606acad8cbcc3b691c736c3cbe69061870ad239",
        "0x408e26fb17a78da4abfb6779cdd1de5c153ab3dd0827f9463d5daae952281b2f"
      ],
      [
        2862,
        "0x0bed169e74037b66a2e1c1a4937c285057773dbb",
        "3498701660878434786",
        1
      ]
    ],
    [
      [
        "0x1c22c854559a051999c7e611375d723a5aca7ecb4ba3d7fb2b39545d48044000",
        "0xbde0b751f40aa5145319bde3ad8413c35f973eaacf09af827c06d13ee7ed592a",
        "0x17346a8d565bae78ae3ebead0fc0d7434a7eeda6851a138f20598ae7871e1841",
        "0x3325fcaef5723b8307827caf2606acad8cbcc3b691c736c3cbe69061870ad239",
        "0x408e26fb17a78da4abfb6779cdd1de5c153ab3dd0827f9463d5daae952281b2f"
      ],
      [
        2862,
        "0xbc9a659af696a4d7375b104db8e5189b54f9d2b3",
        "1744430527736415547452",
        2
      ]
    ],
    [
      [
        "0x7e9d9b51e0bc1aec6bfa03412f225bd750c3fb9324a0759b0da9ad883225e9bc",
        "0xfd33ddabfdde71f55be5424ad0e175fc829231229c7d58cd2ca6cf48342e675b",
        "0x60e2aab378485ce5d4da72b91a7e275b9840fd84cab169b71b72edf6bca347d8",
        "0xae260772ad6b0dba5d7f2c15a422e62dfa18aad01f7704e7678459e7f7581495",
        "0x1fe39377382ea1318598c8e5a3e154ec584f8fc2bf11f8a3886e7503c4714482"
      ],
      [
        2862,
        "0x437d15fad24dc5fe77384c34e24ee0b4c2607d79",
        "1046215001631645353",
        1
      ]
    ],
    [
      [
        "0xb97d832251def60c099a8e8990747a6a608b12f7dbf483f5da84fa8248396fd1",
        "0xceef7f71b1353c0dc26deab39b3de69852bb4d9c4f4df21c9718db0e8194ae3c",
        "0x3f9e40ff981f8a538cc43491ab8d4265a5d084c37cbcfc4b151a744477bb6d93",
        "0x29b2c34d291e788f40c8c659be9c789a6050dd46e37c7f9f0586d16a5afeaee2",
        "0x1fe39377382ea1318598c8e5a3e154ec584f8fc2bf11f8a3886e7503c4714482"
      ],
      [
        2862,
        "0xd88833424225068867309e0ec02999883c14dc77",
        "295584690592156242723",
        2
      ]
    ],
    [
      [
        "0xf7d7b0f8a717b5aaabc7a65d81c86d7f2108a743f303d54cba4921fcbea3fe9e",
        "0x001b3790ed811228d4dd39973e1ef6aa233e52ab7a08a74dfc9c19bdfcdf2524",
        "0x4fdfd2f79bb9b2286bbaaa54b7c0eefe8cd85f0dd74600b4376c3bae71c0a747",
        "0xf1f14f651791a20275fc219e04fd3f86cc79f6651a683ff095bfb68e433d250e",
        "0x3325fcaef5723b8307827caf2606acad8cbcc3b691c736c3cbe69061870ad239",
        "0x408e26fb17a78da4abfb6779cdd1de5c153ab3dd0827f9463d5daae952281b2f"
      ],
      [
        2862,
        "0xadf3a9a6494b8c1a24f0eec5d44a388afc10df09",
        "1189057836307424403",
        1
      ]
    ],
    [
      [
        "0x63b2daa25cc20c872d2fbc937b6156210c34fb277312ef27c1a3d78959aae0a9",
        "0x8b0ec21581a74c532c435f458849685d8800be233dd30a30064b212c6a3c0f62",
        "0x613cd770941e7627bc46baf28d46543b5e46ad38a15c0c3e56d2db1b00f1e996",
        "0x9302910adf2e2d02e646cd713061920b042dafe6ebe6e739b3a78acb14669512",
        "0x408e26fb17a78da4abfb6779cdd1de5c153ab3dd0827f9463d5daae952281b2f"
      ],
      [
        2862,
        "0xf75a67d060f28f269d3f7a51fdb2859e7d6a4d78",
        "592620890418524625669",
        2
      ]
    ],
    [
      [
        "0x03f5659b9baa680bf1327265700fd6200d5d2b6a1f14046f9c992dee3f2d0820",
        "0xa7b773eaf87df1f93d60f079e497b92736033c72fa9fcc89a4b23e1060f2520a",
        "0xf1f14f651791a20275fc219e04fd3f86cc79f6651a683ff095bfb68e433d250e",
        "0x3325fcaef5723b8307827caf2606acad8cbcc3b691c736c3cbe69061870ad239",
        "0x408e26fb17a78da4abfb6779cdd1de5c153ab3dd0827f9463d5daae952281b2f"
      ],
      [
        2862,
        "0x19b6fde072fd962dd191e5d17121a6733d7e1977",
        "1774584994585665216",
        1
      ]
    ],
    [
      [
        "0x6579f8e8974409b60ca0813bfe057db10a5b823dd3afd3bbc42276c423f6b477",
        "0xd5b43ad89a02fb2924edc0038efdc7eb3dbe8fc52788588bac8342677e5dbb99",
        "0x613cd770941e7627bc46baf28d46543b5e46ad38a15c0c3e56d2db1b00f1e996",
        "0x9302910adf2e2d02e646cd713061920b042dafe6ebe6e739b3a78acb14669512",
        "0x408e26fb17a78da4abfb6779cdd1de5c153ab3dd0827f9463d5daae952281b2f"
      ],
      [
        2862,
        "0x9faacf0334c62fcd9b2ead3dde72febce796859d",
        "885517912298252624133",
        2
      ]
    ],
    [
      [
        "0x4ca06b8866410bed32ba3058025eb65049a13b129d71d2aa17f5ae55d4bdc3e8",
        "0x5923e4ae685e74ceb981c35095029ea34712524a67f0c982a103c2fc929ffb60",
        "0x286a9c7c9c9cee265394bb0e5b169f70844126bf0154403f6b5a6630160b23f1",
        "0x9302910adf2e2d02e646cd713061920b042dafe6ebe6e739b3a78acb14669512",
        "0x408e26fb17a78da4abfb6779cdd1de5c153ab3dd0827f9463d5daae952281b2f"
      ],
      [
        2862,
        "0x25f42def3fcc078de8895cd01de8ab6514020548",
        "14771866870095555285",
        1
      ]
    ],
    [
      [
        "0x8ca39cfba52658c89703e9e99fe6c682de6782661010b1079be9e1735bbb1d78",
        "0x9e5e6c1cf889da8dcc5bfbcc495fb45f6a75cc78920a773de00e225762052d17",
        "0x60e2aab378485ce5d4da72b91a7e275b9840fd84cab169b71b72edf6bca347d8",
        "0xae260772ad6b0dba5d7f2c15a422e62dfa18aad01f7704e7678459e7f7581495",
        "0x1fe39377382ea1318598c8e5a3e154ec584f8fc2bf11f8a3886e7503c4714482"
      ],
      [
        2862,
        "0x256194ca4884dbe2933862f0e9f7e0e4d411eb35",
        "1880097325005047542190",
        2
      ]
    ],
    [
      [
        "0xbe21d88d601a574516eee81d9f4567814028582792e6d2bff400674a56f9e7af",
        "0x22959fdf696b52e3eea75ef0eb1174d3b1df590ac3ab4cf29b2941e7f1e3c63d",
        "0x3f9e40ff981f8a538cc43491ab8d4265a5d084c37cbcfc4b151a744477bb6d93",
        "0x29b2c34d291e788f40c8c659be9c789a6050dd46e37c7f9f0586d16a5afeaee2",
        "0x1fe39377382ea1318598c8e5a3e154ec584f8fc2bf11f8a3886e7503c4714482"
      ],
      [
        2862,
        "0x0f4edd405e2550f88903c3f5614a1067f1d9d84c",
        "522854148376243295",
        1
      ]
    ],
    [
      [
        "0xe636ae31c6c6cba6433e6ce40ed5dc74561022ffd4de55c1e165d23f07061662",
        "0x001b3790ed811228d4dd39973e1ef6aa233e52ab7a08a74dfc9c19bdfcdf2524",
        "0x4fdfd2f79bb9b2286bbaaa54b7c0eefe8cd85f0dd74600b4376c3bae71c0a747",
        "0xf1f14f651791a20275fc219e04fd3f86cc79f6651a683ff095bfb68e433d250e",
        "0x3325fcaef5723b8307827caf2606acad8cbcc3b691c736c3cbe69061870ad239",
        "0x408e26fb17a78da4abfb6779cdd1de5c153ab3dd0827f9463d5daae952281b2f"
      ],
      [
        2862,
        "0x67daef0258d83fe9513feaee28a8bbac7e8a031f",
        "260282519206112138589",
        2
      ]
    ],
    [
      [
        "0x29194eeea262b6abff3797aae3c8235886277b3c26b6ca1ec96e1e67e3cebc84",
        "0x80b46e9c4f8895486ce4baf30b04ac5d5bf21abdfc1b9dc79d422e30ab722503",
        "0x286a9c7c9c9cee265394bb0e5b169f70844126bf0154403f6b5a6630160b23f1",
        "0x9302910adf2e2d02e646cd713061920b042dafe6ebe6e739b3a78acb14669512",
        "0x408e26fb17a78da4abfb6779cdd1de5c153ab3dd0827f9463d5daae952281b2f"
      ],
      [
        2862,
        "0x9181f8ed4381ce39dbf4b8336b6295de89527c46",
        "1180436941827239364",
        1
      ]
    ],
    [
      [
        "0x978cbdc7daf05054ee0380150f5f853c5afaeedd1b1ddd137aa55d217bbe67c9",
        "0x597ba94678a6e10be67cce2d7736a066a59bff60fc0f7c1ac2ade9ce9fc6998a",
        "0x81d2ac1feac40f84d0f9bf7260e8a739b948da368f66f605df5d58223c490405",
        "0xae260772ad6b0dba5d7f2c15a422e62dfa18aad01f7704e7678459e7f7581495",
        "0x1fe39377382ea1318598c8e5a3e154ec584f8fc2bf11f8a3886e7503c4714482"
      ],
      [
        2862,
        "0x884cde7b5f2f0a9ee28f90ce1d4aa526373b3e2c",
        "587501542442570832129",
        2
      ]
    ],
    [
      [
        "0x6fe3be54c1d0cb7684e528aaded48cf5e94cd2a82537646d36280e19c13efecb",
        "0x4fdfd2f79bb9b2286bbaaa54b7c0eefe8cd85f0dd74600b4376c3bae71c0a747",
        "0xf1f14f651791a20275fc219e04fd3f86cc79f6651a683ff095bfb68e433d250e",
        "0x3325fcaef5723b8307827caf2606acad8cbcc3b691c736c3cbe69061870ad239",
        "0x408e26fb17a78da4abfb6779cdd1de5c153ab3dd0827f9463d5daae952281b2f"
      ],
      [
        2862,
        "0x526e10f59b79d4e434d367f30a5cf6aa49641642",
        "1107435381877695515",
        1
      ]
    ],
    [
      [
        "0xb011e6217cc7e3601ac1483b32cafa5709ba17d728e5748077ef620ab391abc4",
        "0x22e9c361fc750e2599e263bd83b7dc72ea917f74c7d465a9bde5242b8db25c84",
        "0x81d2ac1feac40f84d0f9bf7260e8a739b948da368f66f605df5d58223c490405",
        "0xae260772ad6b0dba5d7f2c15a422e62dfa18aad01f7704e7678459e7f7581495",
        "0x1fe39377382ea1318598c8e5a3e154ec584f8fc2bf11f8a3886e7503c4714482"
      ],
      [
        2862,
        "0x07acc8fe6affb0bd54ec19acb6d27c2f87ae8f63",
        "552610255556973727496",
        2
      ]
    ],
    [
      [
        "0xbe4b68181115e702b92e3e65ea60824f32c8a0f9e4eac92f6db52cc7ed42c597",
        "0x27d7183d911e97f0ac97b24f7a9dc6c333ca245716acbe7e0022845159bb975a",
        "0xa02ab496406088f34e2565fa45601462f5182aee6c55f1a6082dafe767a4b3f1",
        "0x29b2c34d291e788f40c8c659be9c789a6050dd46e37c7f9f0586d16a5afeaee2",
        "0x1fe39377382ea1318598c8e5a3e154ec584f8fc2bf11f8a3886e7503c4714482"
      ],
      [
        2862,
        "0xc6cb03a22213a3e02186a3126d47c7fba20e4ef5",
        "677146572090441637221",
        1
      ]
    ],
    [
      [
        "0x5447e7b8a213dc81212ef976b5993df8969ae0a2e9ad176409a2866bb5c55c82",
        "0x5923e4ae685e74ceb981c35095029ea34712524a67f0c982a103c2fc929ffb60",
        "0x286a9c7c9c9cee265394bb0e5b169f70844126bf0154403f6b5a6630160b23f1",
        "0x9302910adf2e2d02e646cd713061920b042dafe6ebe6e739b3a78acb14669512",
        "0x408e26fb17a78da4abfb6779cdd1de5c153ab3dd0827f9463d5daae952281b2f"
      ],
      [
        2862,
        "0xabaa1718c2d80fc037bf66e3f66f0975d67431a9",
        "2708586288361766549225",
        2
      ]
    ],
    [
      [
        "0x90f33d853d29b30035fd1e0c1b8a2056fb5fe00f4b9036bf36da9ed8a924a74d",
        "0x9e5e6c1cf889da8dcc5bfbcc495fb45f6a75cc78920a773de00e225762052d17",
        "0x60e2aab378485ce5d4da72b91a7e275b9840fd84cab169b71b72edf6bca347d8",
        "0xae260772ad6b0dba5d7f2c15a422e62dfa18aad01f7704e7678459e7f7581495",
        "0x1fe39377382ea1318598c8e5a3e154ec584f8fc2bf11f8a3886e7503c4714482"
      ],
      [
        2862,
        "0xca84d6086c5b32212a0cf1638803355d7be31482",
        "384825296059771985471",
        1
      ]
    ],
    [
      [
        "0x4170b07be1d555b4ec910345bef0ed196a32e0d91df515c4a679794989eae3a5",
        "0x80b46e9c4f8895486ce4baf30b04ac5d5bf21abdfc1b9dc79d422e30ab722503",
        "0x286a9c7c9c9cee265394bb0e5b169f70844126bf0154403f6b5a6630160b23f1",
        "0x9302910adf2e2d02e646cd713061920b042dafe6ebe6e739b3a78acb14669512",
        "0x408e26fb17a78da4abfb6779cdd1de5c153ab3dd0827f9463d5daae952281b2f"
      ],
      [
        2862,
        "0x55fcf7806f556204141fe90fbe9ce6207d9c52ac",
        "1539301184239087942203",
        2
      ]
    ],
    [
      [
        "0xba80231fca6f0db08ce4d8024163cc713131897180103674b265554619345be8",
        "0xceef7f71b1353c0dc26deab39b3de69852bb4d9c4f4df21c9718db0e8194ae3c",
        "0x3f9e40ff981f8a538cc43491ab8d4265a5d084c37cbcfc4b151a744477bb6d93",
        "0x29b2c34d291e788f40c8c659be9c789a6050dd46e37c7f9f0586d16a5afeaee2",
        "0x1fe39377382ea1318598c8e5a3e154ec584f8fc2bf11f8a3886e7503c4714482"
      ],
      [
        2862,
        "0x1d415d28380ff51a507f7b176ca5f27833f7fffd",
        "257255659014796910100",
        1
      ]
    ],
    [
      [
        "0x280eed681ef390e9257208901e178fbded2465b6bcb0eaf24f1cd5134fab6407",
        "0x78ca8410962284ba09d5e35e73a46dacdd932467e7aad332cdc0eecdb9edefdb",
        "0x17346a8d565bae78ae3ebead0fc0d7434a7eeda6851a138f20598ae7871e1841",
        "0x3325fcaef5723b8307827caf2606acad8cbcc3b691c736c3cbe69061870ad239",
        "0x408e26fb17a78da4abfb6779cdd1de5c153ab3dd0827f9463d5daae952281b2f"
      ],
      [
        2862,
        "0xb849b93b585effb7ce4b522ff88d9b3b24955f24",
        "1029022636059187640745",
        2
      ]
    ],
    [
      [
        "0xba98a1cbc7b0dbacbe9e0d51b91273fe102672954016f27d97b89c973561e7f6",
        "0x22959fdf696b52e3eea75ef0eb1174d3b1df590ac3ab4cf29b2941e7f1e3c63d",
        "0x3f9e40ff981f8a538cc43491ab8d4265a5d084c37cbcfc4b151a744477bb6d93",
        "0x29b2c34d291e788f40c8c659be9c789a6050dd46e37c7f9f0586d16a5afeaee2",
        "0x1fe39377382ea1318598c8e5a3e154ec584f8fc2bf11f8a3886e7503c4714482"
      ],
      [
        2862,
        "0xf0b444bdc5522e908ff903e3f1730b5ab60b610a",
        "635804810283269722149",
        1
      ]
    ],
    [
      [
        "0x2576e60c124abc4fd8c1ca293f5298295073269604b33f09ae3c0d479f71eb61",
        "0xbde0b751f40aa5145319bde3ad8413c35f973eaacf09af827c06d13ee7ed592a",
        "0x17346a8d565bae78ae3ebead0fc0d7434a7eeda6851a138f20598ae7871e1841",
        "0x3325fcaef5723b8307827caf2606acad8cbcc3b691c736c3cbe69061870ad239",
        "0x408e26fb17a78da4abfb6779cdd1de5c153ab3dd0827f9463d5daae952281b2f"
      ],
      [
        2862,
        "0x07f5053c867ae107db15a38aa4421b2c24ac4e51",
        "2543219241133078889096",
        2
      ]
    ],
    [
      [
        "0x7fd54edfae05912b9f1217dd76fdfccc7f721981c708f6ae5e27f9cdf271cf74",
        "0xfd33ddabfdde71f55be5424ad0e175fc829231229c7d58cd2ca6cf48342e675b",
        "0x60e2aab378485ce5d4da72b91a7e275b9840fd84cab169b71b72edf6bca347d8",
        "0xae260772ad6b0dba5d7f2c15a422e62dfa18aad01f7704e7678459e7f7581495",
        "0x1fe39377382ea1318598c8e5a3e154ec584f8fc2bf11f8a3886e7503c4714482"
      ],
      [
        2862,
        "0x2e46e8d1f3636f7036978d054b0a07e7395053c8",
        "722043383766172640358",
        1
      ]
    ],
    [
      [
        "0x58560a1e186ba971973b28fdc14792cc9b96a15407c4d420174d776364bbf07d",
        "0x8b0ec21581a74c532c435f458849685d8800be233dd30a30064b212c6a3c0f62",
        "0x613cd770941e7627bc46baf28d46543b5e46ad38a15c0c3e56d2db1b00f1e996",
        "0x9302910adf2e2d02e646cd713061920b042dafe6ebe6e739b3a78acb14669512",
        "0x408e26fb17a78da4abfb6779cdd1de5c153ab3dd0827f9463d5daae952281b2f"
      ],
      [
        2862,
        "0xe80c39eae57c0359ee6c4086e2b22300353728e1",
        "2888173535064690561741",
        2
      ]
    ],
    [
      [
        "0x6cde2594b6d30bf094da1df3d5e42c1dc89726643e6144c67fcf9e18aebb1aa4",
        "0xd5b43ad89a02fb2924edc0038efdc7eb3dbe8fc52788588bac8342677e5dbb99",
        "0x613cd770941e7627bc46baf28d46543b5e46ad38a15c0c3e56d2db1b00f1e996",
        "0x9302910adf2e2d02e646cd713061920b042dafe6ebe6e739b3a78acb14669512",
        "0x408e26fb17a78da4abfb6779cdd1de5c153ab3dd0827f9463d5daae952281b2f"
      ],
      [
        2862,
        "0xf206f9b8bda82301c19a67b3d272f060bbe51e02",
        "13565335088451428",
        1
      ]
    ],
    [
      [
        "0x98377134fecc1d73e6fc42cf0dc93e4845567a6a439e9323e092a9d967946690",
        "0x597ba94678a6e10be67cce2d7736a066a59bff60fc0f7c1ac2ade9ce9fc6998a",
        "0x81d2ac1feac40f84d0f9bf7260e8a739b948da368f66f605df5d58223c490405",
        "0xae260772ad6b0dba5d7f2c15a422e62dfa18aad01f7704e7678459e7f7581495",
        "0x1fe39377382ea1318598c8e5a3e154ec584f8fc2bf11f8a3886e7503c4714482"
      ],
      [
        2862,
        "0x11cef138b1ee96a481dc040842433bfc5229ad70",
        "54261340353805781",
        2
      ]
    ],
    [
      [
        "0xd68e52ebfa5b282e58ffc30c9f9db75b9cae18fc9aae62e9bcbfc482f2e8b44b",
        "0x3a4742a635733231c7f8621c82c096a32409ea045e11e444e9e8ee5484203aea",
        "0xa02ab496406088f34e2565fa45601462f5182aee6c55f1a6082dafe767a4b3f1",
        "0x29b2c34d291e788f40c8c659be9c789a6050dd46e37c7f9f0586d16a5afeaee2",
        "0x1fe39377382ea1318598c8e5a3e154ec584f8fc2bf11f8a3886e7503c4714482"
      ],
      [
        2862,
        "0x0dd018692f98a7894ecc7ba90cfb8f93a19159d3",
        "3338918313716435",
        1
      ]
    ],
    [
      [
        "0xe1072818a4dc36d8d9ad77d25fc1cfc62e013c7afb66e0154e64a4c5df85a2c4",
        "0x3a4742a635733231c7f8621c82c096a32409ea045e11e444e9e8ee5484203aea",
        "0xa02ab496406088f34e2565fa45601462f5182aee6c55f1a6082dafe767a4b3f1",
        "0x29b2c34d291e788f40c8c659be9c789a6050dd46e37c7f9f0586d16a5afeaee2",
        "0x1fe39377382ea1318598c8e5a3e154ec584f8fc2bf11f8a3886e7503c4714482"
      ],
      [
        2862,
        "0x612cff400ee27c91b956c45f4c50e61b55312430",
        "13355673254865757",
        2
      ]
    ],
    [
      [
        "0xa0587b6ead129dd921ba03a1721b782a05a4ce668d405f7ec03181ac31c39894",
        "0x22e9c361fc750e2599e263bd83b7dc72ea917f74c7d465a9bde5242b8db25c84",
        "0x81d2ac1feac40f84d0f9bf7260e8a739b948da368f66f605df5d58223c490405",
        "0xae260772ad6b0dba5d7f2c15a422e62dfa18aad01f7704e7678459e7f7581495",
        "0x1fe39377382ea1318598c8e5a3e154ec584f8fc2bf11f8a3886e7503c4714482"
      ],
      [
        2862,
        "0xa6a088c1036f4fd6f022d52630842e19f90405ed",
        "102085272863505",
        1
      ]
    ],
    [
      [
        "0x0ef34bf2bd1a76e2099650fc9a8ef0c9305c9bb066d34a55b52a5571e7714ef6",
        "0xa7b773eaf87df1f93d60f079e497b92736033c72fa9fcc89a4b23e1060f2520a",
        "0xf1f14f651791a20275fc219e04fd3f86cc79f6651a683ff095bfb68e433d250e",
        "0x3325fcaef5723b8307827caf2606acad8cbcc3b691c736c3cbe69061870ad239",
        "0x408e26fb17a78da4abfb6779cdd1de5c153ab3dd0827f9463d5daae952281b2f"
      ],
      [
        2862,
        "0xddef1deac28e2d91f3d3c682c737cc0ef8489aba",
        "408341091454023",
        2
      ]
    ]
  ],
  "noOfWeightBasedClaims": 16,
  "merkleRoot": "0x6591d9594a27a57cdd6f8c9888675509cdf382104d4c4a5918af59103e607a10",
  "abi": {
    "components": [
      {
        "internalType": "uint24",
        "name": "rewardEpochId",
        "type": "uint24"
      },
      {
        "internalType": "bytes20",
        "name": "beneficiary",
        "type": "bytes20"
      },
      {
        "internalType": "uint120",
        "name": "amount",
        "type": "uint120"
      },
      {
        "internalType": "enum IRewardManager.ClaimType",
        "name": "claimType",
        "type": "uint8"
      }
    ],
    "internalType": "struct IRewardManager.RewardClaim",
    "name": "_claim",
    "type": "tuple"
  }
}