{
  "rewardEpochId": 2870,
  "rewardClaims": [
    [
      [
        "0x02d89c828b9eba9eee600ea3a4ee4ef44d459b59d5974ab51ea19e5f2210ce34",
        "0xc8ddf5ea9c61bf940f9c851b9d618827e5087c8e27da60e6f1afd92c7d0b0c05",
        "0xb21f7187a7cbdf0eddeea11e42848795262eb977c8c9dd1ac10e42e07f5c8cc8",
        "0x0906f323d9300b9175b203e6d6074467e7de795fce80381d11d0beadfd9462f1",
        "0xf2478a4a26aca152e5ee4557d11057099e9eca8dd529313afaa4c6c29923ad34"
      ],
      [
        2870,
        "0x000000000000000000000000000000000000dead",
        "14839048464931249707679",
        0
      ]
    ],
    [
      [
        "0x62f2db2c8c7ddc1e7f5d76b980b0063aa885f8337d26f93f04acf52c7f72230a",
        "0x35427e33134d746e914f484b15d72c16863ce7966b721b8791e99b5850f48c3b",
        "0x6f2756911f1ab4235c4d4d99121eabc23980435508b91c05ec70d7cc3b238094",
        "0xce40aceb3de53b293cb5c1ae000f99ed8cd1ef3fd1437a9f5602814b412751a0",
        "0x01de3cd2dc144f81e023c2a550162a006f5981b61704b9cab0a9707e5fb4f26c"
      ],
      [
        2870,
        "0x19b6fde072fd962dd191e5d17121a6733d7e1977",
        "1750305356851551800",
        1
      ]
    ],
    [
      [
        "0x7cf39461eb27f5a3cc2686019c796971ed1fa321054422b0a0a022348bdb9b28",
        "0xf40706abad4b8b602f166ec889a48b8a78f07344f5e3b2a1043558c688cf18e2",
        "0xd231d59a18e1b79b564a176de329fd8b9d934a2d90eb8018ce0742e9dd8200ac",
        "0x5fcb8c88ab8d30d77c2b20ac61d4b5f408077bc07b8a7492f1005257262a7641",
        "0x01de3cd2dc144f81e023c2a550162a006f5981b61704b9cab0a9707e5fb4f26c"
      ],
      [
        2870,
        "0x9faacf0334c62fcd9b2ead3dde72febce796859d",
        "873402373068932751424",
        2
      ]
    ],
    [
      [
        "0xa11f71df2bc4b98b2c0d01a015a7bf6dc8ba99ff4242116c14f831847656ea8a",
        "0xa8a5c6ef3de9727d3704b53c9499c61c4e59508c291f32dfb8956f92cc83eda2",
        "0x8b3891009feec7148b07f92f018a804007cb779c2f23c4fb6372aaa0fde72991",
        "0x5fcb8c88ab8d30d77c2b20ac61d4b5f408077bc07b8a7492f1005257262a7641",
        "0x01de3cd2dc144f81e023c2a550162a006f5981b61704b9cab0a9707e5fb4f26c"
      ],
      [
        2870,
        "0x25f42def3fcc078de8895cd01de8ab6514020548",
        "27171582804054602671",
        1
      ]
    ],
    [
      [
        "0x67a1a445aee3754af4e52ad1260ea158271b16671b244373172d3795917f68c8",
        "0x5cd488d85163b5c1edb84c0ec6fdad3dd6d397f6c19f7bff15f4b37204914567",
        "0xad10b39f98d6a6e9da2a7c0b706ea9d994f0e3e5f9cdd64e0af0eacfcc82d43c",
        "0xce40aceb3de53b293cb5c1ae000f99ed8cd1ef3fd1437a9f5602814b412751a0",
        "0x01de3cd2dc144f81e023c2a550162a006f5981b61704b9cab0a9707e5fb4f26c"
      ],
      [
        2870,
        "0x256194ca4884dbe2933862f0e9f7e0e4d411eb35",
        "1905563324059760056469",
        2
      ]
    ],
    [
      [
        "0x2f6c96e0903a72049a00f3fcb7983e821d6974461a5f04973bf76fde6336e589",
        "0xaf09bbda44850c6dac61fe39e2595ebda9fd48d1a3baaf38aff37e04a52886d6",
        "0xdf72cd54da24efaf7d2b36b6f25fe6423777eec3695be545de104fd8d7d34fe9",
        "0x19c54d7adc383c22b00f7c75c4bf6ad3f883483fdd47b776f52447da7c44a050",
        "0xf2478a4a26aca152e5ee4557d11057099e9eca8dd529313afaa4c6c29923ad34"
      ],
      [
        2870,
        "0x9181f8ed4381ce39dbf4b8336b6295de89527c46",
        "1180683656421762789",
        1
      ]
    ],
    [
      [
        "0x02ce2f601c1c565d49655552f553c3d0a1e28ffe6226aa6afff3a92832e79117",
        "0xc8ddf5ea9c61bf940f9c851b9d618827e5087c8e27da60e6f1afd92c7d0b0c05",
        "0xb21f7187a7cbdf0eddeea11e42848795262eb977c8c9dd1ac10e42e07f5c8cc8",
        "0x0906f323d9300b9175b203e6d6074467e7de795fce80381d11d0beadfd9462f1",
        "0xf2478a4a26aca152e5ee4557d11057099e9eca8dd529313afaa4c6c29923ad34"
      ],
      [
        2870,
        "0x884cde7b5f2f0a9ee28f90ce1d4aa526373b3e2c",
        "588402049881990125140",
        2
      ]
    ],
    [
      [
        "0x89eeab49ee5bd27b36ba7bd2f91b3e5655636ac485217e24ce96f3fcf42cef3e",
        "0x241339c9f18ec712a84358b462ff585f2bc958bd77d47918a0a63cd8d980f67a",
        "0xd231d59a18e1b79b564a176de329fd8b9d934a2d90eb8018ce0742e9dd8200ac",
        "0x5fcb8c88ab8d30d77c2b20ac61d4b5f408077bc07b8a7492f1005257262a7641",
        "0x01de3cd2dc144f81e023c2a550162a006f5981b61704b9cab0a9707e5fb4f26c"
      ],
      [
        2870,
        "0x0bed169e74037b66a2e1c1a4937c285057773dbb",
        "12583738240439505768",
        1
      ]
    ],
    [
      [
        "0xd9ea0cbc0afd3ffd3d68e9a9fa2f51b3d6159fdc3b2b723c93131430a2f9f7a1",
        "0x76aceae2c919bdda2c2677eab84b376acc197551248c4db369301bdd3080c0a9",
        "0x06e413860a95337f6ef9c945a82d25698afb6ae05f6e100bba3b1a2b5f7dbf78",
        "0x9307b05ef635fbd1566462f3e81806c109a2f3f68bae28b10e881f38bc2a3c92",
        "0x0906f323d9300b9175b203e6d6074467e7de795fce80381d11d0beadfd9462f1",
        "0xf2478a4a26aca152e5ee4557d11057099e9eca8dd529313afaa4c6c29923ad34"
      ],
      [
        2870,
        "0xbc9a659af696a4d7375b104db8e5189b54f9d2b3",
        "1849831236842460618635",
        2
      ]
    ],
    [
      [
        "0x7e451ffaaae3b29d6461d2727042b4bbe5b8a012a8d0a858646630a2576901bb",
        "0xf40706abad4b8b602f166ec889a48b8a78f07344f5e3b2a1043558c688cf18e2",
        "0xd231d59a18e1b79b564a176de329fd8b9d934a2d90eb8018ce0742e9dd8200ac",
        "0x5fcb8c88ab8d30d77c2b20ac61d4b5f408077bc07b8a7492f1005257262a7641",
        "0x01de3cd2dc144f81e023c2a550162a006f5981b61704b9cab0a9707e5fb4f26c"
      ],
      [
        2870,
        "0x0f4edd405e2550f88903c3f5614a1067f1d9d84c",
        "571252453133266184",
        1
      ]
    ],
    [
      [
        "0x4cb6a713a8e2d888ae528ee488ed0f337d6ad84b100d4da9bf6a01aef5f2a4ac",
        "0xbd8c79456e6cf92d8606b8808a8cf0089deb391e40a6e887a1b62ac5976bcb46",
        "0x2334bd9f66802ecd7235c2c1842e27f48b2d972fdbf33ffdfb1f06314553cbdc",
        "0x19c54d7adc383c22b00f7c75c4bf6ad3f883483fdd47b776f52447da7c44a050",
        "0xf2478a4a26aca152e5ee4557d11057099e9eca8dd529313afaa4c6c29923ad34"
      ],
      [
        2870,
        "0x67daef0258d83fe9513feaee28a8bbac7e8a031f",
        "284616776436927855680",
        2
      ]
    ],
    [
      [
        "0x63b37b174a6b50867ccb7a85e83a3bdfadf804b48d40a350f86476a966771918",
        "0x175c9a5abfc82a2889525bddb45c3d9c1ed302861d2b6a309a6dea04fa3a7357",
        "0x6f2756911f1ab4235c4d4d99121eabc23980435508b91c05ec70d7cc3b238094",
        "0xce40aceb3de53b293cb5c1ae000f99ed8cd1ef3fd1437a9f5602814b412751a0",
        "0x01de3cd2dc144f81e023c2a550162a006f5981b61704b9cab0a9707e5fb4f26c"
      ],
      [
        2870,
        "0xadf3a9a6494b8c1a24f0eec5d44a388afc10df09",
        "14996378186761744417",
        1
      ]
    ],
    [
      [
        "0x36a3f7b3ce9960eae09e0a6a136cc534423a48762d4bf81f3b4b07b494176918",
        "0x465a4ec4d26038603c245f106d39089551bbe84967547beff6395851043023fc",
        "0x2334bd9f66802ecd7235c2c1842e27f48b2d972fdbf33ffdfb1f06314553cbdc",
        "0x19c54d7adc383c22b00f7c75c4bf6ad3f883483fdd47b776f52447da7c44a050",
        "0xf2478a4a26aca152e5ee4557d11057099e9eca8dd529313afaa4c6c29923ad34"
      ],
      [
        2870,
        "0xf75a67d060f28f269d3f7a51fdb2859e7d6a4d78",
        "646744154382495367608",
        2
      ]
    ],
    [
      [
        "0xaf0dc12cc1cfea8c3882245e0c44cec4928171908edc7a1f4f4832d1bb9b13da",
        "0x50f437c03586f93fd29b4dfe6db12e34667fb2b2dc4ba233c0f0772808b7b75d",
        "0x8b3891009feec7148b07f92f018a804007cb779c2f23c4fb6372aaa0fde72991",
        "0x5fcb8c88ab8d30d77c2b20ac61d4b5f408077bc07b8a7492f1005257262a7641",
        "0x01de3cd2dc144f81e023c2a550162a006f5981b61704b9cab0a9707e5fb4f26c"
      ],
      [
        2870,
        "0x526e10f59b79d4e434d367f30a5cf6aa49641642",
        "1265861410134599576",
        1
      ]
    ],
    [
      [
        "0xc1a02fc920926f986df3d580f8c7ba4d187f429ba422d1f0da3bff003f7ba7b6",
        "0x5945015f9b1f8da62248ee7284ba04df81bb9232d220060121b7bbc3435ec95e",
        "0x06e413860a95337f6ef9c945a82d25698afb6ae05f6e100bba3b1a2b5f7dbf78",
        "0x9307b05ef635fbd1566462f3e81806c109a2f3f68bae28b10e881f38bc2a3c92",
        "0x0906f323d9300b9175b203e6d6074467e7de795fce80381d11d0beadfd9462f1",
        "0xf2478a4a26aca152e5ee4557d11057099e9eca8dd529313afaa4c6c29923ad34"
      ],
      [
        2870,
        "0x07acc8fe6affb0bd54ec19acb6d27c2f87ae8f63",
        "631351712430617041610",
        2
      ]
    ],
    [
      [
        "0x523e5c514b16333fabc261e1f8e9f4a02e0926134ec22ae15ca62c0c0b76c8fd",
        "0x35427e33134d746e914f484b15d72c16863ce7966b721b8791e99b5850f48c3b",
        "0x6f2756911f1ab4235c4d4d99121eabc23980435508b91c05ec70d7cc3b238094",
        "0xce40aceb3de53b293cb5c1ae000f99ed8cd1ef3fd1437a9f5602814b412751a0",
        "0x01de3cd2dc144f81e023c2a550162a006f5981b61704b9cab0a9707e5fb4f26c"
      ],
      [
        2870,
        "0x437d15fad24dc5fe77384c34e24ee0b4c2607d79",
        "1041556909720886874",
        1
      ]
    ],
    [
      [
        "0xc7314df760f4cf10a7075ff4d697d2d46671ac5b1879e1c081580627bb62bcec",
        "0xba22cbae20e98ad8e14f62f909e7608501ce7cac0ce5d313de43df5247ab2fd1",
        "0x9307b05ef635fbd1566462f3e81806c109a2f3f68bae28b10e881f38bc2a3c92",
        "0x0906f323d9300b9175b203e6d6074467e7de795fce80381d11d0beadfd9462f1",
        "0xf2478a4a26aca152e5ee4557d11057099e9eca8dd529313afaa4c6c29923ad34"
      ],
      [
        2870,
        "0xd88833424225068867309e0ec02999883c14dc77",
        "271403349870996017613",
        2
      ]
    ],
    [
      [
        "0xca152d85ee872e457d1ebcd797b3034ac2de22c17179c003c77e99a8bb70fc15",
        "0x76aceae2c919bdda2c2677eab84b376acc197551248c4db369301bdd3080c0a9",
        "0x06e413860a95337f6ef9c945a82d25698afb6ae05f6e100bba3b1a2b5f7dbf78",
        "0x9307b05ef635fbd1566462f3e81806c109a2f3f68bae28b10e881f38bc2a3c92",
        "0x0906f323d9300b9175b203e6d6074467e7de795fce80381d11d0beadfd9462f1",
        "0xf2478a4a26aca152e5ee4557d11057099e9eca8dd529313afaa4c6c29923ad34"
      ],
      [
        2870,
        "0x0dd018692f98a7894ecc7ba90cfb8f93a19159d3",
        "8813889198549629181",
        1
      ]
    ],
    [
      [
        "0x16c73d2d92c2d1e15fd65c609e876face08e4538c6f2a0f4cb8c21b2688df558",
        "0x21951c567a284b2ea04f529ebb83bc1e8bdcde6a640871c595f8e1373dc944a3",
        "0xb21f7187a7cbdf0eddeea11e42848795262eb977c8c9dd1ac10e42e07f5c8cc8",
        "0x0906f323d9300b9175b203e6d6074467e7de795fce80381d11d0beadfd9462f1",
        "0xf2478a4a26aca152e5ee4557d11057099e9eca8dd529313afaa4c6c29923ad34"
      ],
      [
        2870,
        "0x612cff400ee27c91b956c45f4c50e61b55312430",
        "35255556794198516760",
        2
      ]
    ],
    [
      [
        "0xb0e227073b7ff2b6027067aaeaa182de4f645b533aac5f107a82dcd57ba84004",
        "0x50f437c03586f93fd29b4dfe6db12e34667fb2b2dc4ba233c0f0772808b7b75d",
        "0x8b3891009feec7148b07f92f018a804007cb779c2f23c4fb6372aaa0fde72991",
        "0x5fcb8c88ab8d30d77c2b20ac61d4b5f408077bc07b8a7492f1005257262a7641",
        "0x01de3cd2dc144f81e023c2a550162a006f5981b61704b9cab0a9707e5fb4f26c"
      ],
      [
        2870,
        "0xc6cb03a22213a3e02186a3126d47c7fba20e4ef5",
        "847992070468039313660",
        1
      ]
    ],
    [
      [
        "0x3d7c9d948c372f5f2d599f55d4709444045a605a09a4dab66d863c00af052941",
        "0xbd8c79456e6cf92d8606b8808a8cf0089deb391e40a6e887a1b62ac5976bcb46",
        "0x2334bd9f66802ecd7235c2c1842e27f48b2d972fdbf33ffdfb1f06314553cbdc",
        "0x19c54d7adc383c22b00f7c75c4bf6ad3f883483fdd47b776f52447da7c44a050",
        "0xf2478a4a26aca152e5ee4557d11057099e9eca8dd529313afaa4c6c29923ad34"
      ],
      [
        2870,
        "0xabaa1718c2d80fc037bf66e3f66f0975d67431a9",
        "3391968281872157255208",
        2
      ]
    ],
    [
      [
        "0xdbe8e84f6ac20f5c1fc0fe3c77de3134876eb4829d7d708ac485e7a6ac1c5e1e",
        "0x007ee774e52087a12310e8f18025cad3815cc65e99cc6f5205f5d5a424e34a30",
        "0xba22cbae20e98ad8e14f62f909e7608501ce7cac0ce5d313de43df5247ab2fd1",
        "0x9307b05ef635fbd1566462f3e81806c109a2f3f68bae28b10e881f38bc2a3c92",
        "0x0906f323d9300b9175b203e6d6074467e7de795fce80381d11d0beadfd9462f1",
        "0xf2478a4a26aca152e5ee4557d11057099e9eca8dd529313afaa4c6c29923ad34"
      ],
      [
        2870,
        "0x1d415d28380ff51a507f7b176ca5f27833f7fffd",
        "178615853328512950152",
        1
      ]
    ],
    [
      [
        "0x67281687f160c04ac138e7acb7ecbbac00d694c89272ed16799f77205a4a34ac",
        "0x175c9a5abfc82a2889525bddb45c3d9c1ed302861d2b6a309a6dea04fa3a7357",
        "0x6f2756911f1ab4235c4d4d99121eabc23980435508b91c05ec70d7cc3b238094",
        "0xce40aceb3de53b293cb5c1ae000f99ed8cd1ef3fd1437a9f5602814b412751a0",
        "0x01de3cd2dc144f81e023c2a550162a006f5981b61704b9cab0a9707e5fb4f26c"
      ],
      [
        2870,
        "0xb849b93b585effb7ce4b522ff88d9b3b24955f24",
        "714463413314051800758",
        2
      ]
    ],
    [
      [
        "0x33df82543c221aff059990fe4c17707a532ce2151b4e1f7299a76d364924cae0",
        "0xaf09bbda44850c6dac61fe39e2595ebda9fd48d1a3baaf38aff37e04a52886d6",
        "0xdf72cd54da24efaf7d2b36b6f25fe6423777eec3695be545de104fd8d7d34fe9",
        "0x19c54d7adc383c22b00f7c75c4bf6ad3f883483fdd47b776f52447da7c44a050",
        "0xf2478a4a26aca152e5ee4557d11057099e9eca8dd529313afaa4c6c29923ad34"
      ],
      [
        2870,
        "0x2e46e8d1f3636f7036978d054b0a07e7395053c8",
        "568625388002740981540",
        1
      ]
    ],
    [
      [
        "0xb587087bf17023156781596debf8b86e3707b85b5751f016260c08cf554c6b7a",
        "0x5945015f9b1f8da62248ee7284ba04df81bb9232d220060121b7bbc3435ec95e",
        "0x06e413860a95337f6ef9c945a82d25698afb6ae05f6e100bba3b1a2b5f7dbf78",
        "0x9307b05ef635fbd1566462f3e81806c109a2f3f68bae28b10e881f38bc2a3c92",
        "0x0906f323d9300b9175b203e6d6074467e7de795fce80381d11d0beadfd9462f1",
        "0xf2478a4a26aca152e5ee4557d11057099e9eca8dd529313afaa4c6c29923ad34"
      ],
      [
        2870,
        "0xe80c39eae57c0359ee6c4086e2b22300353728e1",
        "2274501552010963926608",
        2
      ]
    ],
    [
      [
        "0x04d6582bccf5a49c11e1748e7d59cc1f5f4e5b171ddd5e6a3fd2924bd427be09",
        "0x21951c567a284b2ea04f529ebb83bc1e8bdcde6a640871c595f8e1373dc944a3",
        "0xb21f7187a7cbdf0eddeea11e42848795262eb977c8c9dd1ac10e42e07f5c8cc8",
        "0x0906f323d9300b9175b203e6d6074467e7de795fce80381d11d0beadfd9462f1",
        "0xf2478a4a26aca152e5ee4557d11057099e9eca8dd529313afaa4c6c29923ad34"
      ],
      [
        2870,
        "0xf0b444bdc5522e908ff903e3f1730b5ab60b610a",
        "615806207489943984561",
        1
      ]
    ],
    [
      [
        "0x2c0f9d705770eed2702784c31585804ce049b30f1416aee7fecad5d29f040e36",
        "0x9ed7e47ba3b37b9ab9cf71e204f3fe33fba3ab397e6aaa2d1a0be38db3773902",
        "0xdf72cd54da24efaf7d2b36b6f25fe6423777eec3695be545de104fd8d7d34fe9",
        "0x19c54d7adc383c22b00f7c75c4bf6ad3f883483fdd47b776f52447da7c44a050",
        "0xf2478a4a26aca152e5ee4557d11057099e9eca8dd529313afaa4c6c29923ad34"
      ],
      [
        2870,
        "0x07f5053c867ae107db15a38aa4421b2c24ac4e51",
        "2463224829959775938734",
        2
      ]
    ],
    [
      [
        "0x67d4d580fe0691537beeb8d583d7c2721515870e7706e3506d614912b7a7db1f",
        "0x5cd488d85163b5c1edb84c0ec6fdad3dd6d397f6c19f7bff15f4b37204914567",
        "0xad10b39f98d6a6e9da2a7c0b706ea9d994f0e3e5f9cdd64e0af0eacfcc82d43c",
        "0xce40aceb3de53b293cb5c1ae000f99ed8cd1ef3fd1437a9f5602814b412751a0",
        "0x01de3cd2dc144f81e023c2a550162a006f5981b61704b9cab0a9707e5fb4f26c"
      ],
      [
        2870,
        "0x43844ca777a776ae50d09734bd5d481144dee95c",
        "2021847829652558",
        1
      ]
    ],
    [
      [
        "0x9ec3043866e25b834be7c45dddee5b40ea27dfd4c7a5fd601841c98808d905a5",
        "0xa8a5c6ef3de9727d3704b53c9499c61c4e59508c291f32dfb8956f92cc83eda2",
        "0x8b3891009feec7148b07f92f018a804007cb779c2f23c4fb6372aaa0fde72991",
        "0x5fcb8c88ab8d30d77c2b20ac61d4b5f408077bc07b8a7492f1005257262a7641",
        "0x01de3cd2dc144f81e023c2a550162a006f5981b61704b9cab0a9707e5fb4f26c"
      ],
      [
        2870,
        "0x9b512e398b8e8cf4ba966822554ac10b345b023a",
        "8087391318610290",
        2
      ]
    ],
    [
      [
        "0x6ca7f51026f0d9e23220416886bce55679ae79ed7d1fde4c75cad2f649517ac4",
        "0x373741869c4ed8dce999b0d22fb87e033e65e155cb588b6705ab9d9ac5593cc9",
        "0xad10b39f98d6a6e9da2a7c0b706ea9d994f0e3e5f9cdd64e0af0eacfcc82d43c",
        "0xce40aceb3de53b293cb5c1ae000f99ed8cd1ef3fd1437a9f5602814b412751a0",
        "0x01de3cd2dc144f81e023c2a550162a006f5981b61704b9cab0a9707e5fb4f26c"
      ],
      [
        2870,
        "0xca84d6086c5b32212a0cf1638803355d7be31482",
        "382627031472448597440",
        1
      ]
    ],
    [
      [
        "0x6dc2eca23edd54d230861860927d442d6e498ae7c6b824288e727c7e1b1dbf45",
        "0x373741869c4ed8dce999b0d22fb87e033e65e155cb588b6705ab9d9ac5593cc9",
        "0xad10b39f98d6a6e9da2a7c0b706ea9d994f0e3e5f9cdd64e0af0eacfcc82d43c",
        "0xce40aceb3de53b293cb5c1ae000f99ed8cd1ef3fd1437a9f5602814b412751a0",
        "0x01de3cd2dc144f81e023c2a550162a006f5981b61704b9cab0a9707e5fb4f26c"
      ],
      [
        2870,
        "0x55fcf7806f556204141fe90fbe9ce6207d9c52ac",
        "1530508125889794390107",
        2
      ]
    ],
    [
      [
        "0x90b8461b591db3a07895411cd8d86ec3dfe9da972785f299e0dfa18cc13e22c9",
        "0x241339c9f18ec712a84358b462ff585f2bc958bd77d47918a0a63cd8d980f67a",
        "0xd231d59a18e1b79b564a176de329fd8b9d934a2d90eb8018ce0742e9dd8200ac",
        "0x5fcb8c88ab8d30d77c2b20ac61d4b5f408077bc07b8a7492f1005257262a7641",
        "0x01de3cd2dc144f81e023c2a550162a006f5981b61704b9cab0a9707e5fb4f26c"
      ],
      [
        2870,
        "0xf206f9b8bda82301c19a67b3d272f060bbe51e02",
        "10650792772861485",
        1
      ]
    ],
    [
      [
        "0x38a2f2016937562bc3d5bcc0eb9967591d2d69eab887f8ebedf87d7bf3cf3281",
        "0x465a4ec4d26038603c245f106d39089551bbe84967547beff6395851043023fc",
        "0x2334bd9f66802ecd7235c2c1842e27f48b2d972fdbf33ffdfb1f06314553cbdc",
        "0x19c54d7adc383c22b00f7c75c4bf6ad3f883483fdd47b776f52447da7c44a050",
        "0xf2478a4a26aca152e5ee4557d11057099e9eca8dd529313afaa4c6c29923ad34"
      ],
      [
        2870,
        "0x11cef138b1ee96a481dc040842433bfc5229ad70",
        "42603171091446115",
        2
      ]
    ],
    [
      [
        "0xdc14f755f3b84695cfe0f0fc0da6bf117a33a7c48e96e20fca1f45b9bc5fc5f9",
        "0x007ee774e52087a12310e8f18025cad3815cc65e99cc6f5205f5d5a424e34a30",
        "0xba22cbae20e98ad8e14f62f909e7608501ce7cac0ce5d313de43df5247ab2fd1",
        "0x9307b05ef635fbd1566462f3e81806c109a2f3f68bae28b10e881f38bc2a3c92",
        "0x0906f323d9300b9175b203e6d6074467e7de795fce80381d11d0beadfd9462f1",
        "0xf2478a4a26aca152e5ee4557d11057099e9eca8dd529313afaa4c6c29923ad34"
      ],
      [
        2870,
        "0xa6a088c1036f4fd6f022d52630842e19f90405ed",
        "702731707147210",
        1
      ]
    ],
    [
      [
        "0x233aac5f0261312b0ae9d16618db6f08544f7d1c1b4df22aacbe18acda7907dd",
        "0x9ed7e47ba3b37b9ab9cf71e204f3fe33fba3ab397e6aaa2d1a0be38db3773902",
        "0xdf72cd54da24efaf7d2b36b6f25fe6423777eec3695be545de104fd8d7d34fe9",
        "0x19c54d7adc383c22b00f7c75c4bf6ad3f883483fdd47b776f52447da7c44a050",
        "0xf2478a4a26aca152e5ee4557d11057099e9eca8dd529313afaa4c6c29923ad34"
      ],
      [
        2870,
        "0xddef1deac28e2d91f3d3c682c737cc0ef8489aba",
        "2810926828588856",
        2
      ]
    ]
  ],
  "noOfWeightBasedClaims": 17,
  "merkleRoot": "0xcca10790a65fd43f06c7c5f3268805c3c685aa193cbc920dabaea9d7b8579981",
  "abi": {
    "components": [
      {
        "internalType": "uint24",
        "name": "rewardEpochId",
        "type": "uint24"
      },
      {
        "internalType": "bytes20",
        "name": "beneficiary",
        "type": "bytes20"
      },
      {
        "internalType": "uint120",
        "name": "amount",
        "type": "uint120"
      },
      {
        "internalType": "enum IRewardManager.ClaimType",
        "name": "claimType",
        "type": "uint8"
      }
    ],
    "internalType": "struct IRewardManager.RewardClaim",
    "name": "_claim",
    "type": "tuple"
  }
}