{
  "rewardEpochId": 2836,
  "rewardClaims": [
    {
      "merkleProof": [
        "0x77a46af9afdece81783818408edc998557c0395c9d4aca3513a2e8743ebdcc18",
        "0x4e5c465ba76559f2bea2d8efb8973e831a7d580554007d3e8370abfba353d18b",
        "0x52dac1ad43314c8029494416dc7407d0b3a8fa4826ceed86a41308b72777b398",
        "0x4876e12436c12403fbcfb489deabfe614bc06831b0915bba35c240b2bca91bce",
        "0x68bbcab5e8d382e815785bab23be50605189d95e34308c41349188cf7caf8ebe"
      ],
      "body": {
        "beneficiary": "0xf0b444bdc5522e908ff903e3f1730b5ab60b610a",
        "claimType": 1,
        "amount": "695901906206215076726",
        "rewardEpochId": 2836
      }
    },
    {
      "merkleProof": [
        "0xd7b0d83daf06bf4e1a200679299978ea7ec1dd865802ab2d39d44585a78f8fb6",
        "0x0988c1e0ed4209186ba7c51f21cfdd253d3af451a232fefea85829f26f0e6a83",
        "0xf81856ed851983843b8fbb98ed9ae9c269eb092c4170de227d3ea0d63b60317a",
        "0x3500b8a7003db59e29205ff55b1222c4b65b2b84a9597a2b67a889e492ca89bd",
        "0xd347253b5f8fb5da777fcf61ccc22a783927377f526ab244dfee2652c38f8545",
        "0xd4f0337b7cc9aa5444e7316015a2a38080883822cabd60e3be3d6efada39c8cc"
      ],
      "body": {
        "beneficiary": "0x07f5053c867ae107db15a38aa4421b2c24ac4e51",
        "claimType": 2,
        "amount": "2783607624824860307454",
        "rewardEpochId": 2836
      }
    },
    {
      "merkleProof": [
        "0xc5b871c91584ae6bd975043792ef0d32f75c0baccb86c8b97333940b056bfc6a",
        "0xe5161050ca4676292d85e5ebab8edacf3871370be82deebc74ae86b09aa60513",
        "0x1067a11896bfef80cb6cdd4d4f18a4080007224fd82d74656b081bae7aeabcbf",
        "0x4b682108f7e0758dd688b5b674d2a9b1a966c4874e143580ea99b7060965492d",
        "0x68bbcab5e8d382e815785bab23be50605189d95e34308c41349188cf7caf8ebe"
      ],
      "body": {
        "beneficiary": "0x000000000000000000000000000000000000dead",
        "claimType": 0,
        "amount": "16270680905216867491819",
        "rewardEpochId": 2836
      }
    },
    {
      "merkleProof": [
        "0x463ffea52a9ccadb5f37d75ab305dbbc685c5a7aa0f43644e126a2ce9694edc8",
        "0xc481324efe62cc3c617b18fbfe0aadbdcf2bae4d7da003b89204554b6b2e64df",
        "0xbe45c2ae1b1b1fc825d88e4a93d5758ab66c6bc9b55ea58dc8f3826265a69dba",
        "0x4876e12436c12403fbcfb489deabfe614bc06831b0915bba35c240b2bca91bce",
        "0x68bbcab5e8d382e815785bab23be50605189d95e34308c41349188cf7caf8ebe"
      ],
      "body": {
        "beneficiary": "0x0bed169e74037b66a2e1c1a4937c285057773dbb",
        "claimType": 1,
        "amount": "4528050808880748464",
        "rewardEpochId": 2836
      }
    },
    {
      "merkleProof": [
        "0xfa4cf28c92860d4c1d203845f08fac5845725ac322534cfcc3270e1045be9837",
        "0x0a331af6af5003235008a0d1f0dbe3e8d9426fcfd45eb36b11328b31d17ad1a2",
        "0x812326c222c43fada1df124eea71d24d3ec8f30012197f066d83ed2154a3e0ed",
        "0x3500b8a7003db59e29205ff55b1222c4b65b2b84a9597a2b67a889e492ca89bd",
        "0xd347253b5f8fb5da777fcf61ccc22a783927377f526ab244dfee2652c38f8545",
        "0xd4f0337b7cc9aa5444e7316015a2a38080883822cabd60e3be3d6efada39c8cc"
      ],
      "body": {
        "beneficiary": "0xbc9a659af696a4d7375b104db8e5189b54f9d2b3",
        "claimType": 2,
        "amount": "2247114415124974443211",
        "rewardEpochId": 2836
      }
    },
    {
      "merkleProof": [
        "0xb7f1643ac359ddd3e3313ca3f07f43ec332037b942d544be2999d82c0b137330",
        "0x6cce0e3319180bf8d927cf6b42e0e14edc250e7d8b755c3069373d55144012cc",
        "0x1067a11896bfef80cb6cdd4d4f18a4080007224fd82d74656b081bae7aeabcbf",
        "0x4b682108f7e0758dd688b5b674d2a9b1a966c4874e143580ea99b7060965492d",
        "0x68bbcab5e8d382e815785bab23be50605189d95e34308c41349188cf7caf8ebe"
      ],
      "body": {
        "beneficiary": "0x9181f8ed4381ce39dbf4b8336b6295de89527c46",
        "claimType": 1,
        "amount": "1393549418138129332",
        "rewardEpochId": 2836
      }
    },
    {
      "merkleProof": [
        "0xf64c61c0ec1f4e3b86ec5106674b44a5f8d9a7ce80cb47cc77e260a1e441926c",
        "0x0a331af6af5003235008a0d1f0dbe3e8d9426fcfd45eb36b11328b31d17ad1a2",
        "0x812326c222c43fada1df124eea71d24d3ec8f30012197f066d83ed2154a3e0ed",
        "0x3500b8a7003db59e29205ff55b1222c4b65b2b84a9597a2b67a889e492ca89bd",
        "0xd347253b5f8fb5da777fcf61ccc22a783927377f526ab244dfee2652c38f8545",
        "0xd4f0337b7cc9aa5444e7316015a2a38080883822cabd60e3be3d6efada39c8cc"
      ],
      "body": {
        "beneficiary": "0x884cde7b5f2f0a9ee28f90ce1d4aa526373b3e2c",
        "claimType": 2,
        "amount": "694391219511783904773",
        "rewardEpochId": 2836
      }
    },
    {
      "merkleProof": [
        "0x1f34c7fc91e240e991f5b6a53bd999787a0f0b9405804a5e0f36dc7f72a6f3f7",
        "0x0c11cf905767b2c9c4e8773a8df08c49c8b3f266441ee82bb2a45a4dd71b58f1",
        "0x2dd21a46f0b4b5e9ca0bbd50e23f55ccbc39b5258c0d867f9eb82d62194a6769",
        "0x864413e8dfbb9dae44cae8563cdf5910e87ff9c05dd5c836771aae1ccb6375cf",
        "0xd4f0337b7cc9aa5444e7316015a2a38080883822cabd60e3be3d6efada39c8cc"
      ],
      "body": {
        "beneficiary": "0xc6cb03a22213a3e02186a3126d47c7fba20e4ef5",
        "claimType": 1,
        "amount": "728277822439197690352",
        "rewardEpochId": 2836
      }
    },
    {
      "merkleProof": [
        "0xcfe5fb813f0f6d480d68729be45f46f024da91287838278b4e9d7a42da6e2291",
        "0x0988c1e0ed4209186ba7c51f21cfdd253d3af451a232fefea85829f26f0e6a83",
        "0xf81856ed851983843b8fbb98ed9ae9c269eb092c4170de227d3ea0d63b60317a",
        "0x3500b8a7003db59e29205ff55b1222c4b65b2b84a9597a2b67a889e492ca89bd",
        "0xd347253b5f8fb5da777fcf61ccc22a783927377f526ab244dfee2652c38f8545",
        "0xd4f0337b7cc9aa5444e7316015a2a38080883822cabd60e3be3d6efada39c8cc"
      ],
      "body": {
        "beneficiary": "0xabaa1718c2d80fc037bf66e3f66f0975d67431a9",
        "claimType": 2,
        "amount": "2913111289756790761771",
        "rewardEpochId": 2836
      }
    },
    {
      "merkleProof": [
        "0x476a718ba72fe32aa39fc37d2fa23a5cdc667cd843912ec3ffa88c703c9a8258",
        "0xac3f123340e7ae1f93502b5b62405052a9ff5bd35eb3bb25083d017bc9e271d3",
        "0xbe45c2ae1b1b1fc825d88e4a93d5758ab66c6bc9b55ea58dc8f3826265a69dba",
        "0x4876e12436c12403fbcfb489deabfe614bc06831b0915bba35c240b2bca91bce",
        "0x68bbcab5e8d382e815785bab23be50605189d95e34308c41349188cf7caf8ebe"
      ],
      "body": {
        "beneficiary": "0x1d415d28380ff51a507f7b176ca5f27833f7fffd",
        "claimType": 1,
        "amount": "211027216630058596193",
        "rewardEpochId": 2836
      }
    },
    {
      "merkleProof": [
        "0x56c334189a0b581946f2e9d458bf596c08903a0d1a1097978e99f94b2e13986e",
        "0x69fa66aea65120c5adad1348730b4850c6122ee924cb05684aa60d0e5dd378b6",
        "0x52dac1ad43314c8029494416dc7407d0b3a8fa4826ceed86a41308b72777b398",
        "0x4876e12436c12403fbcfb489deabfe614bc06831b0915bba35c240b2bca91bce",
        "0x68bbcab5e8d382e815785bab23be50605189d95e34308c41349188cf7caf8ebe"
      ],
      "body": {
        "beneficiary": "0xb849b93b585effb7ce4b522ff88d9b3b24955f24",
        "claimType": 2,
        "amount": "844108866520234385163",
        "rewardEpochId": 2836
      }
    },
    {
      "merkleProof": [
        "0x4b27e5da8cc371673961092a1f5d210bf32f62c5568eff913bb44aa73d369921",
        "0xac3f123340e7ae1f93502b5b62405052a9ff5bd35eb3bb25083d017bc9e271d3",
        "0xbe45c2ae1b1b1fc825d88e4a93d5758ab66c6bc9b55ea58dc8f3826265a69dba",
        "0x4876e12436c12403fbcfb489deabfe614bc06831b0915bba35c240b2bca91bce",
        "0x68bbcab5e8d382e815785bab23be50605189d95e34308c41349188cf7caf8ebe"
      ],
      "body": {
        "beneficiary": "0x2e46e8d1f3636f7036978d054b0a07e7395053c8",
        "claimType": 1,
        "amount": "667975752254656668419",
        "rewardEpochId": 2836
      }
    },
    {
      "merkleProof": [
        "0xa6f11476fe799e0a99d4a620d2e3ba840028d76ea3a2984dfa87842cb410f4ab",
        "0x812326c222c43fada1df124eea71d24d3ec8f30012197f066d83ed2154a3e0ed",
        "0x3500b8a7003db59e29205ff55b1222c4b65b2b84a9597a2b67a889e492ca89bd",
        "0xd347253b5f8fb5da777fcf61ccc22a783927377f526ab244dfee2652c38f8545",
        "0xd4f0337b7cc9aa5444e7316015a2a38080883822cabd60e3be3d6efada39c8cc"
      ],
      "body": {
        "beneficiary": "0xe80c39eae57c0359ee6c4086e2b22300353728e1",
        "claimType": 2,
        "amount": "2671903009018626674215",
        "rewardEpochId": 2836
      }
    },
    {
      "merkleProof": [
        "0x660fc4277e88856c7bc306f765e31a01f15f00b898ae6f17bc7ee8b465e92481",
        "0x4e5c465ba76559f2bea2d8efb8973e831a7d580554007d3e8370abfba353d18b",
        "0x52dac1ad43314c8029494416dc7407d0b3a8fa4826ceed86a41308b72777b398",
        "0x4876e12436c12403fbcfb489deabfe614bc06831b0915bba35c240b2bca91bce",
        "0x68bbcab5e8d382e815785bab23be50605189d95e34308c41349188cf7caf8ebe"
      ],
      "body": {
        "beneficiary": "0x19b6fde072fd962dd191e5d17121a6733d7e1977",
        "claimType": 1,
        "amount": "1552157988712738948",
        "rewardEpochId": 2836
      }
    },
    {
      "merkleProof": [
        "0xf336303ae14da688e321a9b76c6cf31b792a8db1a8fa8899d91605d52cffdc67",
        "0xd3ffd69cf60acf9ad50fd21ab159d1a8546829e2b4b2f5f2afbfdc2746621a17",
        "0xf81856ed851983843b8fbb98ed9ae9c269eb092c4170de227d3ea0d63b60317a",
        "0x3500b8a7003db59e29205ff55b1222c4b65b2b84a9597a2b67a889e492ca89bd",
        "0xd347253b5f8fb5da777fcf61ccc22a783927377f526ab244dfee2652c38f8545",
        "0xd4f0337b7cc9aa5444e7316015a2a38080883822cabd60e3be3d6efada39c8cc"
      ],
      "body": {
        "beneficiary": "0x9faacf0334c62fcd9b2ead3dde72febce796859d",
        "claimType": 2,
        "amount": "774526836367657295202",
        "rewardEpochId": 2836
      }
    },
    {
      "merkleProof": [
        "0x4138098e338e9c894cd2c4367b039b091caea1dc0b8d05d1d96b8a4bdc0419ee",
        "0xdc17fa68a957f818fe999d32c4673a4c5dbef7ad0e01874058a9684d4ff81e2b",
        "0xab09467e2c5eb7b688f98762ac7587da9222ed545697ce3499988c8d5af2d605",
        "0x864413e8dfbb9dae44cae8563cdf5910e87ff9c05dd5c836771aae1ccb6375cf",
        "0xd4f0337b7cc9aa5444e7316015a2a38080883822cabd60e3be3d6efada39c8cc"
      ],
      "body": {
        "beneficiary": "0xadf3a9a6494b8c1a24f0eec5d44a388afc10df09",
        "claimType": 1,
        "amount": "13513520821210732971",
        "rewardEpochId": 2836
      }
    },
    {
      "merkleProof": [
        "0x6448d86abe23b0b4fbe36814f7bd6dfb4b8027a450983d5cf18baa06a4154189",
        "0x69fa66aea65120c5adad1348730b4850c6122ee924cb05684aa60d0e5dd378b6",
        "0x52dac1ad43314c8029494416dc7407d0b3a8fa4826ceed86a41308b72777b398",
        "0x4876e12436c12403fbcfb489deabfe614bc06831b0915bba35c240b2bca91bce",
        "0x68bbcab5e8d382e815785bab23be50605189d95e34308c41349188cf7caf8ebe"
      ],
      "body": {
        "beneficiary": "0xf75a67d060f28f269d3f7a51fdb2859e7d6a4d78",
        "claimType": 2,
        "amount": "721620833488277920462",
        "rewardEpochId": 2836
      }
    },
    {
      "merkleProof": [
        "0xedd0c59ad005b643e3a0d35f2d15df753daf8f0ca3e0e6cbf32f4d3c88e14484",
        "0xd3ffd69cf60acf9ad50fd21ab159d1a8546829e2b4b2f5f2afbfdc2746621a17",
        "0xf81856ed851983843b8fbb98ed9ae9c269eb092c4170de227d3ea0d63b60317a",
        "0x3500b8a7003db59e29205ff55b1222c4b65b2b84a9597a2b67a889e492ca89bd",
        "0xd347253b5f8fb5da777fcf61ccc22a783927377f526ab244dfee2652c38f8545",
        "0xd4f0337b7cc9aa5444e7316015a2a38080883822cabd60e3be3d6efada39c8cc"
      ],
      "body": {
        "beneficiary": "0x0dd018692f98a7894ecc7ba90cfb8f93a19159d3",
        "claimType": 1,
        "amount": "4119402339577284157",
        "rewardEpochId": 2836
      }
    },
    {
      "merkleProof": [
        "0x946ede2b5b56b5cf636dccfd58dcb530d5bae93516cc9005d78ff09cbf9ee12b",
        "0x7ff121764fed5b16e9241edc7138e36ef63da72f516d66f89492c5b51bdcbc80",
        "0xd0290d5a8fede1d4cab0b3eae14df96794fe6cb0dab5af3075f5eff9d4f093ee",
        "0x4b682108f7e0758dd688b5b674d2a9b1a966c4874e143580ea99b7060965492d",
        "0x68bbcab5e8d382e815785bab23be50605189d95e34308c41349188cf7caf8ebe"
      ],
      "body": {
        "beneficiary": "0x612cff400ee27c91b956c45f4c50e61b55312430",
        "claimType": 2,
        "amount": "16477609358309136978",
        "rewardEpochId": 2836
      }
    },
    {
      "merkleProof": [
        "0x8c46fa420d9514da14f0e2f87c31abe871a366a53e24a665c870c07823a422b1",
        "0x7ff121764fed5b16e9241edc7138e36ef63da72f516d66f89492c5b51bdcbc80",
        "0xd0290d5a8fede1d4cab0b3eae14df96794fe6cb0dab5af3075f5eff9d4f093ee",
        "0x4b682108f7e0758dd688b5b674d2a9b1a966c4874e143580ea99b7060965492d",
        "0x68bbcab5e8d382e815785bab23be50605189d95e34308c41349188cf7caf8ebe"
      ],
      "body": {
        "beneficiary": "0x437d15fad24dc5fe77384c34e24ee0b4c2607d79",
        "claimType": 1,
        "amount": "956407061014257088",
        "rewardEpochId": 2836
      }
    },
    {
      "merkleProof": [
        "0xcb00ae15365a2b5b1c78f92db3976ae400e0f7a386b8f981d23eb2088a4c54e3",
        "0xe5161050ca4676292d85e5ebab8edacf3871370be82deebc74ae86b09aa60513",
        "0x1067a11896bfef80cb6cdd4d4f18a4080007224fd82d74656b081bae7aeabcbf",
        "0x4b682108f7e0758dd688b5b674d2a9b1a966c4874e143580ea99b7060965492d",
        "0x68bbcab5e8d382e815785bab23be50605189d95e34308c41349188cf7caf8ebe"
      ],
      "body": {
        "beneficiary": "0xd88833424225068867309e0ec02999883c14dc77",
        "claimType": 2,
        "amount": "249681232685084032692",
        "rewardEpochId": 2836
      }
    },
    {
      "merkleProof": [
        "0x198ece8e5aed4b12eee0f27cfb55571aa1d3cc88cddd842ae01faedfbb5265b3",
        "0x44451bbf045ae18e6277317272368a295d9e2c1884656ec927121ec3fc33b5e5",
        "0x2dd21a46f0b4b5e9ca0bbd50e23f55ccbc39b5258c0d867f9eb82d62194a6769",
        "0x864413e8dfbb9dae44cae8563cdf5910e87ff9c05dd5c836771aae1ccb6375cf",
        "0xd4f0337b7cc9aa5444e7316015a2a38080883822cabd60e3be3d6efada39c8cc"
      ],
      "body": {
        "beneficiary": "0xa6a088c1036f4fd6f022d52630842e19f90405ed",
        "claimType": 1,
        "amount": "3798324003790636",
        "rewardEpochId": 2836
      }
    },
    {
      "merkleProof": [
        "0x3b9739508e41b1fc17640adc4e022912e2edfe60f9fcaf91ff9ed6d7447f5814",
        "0xdc17fa68a957f818fe999d32c4673a4c5dbef7ad0e01874058a9684d4ff81e2b",
        "0xab09467e2c5eb7b688f98762ac7587da9222ed545697ce3499988c8d5af2d605",
        "0x864413e8dfbb9dae44cae8563cdf5910e87ff9c05dd5c836771aae1ccb6375cf",
        "0xd4f0337b7cc9aa5444e7316015a2a38080883822cabd60e3be3d6efada39c8cc"
      ],
      "body": {
        "beneficiary": "0xddef1deac28e2d91f3d3c682c737cc0ef8489aba",
        "claimType": 2,
        "amount": "15193296015162734",
        "rewardEpochId": 2836
      }
    },
    {
      "merkleProof": [
        "0x440b1502340c5840d2bb98c04a3d49cada2cf33dfdb2cbf6b1dba423b7946b89",
        "0xc481324efe62cc3c617b18fbfe0aadbdcf2bae4d7da003b89204554b6b2e64df",
        "0xbe45c2ae1b1b1fc825d88e4a93d5758ab66c6bc9b55ea58dc8f3826265a69dba",
        "0x4876e12436c12403fbcfb489deabfe614bc06831b0915bba35c240b2bca91bce",
        "0x68bbcab5e8d382e815785bab23be50605189d95e34308c41349188cf7caf8ebe"
      ],
      "body": {
        "beneficiary": "0x25f42def3fcc078de8895cd01de8ab6514020548",
        "claimType": 1,
        "amount": "11063567953167417881",
        "rewardEpochId": 2836
      }
    },
    {
      "merkleProof": [
        "0x310116099abd555eeaa418ab12f766db80f6e20de745f920f9b048fda4373e0e",
        "0x0c11cf905767b2c9c4e8773a8df08c49c8b3f266441ee82bb2a45a4dd71b58f1",
        "0x2dd21a46f0b4b5e9ca0bbd50e23f55ccbc39b5258c0d867f9eb82d62194a6769",
        "0x864413e8dfbb9dae44cae8563cdf5910e87ff9c05dd5c836771aae1ccb6375cf",
        "0xd4f0337b7cc9aa5444e7316015a2a38080883822cabd60e3be3d6efada39c8cc"
      ],
      "body": {
        "beneficiary": "0x256194ca4884dbe2933862f0e9f7e0e4d411eb35",
        "claimType": 2,
        "amount": "44254271812669671746",
        "rewardEpochId": 2836
      }
    },
    {
      "merkleProof": [
        "0x807b32259531734b7d1656f5913a7489f5184e8ee365d9ac68585d37380bb9c1",
        "0x8dc3d6075922f0c9a563dc4234d7f626ccdd43fcda383bca4f4d376e0273cc04",
        "0xd0290d5a8fede1d4cab0b3eae14df96794fe6cb0dab5af3075f5eff9d4f093ee",
        "0x4b682108f7e0758dd688b5b674d2a9b1a966c4874e143580ea99b7060965492d",
        "0x68bbcab5e8d382e815785bab23be50605189d95e34308c41349188cf7caf8ebe"
      ],
      "body": {
        "beneficiary": "0x3134c526171f16e14ac0dfbe56d10ef09273817f",
        "claimType": 1,
        "amount": "11425796082554494692",
        "rewardEpochId": 2836
      }
    },
    {
      "merkleProof": [
        "0xa78f5dc01a1fb97c9e9d700fcaed3b73a90753d2fda0d29b02cef0f369f08daa",
        "0x6cce0e3319180bf8d927cf6b42e0e14edc250e7d8b755c3069373d55144012cc",
        "0x1067a11896bfef80cb6cdd4d4f18a4080007224fd82d74656b081bae7aeabcbf",
        "0x4b682108f7e0758dd688b5b674d2a9b1a966c4874e143580ea99b7060965492d",
        "0x68bbcab5e8d382e815785bab23be50605189d95e34308c41349188cf7caf8ebe"
      ],
      "body": {
        "beneficiary": "0xaf47c84608043ba7d58122e5c3a46adf67371df3",
        "claimType": 2,
        "amount": "45703184330217979288",
        "rewardEpochId": 2836
      }
    },
    {
      "merkleProof": [
        "0x0da122de44a344f19aec126276c59d58492cd8c7d02779e0f0fbbdf36df8eb22",
        "0x3083dc1202e9929cf2545e216d3adf3aa7711bba6101eac04006b29f8f457186",
        "0x7563a5f1333d4233841adab8dda6582da8709453ad1303c0858dac514ae56912",
        "0xd347253b5f8fb5da777fcf61ccc22a783927377f526ab244dfee2652c38f8545",
        "0xd4f0337b7cc9aa5444e7316015a2a38080883822cabd60e3be3d6efada39c8cc"
      ],
      "body": {
        "beneficiary": "0xca84d6086c5b32212a0cf1638803355d7be31482",
        "claimType": 1,
        "amount": "466282969780779839325",
        "rewardEpochId": 2836
      }
    },
    {
      "merkleProof": [
        "0x0ede65b036bddde56edf9a2545bd965babab0d61f68473ec67674fe5f24409ba",
        "0x3083dc1202e9929cf2545e216d3adf3aa7711bba6101eac04006b29f8f457186",
        "0x7563a5f1333d4233841adab8dda6582da8709453ad1303c0858dac514ae56912",
        "0xd347253b5f8fb5da777fcf61ccc22a783927377f526ab244dfee2652c38f8545",
        "0xd4f0337b7cc9aa5444e7316015a2a38080883822cabd60e3be3d6efada39c8cc"
      ],
      "body": {
        "beneficiary": "0x55fcf7806f556204141fe90fbe9ce6207d9c52ac",
        "claimType": 2,
        "amount": "1865131879123119357877",
        "rewardEpochId": 2836
      }
    },
    {
      "merkleProof": [
        "0x80718363106e52e9be6fb3d039c63104d003e185a08a5117d8348b3435ba6389",
        "0x8dc3d6075922f0c9a563dc4234d7f626ccdd43fcda383bca4f4d376e0273cc04",
        "0xd0290d5a8fede1d4cab0b3eae14df96794fe6cb0dab5af3075f5eff9d4f093ee",
        "0x4b682108f7e0758dd688b5b674d2a9b1a966c4874e143580ea99b7060965492d",
        "0x68bbcab5e8d382e815785bab23be50605189d95e34308c41349188cf7caf8ebe"
      ],
      "body": {
        "beneficiary": "0xf206f9b8bda82301c19a67b3d272f060bbe51e02",
        "claimType": 1,
        "amount": "12740867046917523",
        "rewardEpochId": 2836
      }
    },
    {
      "merkleProof": [
        "0x366517716ffe5b6285548dd0d6659ef872e4a67febd1efebf2aafddd37f1a546",
        "0x66da5fd230d00a5a219b7a61c90d70d6d8cced8602e793f9eb268ce51b00d5ba",
        "0xab09467e2c5eb7b688f98762ac7587da9222ed545697ce3499988c8d5af2d605",
        "0x864413e8dfbb9dae44cae8563cdf5910e87ff9c05dd5c836771aae1ccb6375cf",
        "0xd4f0337b7cc9aa5444e7316015a2a38080883822cabd60e3be3d6efada39c8cc"
      ],
      "body": {
        "beneficiary": "0x11cef138b1ee96a481dc040842433bfc5229ad70",
        "claimType": 2,
        "amount": "50963468187670286",
        "rewardEpochId": 2836
      }
    },
    {
      "merkleProof": [
        "0x1b548d6951f3d32d686be1b6a0e28df241e67480179f7ecb7f8917ff000a93c8",
        "0x44451bbf045ae18e6277317272368a295d9e2c1884656ec927121ec3fc33b5e5",
        "0x2dd21a46f0b4b5e9ca0bbd50e23f55ccbc39b5258c0d867f9eb82d62194a6769",
        "0x864413e8dfbb9dae44cae8563cdf5910e87ff9c05dd5c836771aae1ccb6375cf",
        "0xd4f0337b7cc9aa5444e7316015a2a38080883822cabd60e3be3d6efada39c8cc"
      ],
      "body": {
        "beneficiary": "0xa17d0877c137a415f91054c5d988489eb6eb28e4",
        "claimType": 1,
        "amount": "82998485060004543",
        "rewardEpochId": 2836
      }
    },
    {
      "merkleProof": [
        "0x15c691692bc801c92374942075a82c01b3a4625721b8704bd6fea101f025ee61",
        "0x9adf33e437dda0654236f9ccba06d764f59a0c5af9ddc1c168bd60a8fdaba898",
        "0x7563a5f1333d4233841adab8dda6582da8709453ad1303c0858dac514ae56912",
        "0xd347253b5f8fb5da777fcf61ccc22a783927377f526ab244dfee2652c38f8545",
        "0xd4f0337b7cc9aa5444e7316015a2a38080883822cabd60e3be3d6efada39c8cc"
      ],
      "body": {
        "beneficiary": "0x3a80da2731efa274f9fce54e42c3e1e1a162e3cc",
        "claimType": 2,
        "amount": "331993940240018182",
        "rewardEpochId": 2836
      }
    },
    {
      "merkleProof": [
        "0x10020e6fbeda6e1d206277205bfe717ec3ae3449397ba651160618399f994c83",
        "0x9adf33e437dda0654236f9ccba06d764f59a0c5af9ddc1c168bd60a8fdaba898",
        "0x7563a5f1333d4233841adab8dda6582da8709453ad1303c0858dac514ae56912",
        "0xd347253b5f8fb5da777fcf61ccc22a783927377f526ab244dfee2652c38f8545",
        "0xd4f0337b7cc9aa5444e7316015a2a38080883822cabd60e3be3d6efada39c8cc"
      ],
      "body": {
        "beneficiary": "0x0f4edd405e2550f88903c3f5614a1067f1d9d84c",
        "claimType": 1,
        "amount": "34834910449127",
        "rewardEpochId": 2836
      }
    },
    {
      "merkleProof": [
        "0x3552f01641370be7d26547f8f70c22b75f7eaa5931a4a813bb0f299d28b860ff",
        "0x66da5fd230d00a5a219b7a61c90d70d6d8cced8602e793f9eb268ce51b00d5ba",
        "0xab09467e2c5eb7b688f98762ac7587da9222ed545697ce3499988c8d5af2d605",
        "0x864413e8dfbb9dae44cae8563cdf5910e87ff9c05dd5c836771aae1ccb6375cf",
        "0xd4f0337b7cc9aa5444e7316015a2a38080883822cabd60e3be3d6efada39c8cc"
      ],
      "body": {
        "beneficiary": "0x67daef0258d83fe9513feaee28a8bbac7e8a031f",
        "claimType": 2,
        "amount": "139339641796511",
        "rewardEpochId": 2836
      }
    }
  ],
  "noOfWeightBasedClaims": 17,
  "merkleRoot": "0xe1dd482d02836c19328a27115450e126a6ca6fd6ec4dd8b3990399d0d15ebe81",
  "abi": {
    "components": [
      {
        "internalType": "uint24",
        "name": "rewardEpochId",
        "type": "uint24"
      },
      {
        "internalType": "bytes20",
        "name": "beneficiary",
        "type": "bytes20"
      },
      {
        "internalType": "uint120",
        "name": "amount",
        "type": "uint120"
      },
      {
        "internalType": "enum IRewardManager.ClaimType",
        "name": "claimType",
        "type": "uint8"
      }
    ],
    "internalType": "struct IRewardManager.RewardClaim",
    "name": "_claim",
    "type": "tuple"
  }
}