{
  "rewardEpochId": 2858,
  "rewardClaims": [
    [
      [
        "0xc3f947fb91fc5053d7e56cfdad8772d8f37d52268dbf263fe9f86e1f74fe25ec",
        "0x98e8212fb2dbc7bf48775c73d66aab5413c15b58d1463ac3294271c2cf494e55",
        "0xc649f79156c1d13810268255bf7733c9f98d2328ca8040243fd3e8cbac671bba",
        "0x0534272760e27bdc15ea059230f1b23f049437c38e1fc6805732407c9c4eb6c9",
        "0x9c2879a760a18fdec5af5cbbfd5bee59de972354e629a0dda93e5b6d2d56e9f4"
      ],
      [
        2858,
        "0x000000000000000000000000000000000000dead",
        "15759745548670524623142",
        0
      ]
    ],
    [
      [
        "0x5dfd948c0b82b82e61a4bb5f4d336cd3e17e358c877d8021b31b3138ac3120d3",
        "0x4af370410d496cd9bfe4281ed3c6536f4c490bc3ac6625cb430739af7a163e13",
        "0xe927e64e9ede5f01b1bb4d4b94607de64a221d621866b443ace5e3a13fb5ffe2",
        "0x3810a9a923f744ec486c6bbfb26a8f4f5784bd3a2b6775bd038253ed7d181810",
        "0x9c2879a760a18fdec5af5cbbfd5bee59de972354e629a0dda93e5b6d2d56e9f4"
      ],
      [
        2858,
        "0xadf3a9a6494b8c1a24f0eec5d44a388afc10df09",
        "1543580319052530128",
        1
      ]
    ],
    [
      [
        "0x5dc6fb3c26f7da87e63dd8e6a8cac8672920c7c53f2ebc327339760c7dde6d28",
        "0x34f7d29982369b32a714fcdf658534d61bf655c3a1b9ce265b870769108a4472",
        "0xe927e64e9ede5f01b1bb4d4b94607de64a221d621866b443ace5e3a13fb5ffe2",
        "0x3810a9a923f744ec486c6bbfb26a8f4f5784bd3a2b6775bd038253ed7d181810",
        "0x9c2879a760a18fdec5af5cbbfd5bee59de972354e629a0dda93e5b6d2d56e9f4"
      ],
      [
        2858,
        "0xf75a67d060f28f269d3f7a51fdb2859e7d6a4d78",
        "766392221332096406153",
        2
      ]
    ],
    [
      [
        "0xd238f5eacbd9f516850d204be85f1cf4fafac3e3965b8096a60c540125a9e2a9",
        "0xad1e354c56603bdaf9d188ec9bbdd09f9086d251698e1ca11813941435b5e4f8",
        "0xddfff27c321d6cf91eb6c2c838b7130e8e6f128f445f64b1eeecb0066ab3a0bf",
        "0xb0b57e004246fc3911090220faa9d410f28fcd49eab901dca41a5a4cfa57692a",
        "0x7358789bc9f8571190de45e812489d4eae5608f627e760b1d7810f5f64975b90",
        "0x5099528c17ca9f55f6baa4a97ec956539bd29338d39447b5f5f11df446f9c532"
      ],
      [
        2858,
        "0x19b6fde072fd962dd191e5d17121a6733d7e1977",
        "2146110885677946381",
        1
      ]
    ],
    [
      [
        "0x70a36011508addb65f92f5dd708f9ae9b74f54120e4a9c53186a9a606d71a59e",
        "0xc8dab748a4ee9260ab61e3f5c6fd59c3b7234764fd3e2ab0128ee28027349d61",
        "0x701829f09a4e156884d3f90265ecf272b11ec13c95d7adf98c62242aa59490fb",
        "0x3810a9a923f744ec486c6bbfb26a8f4f5784bd3a2b6775bd038253ed7d181810",
        "0x9c2879a760a18fdec5af5cbbfd5bee59de972354e629a0dda93e5b6d2d56e9f4"
      ],
      [
        2858,
        "0x9faacf0334c62fcd9b2ead3dde72febce796859d",
        "1070909331953304303156",
        2
      ]
    ],
    [
      [
        "0x1e68cf344d84294827c4fd4424a1b266c402962d9e626b12ba9343db9109adff",
        "0xdef2196e53b40b2b9bedb0eced8e5c7e47f23fc9dbf530ed9a5c2cd4affed55f",
        "0xefe5df21abb0dcc75b23d0acb876cbe5eb85964998aa865e3146065a183af317",
        "0xf27f43a6844876e71622377ca369a833a601dfb3593d19c792f0ff433cd070ac",
        "0x5099528c17ca9f55f6baa4a97ec956539bd29338d39447b5f5f11df446f9c532"
      ],
      [
        2858,
        "0x9181f8ed4381ce39dbf4b8336b6295de89527c46",
        "1539464317664934259",
        1
      ]
    ],
    [
      [
        "0x7434bb882f95afe67831740cec0e6013cc97d1704c326ee4f5f067da47fc984f",
        "0xc8dab748a4ee9260ab61e3f5c6fd59c3b7234764fd3e2ab0128ee28027349d61",
        "0x701829f09a4e156884d3f90265ecf272b11ec13c95d7adf98c62242aa59490fb",
        "0x3810a9a923f744ec486c6bbfb26a8f4f5784bd3a2b6775bd038253ed7d181810",
        "0x9c2879a760a18fdec5af5cbbfd5bee59de972354e629a0dda93e5b6d2d56e9f4"
      ],
      [
        2858,
        "0x884cde7b5f2f0a9ee28f90ce1d4aa526373b3e2c",
        "767456728877201274860",
        2
      ]
    ],
    [
      [
        "0x3bbb8c73b0150569420a434d4cfb5035a0a9e9b7cda527620ea6c0bf2099fcde",
        "0x56ae8fd86065db42463a4d0b2b903a14e3aeadf4e1da72128738969e5d95a5cc",
        "0x18d23d72ddfc215cc06dad3a4aa97d67a5415bfce036c22099ee0fcb7c8e061c",
        "0xf27f43a6844876e71622377ca369a833a601dfb3593d19c792f0ff433cd070ac",
        "0x5099528c17ca9f55f6baa4a97ec956539bd29338d39447b5f5f11df446f9c532"
      ],
      [
        2858,
        "0x526e10f59b79d4e434d367f30a5cf6aa49641642",
        "1385741080474975262",
        1
      ]
    ],
    [
      [
        "0xf13e746268978b4782abc805425b98a607ad8c3e70666dee46cffe0fb16d8dcb",
        "0x0b279d25a31ca137497900d4dc655b2eec776d8fe87ef74aa876a8067e1d1cbb",
        "0x397cde62ed90975e82c6442aaf9d1359ecbba27b51c42cb01c05d8eff6e10567",
        "0xb0b57e004246fc3911090220faa9d410f28fcd49eab901dca41a5a4cfa57692a",
        "0x7358789bc9f8571190de45e812489d4eae5608f627e760b1d7810f5f64975b90",
        "0x5099528c17ca9f55f6baa4a97ec956539bd29338d39447b5f5f11df446f9c532"
      ],
      [
        2858,
        "0x07acc8fe6affb0bd54ec19acb6d27c2f87ae8f63",
        "691335335446755282820",
        2
      ]
    ],
    [
      [
        "0xf8ff49f344f821544bcac2ff95f9cffecdf325b2fbeecc5228572b1f2418ac0e",
        "0x0386653aca86dd26e34ca60082b6a35ebbd86ac6b468173957f32cfeb97f6392",
        "0x03dc4eeb5bf055036152e7e31c629a676ab6993525318ea2ddb095da9a1ec0eb",
        "0x67083d7ab4e2196464a5565da2c3efe58c4924660af7174a5d88ceec0d9b8e08",
        "0x7358789bc9f8571190de45e812489d4eae5608f627e760b1d7810f5f64975b90",
        "0x5099528c17ca9f55f6baa4a97ec956539bd29338d39447b5f5f11df446f9c532"
      ],
      [
        2858,
        "0x0bed169e74037b66a2e1c1a4937c285057773dbb",
        "4327784214054361026",
        1
      ]
    ],
    [
      [
        "0x7e59d17c72ab476ae8c3ff17fcbfe3be518829ceda9351730efd40ab41eb5d38",
        "0x2c207f268bfb29688f72745ab1af015664dd48e42d07c3cc747cf78477809741",
        "0xe99de74ae4509206a3b4e37bf1f228a7e4efe19d4821eb4afe86db34c8e208ea",
        "0x0534272760e27bdc15ea059230f1b23f049437c38e1fc6805732407c9c4eb6c9",
        "0x9c2879a760a18fdec5af5cbbfd5bee59de972354e629a0dda93e5b6d2d56e9f4"
      ],
      [
        2858,
        "0xbc9a659af696a4d7375b104db8e5189b54f9d2b3",
        "2148937039515530663109",
        2
      ]
    ],
    [
      [
        "0xd79a97e1a87e4c4a9e8e931d229aa3deb00ef0db059f9dbb1d7a45b7fb7c179e",
        "0x63c93cfde958ea36b75a66ca3a6542375818124f6a85729dddd61a1ab5214080",
        "0x397cde62ed90975e82c6442aaf9d1359ecbba27b51c42cb01c05d8eff6e10567",
        "0xb0b57e004246fc3911090220faa9d410f28fcd49eab901dca41a5a4cfa57692a",
        "0x7358789bc9f8571190de45e812489d4eae5608f627e760b1d7810f5f64975b90",
        "0x5099528c17ca9f55f6baa4a97ec956539bd29338d39447b5f5f11df446f9c532"
      ],
      [
        2858,
        "0xca84d6086c5b32212a0cf1638803355d7be31482",
        "387939001572494912427",
        1
      ]
    ],
    [
      [
        "0x66f5a78f38a4d8cf76fad405af39b854f5906f39cb78ed4a0d8d4deef44d4fc7",
        "0x03dc4eeb5bf055036152e7e31c629a676ab6993525318ea2ddb095da9a1ec0eb",
        "0x67083d7ab4e2196464a5565da2c3efe58c4924660af7174a5d88ceec0d9b8e08",
        "0x7358789bc9f8571190de45e812489d4eae5608f627e760b1d7810f5f64975b90",
        "0x5099528c17ca9f55f6baa4a97ec956539bd29338d39447b5f5f11df446f9c532"
      ],
      [
        2858,
        "0x55fcf7806f556204141fe90fbe9ce6207d9c52ac",
        "1551756006289979649918",
        2
      ]
    ],
    [
      [
        "0xc69768c7d790879cfa9faa8f5dff19ccfa27e3470c6a5d641d957b5a12dc1813",
        "0xda2cbd383fb9e8ba2ae5b74165407ee58cab622529bf3c8a1f82b0234014a6a4",
        "0xddfff27c321d6cf91eb6c2c838b7130e8e6f128f445f64b1eeecb0066ab3a0bf",
        "0xb0b57e004246fc3911090220faa9d410f28fcd49eab901dca41a5a4cfa57692a",
        "0x7358789bc9f8571190de45e812489d4eae5608f627e760b1d7810f5f64975b90",
        "0x5099528c17ca9f55f6baa4a97ec956539bd29338d39447b5f5f11df446f9c532"
      ],
      [
        2858,
        "0xf0b444bdc5522e908ff903e3f1730b5ab60b610a",
        "572362662651551528759",
        1
      ]
    ],
    [
      [
        "0x2989cdb21c99233465e5e189c6ad3e3013c46a343c176a246096965b1a7c8cb5",
        "0xdef2196e53b40b2b9bedb0eced8e5c7e47f23fc9dbf530ed9a5c2cd4affed55f",
        "0xefe5df21abb0dcc75b23d0acb876cbe5eb85964998aa865e3146065a183af317",
        "0xf27f43a6844876e71622377ca369a833a601dfb3593d19c792f0ff433cd070ac",
        "0x5099528c17ca9f55f6baa4a97ec956539bd29338d39447b5f5f11df446f9c532"
      ],
      [
        2858,
        "0x07f5053c867ae107db15a38aa4421b2c24ac4e51",
        "2289450650606206115372",
        2
      ]
    ],
    [
      [
        "0x05c983c6ad099469c7e29f9a595bb45b6ba2745f331d2376435809c3e35225d9",
        "0xc535dd907c74291d25b05834a2b3163b5e9c47891a9bd3cf123a00843d9479e2",
        "0x67083d7ab4e2196464a5565da2c3efe58c4924660af7174a5d88ceec0d9b8e08",
        "0x7358789bc9f8571190de45e812489d4eae5608f627e760b1d7810f5f64975b90",
        "0x5099528c17ca9f55f6baa4a97ec956539bd29338d39447b5f5f11df446f9c532"
      ],
      [
        2858,
        "0x0f4edd405e2550f88903c3f5614a1067f1d9d84c",
        "732602272719681173",
        1
      ]
    ],
    [
      [
        "0x6626907b9ab15d7686beebfa0a0960e20790f1eee0383467c1e98d72bca5cdd2",
        "0x4af370410d496cd9bfe4281ed3c6536f4c490bc3ac6625cb430739af7a163e13",
        "0xe927e64e9ede5f01b1bb4d4b94607de64a221d621866b443ace5e3a13fb5ffe2",
        "0x3810a9a923f744ec486c6bbfb26a8f4f5784bd3a2b6775bd038253ed7d181810",
        "0x9c2879a760a18fdec5af5cbbfd5bee59de972354e629a0dda93e5b6d2d56e9f4"
      ],
      [
        2858,
        "0x67daef0258d83fe9513feaee28a8bbac7e8a031f",
        "365463732283344864686",
        2
      ]
    ],
    [
      [
        "0x56e49448fa9ac14553a7f1a8c2b5ce4a1f1024f807b23fbd343c9c74283c8f56",
        "0x34f7d29982369b32a714fcdf658534d61bf655c3a1b9ce265b870769108a4472",
        "0xe927e64e9ede5f01b1bb4d4b94607de64a221d621866b443ace5e3a13fb5ffe2",
        "0x3810a9a923f744ec486c6bbfb26a8f4f5784bd3a2b6775bd038253ed7d181810",
        "0x9c2879a760a18fdec5af5cbbfd5bee59de972354e629a0dda93e5b6d2d56e9f4"
      ],
      [
        2858,
        "0xc6cb03a22213a3e02186a3126d47c7fba20e4ef5",
        "770212830199121271821",
        1
      ]
    ],
    [
      [
        "0x07fdc259677f2566a570d4110bb62abdc81b79019ec6cb93aa7a2cf5fe9d9bb6",
        "0xc535dd907c74291d25b05834a2b3163b5e9c47891a9bd3cf123a00843d9479e2",
        "0x67083d7ab4e2196464a5565da2c3efe58c4924660af7174a5d88ceec0d9b8e08",
        "0x7358789bc9f8571190de45e812489d4eae5608f627e760b1d7810f5f64975b90",
        "0x5099528c17ca9f55f6baa4a97ec956539bd29338d39447b5f5f11df446f9c532"
      ],
      [
        2858,
        "0xabaa1718c2d80fc037bf66e3f66f0975d67431a9",
        "3080851320796485087702",
        2
      ]
    ],
    [
      [
        "0xc0fe5b4994161b6f754fd4963de7188637b1c6c43e6f6167f1447f8d86ee947c",
        "0x98e8212fb2dbc7bf48775c73d66aab5413c15b58d1463ac3294271c2cf494e55",
        "0xc649f79156c1d13810268255bf7733c9f98d2328ca8040243fd3e8cbac671bba",
        "0x0534272760e27bdc15ea059230f1b23f049437c38e1fc6805732407c9c4eb6c9",
        "0x9c2879a760a18fdec5af5cbbfd5bee59de972354e629a0dda93e5b6d2d56e9f4"
      ],
      [
        2858,
        "0xf206f9b8bda82301c19a67b3d272f060bbe51e02",
        "7504759162872495",
        1
      ]
    ],
    [
      [
        "0x6ea954f8c7dd4d432e3c2d97371a9f9a228b6c40400148cea24d4f052fe84503",
        "0x8fde958b89a46c723e7378796de6d6b7dcc2d9d5285329cfc63814a5ea3d4f2b",
        "0x701829f09a4e156884d3f90265ecf272b11ec13c95d7adf98c62242aa59490fb",
        "0x3810a9a923f744ec486c6bbfb26a8f4f5784bd3a2b6775bd038253ed7d181810",
        "0x9c2879a760a18fdec5af5cbbfd5bee59de972354e629a0dda93e5b6d2d56e9f4"
      ],
      [
        2858,
        "0x11cef138b1ee96a481dc040842433bfc5229ad70",
        "30019036651490110",
        2
      ]
    ],
    [
      [
        "0x177b45cb993a065f56859ce00aca9a17c30218dc9dfb5a16413a0363d26c70f7",
        "0x2b61537ebee8fa408697cac46996a02403b715da6d9f0c01b4bab806b4772917",
        "0xefe5df21abb0dcc75b23d0acb876cbe5eb85964998aa865e3146065a183af317",
        "0xf27f43a6844876e71622377ca369a833a601dfb3593d19c792f0ff433cd070ac",
        "0x5099528c17ca9f55f6baa4a97ec956539bd29338d39447b5f5f11df446f9c532"
      ],
      [
        2858,
        "0x1d415d28380ff51a507f7b176ca5f27833f7fffd",
        "208423402442891673959",
        1
      ]
    ],
    [
      [
        "0xbc5447046ed59cbad7e8ac9522d4fc9d85a43c901cc8af4b072a1b71177a9c89",
        "0x0ac7e5041ea185baf7c2d8c0729cfba94783b586412dc8bbb746c84eedbf5b43",
        "0xc649f79156c1d13810268255bf7733c9f98d2328ca8040243fd3e8cbac671bba",
        "0x0534272760e27bdc15ea059230f1b23f049437c38e1fc6805732407c9c4eb6c9",
        "0x9c2879a760a18fdec5af5cbbfd5bee59de972354e629a0dda93e5b6d2d56e9f4"
      ],
      [
        2858,
        "0xb849b93b585effb7ce4b522ff88d9b3b24955f24",
        "833693609771566696208",
        2
      ]
    ],
    [
      [
        "0xa08582c5ef2b71820c651d26549f4d344ed5adc8aa4458d103fe9c277e318787",
        "0x1a6c34aa9362c808f377496ced7eb26661cd4dcddc7af5a9845fded898641f6d",
        "0xe99de74ae4509206a3b4e37bf1f228a7e4efe19d4821eb4afe86db34c8e208ea",
        "0x0534272760e27bdc15ea059230f1b23f049437c38e1fc6805732407c9c4eb6c9",
        "0x9c2879a760a18fdec5af5cbbfd5bee59de972354e629a0dda93e5b6d2d56e9f4"
      ],
      [
        2858,
        "0x2e46e8d1f3636f7036978d054b0a07e7395053c8",
        "590365385447867201764",
        1
      ]
    ],
    [
      [
        "0x8f32c0d9bac6a7c77a555cb5c40072ec1058d1fd2692be686629ed19ab6f30ec",
        "0x2c207f268bfb29688f72745ab1af015664dd48e42d07c3cc747cf78477809741",
        "0xe99de74ae4509206a3b4e37bf1f228a7e4efe19d4821eb4afe86db34c8e208ea",
        "0x0534272760e27bdc15ea059230f1b23f049437c38e1fc6805732407c9c4eb6c9",
        "0x9c2879a760a18fdec5af5cbbfd5bee59de972354e629a0dda93e5b6d2d56e9f4"
      ],
      [
        2858,
        "0xe80c39eae57c0359ee6c4086e2b22300353728e1",
        "2361461541791468807338",
        2
      ]
    ],
    [
      [
        "0xf14a2409e372ef67240140ce2d151180c2476ba3ab7a797d181c7e7a3047b3e5",
        "0x0386653aca86dd26e34ca60082b6a35ebbd86ac6b468173957f32cfeb97f6392",
        "0x03dc4eeb5bf055036152e7e31c629a676ab6993525318ea2ddb095da9a1ec0eb",
        "0x67083d7ab4e2196464a5565da2c3efe58c4924660af7174a5d88ceec0d9b8e08",
        "0x7358789bc9f8571190de45e812489d4eae5608f627e760b1d7810f5f64975b90",
        "0x5099528c17ca9f55f6baa4a97ec956539bd29338d39447b5f5f11df446f9c532"
      ],
      [
        2858,
        "0x25f42def3fcc078de8895cd01de8ab6514020548",
        "568350241355005650",
        1
      ]
    ],
    [
      [
        "0xb46a34b3656c0f2cf2515d8d3ab9b5c0af5b31dbaa621fc14c65c3e3e041cab2",
        "0x0ac7e5041ea185baf7c2d8c0729cfba94783b586412dc8bbb746c84eedbf5b43",
        "0xc649f79156c1d13810268255bf7733c9f98d2328ca8040243fd3e8cbac671bba",
        "0x0534272760e27bdc15ea059230f1b23f049437c38e1fc6805732407c9c4eb6c9",
        "0x9c2879a760a18fdec5af5cbbfd5bee59de972354e629a0dda93e5b6d2d56e9f4"
      ],
      [
        2858,
        "0x256194ca4884dbe2933862f0e9f7e0e4d411eb35",
        "256834674735850978042",
        2
      ]
    ],
    [
      [
        "0x090b40e204583d77e496e0a0aae80ad54ce40c7e41b1e0eafa97e1b6f81e26b3",
        "0x2b61537ebee8fa408697cac46996a02403b715da6d9f0c01b4bab806b4772917",
        "0xefe5df21abb0dcc75b23d0acb876cbe5eb85964998aa865e3146065a183af317",
        "0xf27f43a6844876e71622377ca369a833a601dfb3593d19c792f0ff433cd070ac",
        "0x5099528c17ca9f55f6baa4a97ec956539bd29338d39447b5f5f11df446f9c532"
      ],
      [
        2858,
        "0x437d15fad24dc5fe77384c34e24ee0b4c2607d79",
        "720883205244233672",
        1
      ]
    ],
    [
      [
        "0xf0880509f58f8d150a0fd5049d93d1e01767fd250741dee37494bb2bbac425c1",
        "0x0b279d25a31ca137497900d4dc655b2eec776d8fe87ef74aa876a8067e1d1cbb",
        "0x397cde62ed90975e82c6442aaf9d1359ecbba27b51c42cb01c05d8eff6e10567",
        "0xb0b57e004246fc3911090220faa9d410f28fcd49eab901dca41a5a4cfa57692a",
        "0x7358789bc9f8571190de45e812489d4eae5608f627e760b1d7810f5f64975b90",
        "0x5099528c17ca9f55f6baa4a97ec956539bd29338d39447b5f5f11df446f9c532"
      ],
      [
        2858,
        "0xd88833424225068867309e0ec02999883c14dc77",
        "359545531700745995922",
        2
      ]
    ],
    [
      [
        "0xa2d492b0ef4641f4579277b7dd87efbf5ba8c9f5ad55cd7cea77a49f5e312023",
        "0x1a6c34aa9362c808f377496ced7eb26661cd4dcddc7af5a9845fded898641f6d",
        "0xe99de74ae4509206a3b4e37bf1f228a7e4efe19d4821eb4afe86db34c8e208ea",
        "0x0534272760e27bdc15ea059230f1b23f049437c38e1fc6805732407c9c4eb6c9",
        "0x9c2879a760a18fdec5af5cbbfd5bee59de972354e629a0dda93e5b6d2d56e9f4"
      ],
      [
        2858,
        "0x3134c526171f16e14ac0dfbe56d10ef09273817f",
        "22844305475047614870",
        1
      ]
    ],
    [
      [
        "0xd8d34cc5acb019a022bb41fb3bf8923ec832a9ce197084c4d360e4f1a485ffa6",
        "0x63c93cfde958ea36b75a66ca3a6542375818124f6a85729dddd61a1ab5214080",
        "0x397cde62ed90975e82c6442aaf9d1359ecbba27b51c42cb01c05d8eff6e10567",
        "0xb0b57e004246fc3911090220faa9d410f28fcd49eab901dca41a5a4cfa57692a",
        "0x7358789bc9f8571190de45e812489d4eae5608f627e760b1d7810f5f64975b90",
        "0x5099528c17ca9f55f6baa4a97ec956539bd29338d39447b5f5f11df446f9c532"
      ],
      [
        2858,
        "0xaf47c84608043ba7d58122e5c3a46adf67371df3",
        "91377221900190459704",
        2
      ]
    ],
    [
      [
        "0x47c601ce158c1ff2e718f88b608d100f2646cbf4c5d5f7bb6414fac7826c2ac9",
        "0xff0a46e3a9df79ff1237383ed01ebebabb15fcc111c3d3b2c108570ee730cb86",
        "0x18d23d72ddfc215cc06dad3a4aa97d67a5415bfce036c22099ee0fcb7c8e061c",
        "0xf27f43a6844876e71622377ca369a833a601dfb3593d19c792f0ff433cd070ac",
        "0x5099528c17ca9f55f6baa4a97ec956539bd29338d39447b5f5f11df446f9c532"
      ],
      [
        2858,
        "0x0dd018692f98a7894ecc7ba90cfb8f93a19159d3",
        "21501127064788430",
        1
      ]
    ],
    [
      [
        "0x3427d042ced48e513128fde9d4931744bc47d74a9c5a72d881adae0919d95aa5",
        "0x56ae8fd86065db42463a4d0b2b903a14e3aeadf4e1da72128738969e5d95a5cc",
        "0x18d23d72ddfc215cc06dad3a4aa97d67a5415bfce036c22099ee0fcb7c8e061c",
        "0xf27f43a6844876e71622377ca369a833a601dfb3593d19c792f0ff433cd070ac",
        "0x5099528c17ca9f55f6baa4a97ec956539bd29338d39447b5f5f11df446f9c532"
      ],
      [
        2858,
        "0x612cff400ee27c91b956c45f4c50e61b55312430",
        "86004508259153830",
        2
      ]
    ],
    [
      [
        "0xd1ed4441ee120a9dcb274e6b754843738d6f72f916661238f6064997e2e54e3b",
        "0xda2cbd383fb9e8ba2ae5b74165407ee58cab622529bf3c8a1f82b0234014a6a4",
        "0xddfff27c321d6cf91eb6c2c838b7130e8e6f128f445f64b1eeecb0066ab3a0bf",
        "0xb0b57e004246fc3911090220faa9d410f28fcd49eab901dca41a5a4cfa57692a",
        "0x7358789bc9f8571190de45e812489d4eae5608f627e760b1d7810f5f64975b90",
        "0x5099528c17ca9f55f6baa4a97ec956539bd29338d39447b5f5f11df446f9c532"
      ],
      [
        2858,
        "0xa6a088c1036f4fd6f022d52630842e19f90405ed",
        "1034144792050457",
        1
      ]
    ],
    [
      [
        "0x6804952aad6891a874a4c0cfafa15bc448033e04501eceb61637aa76b8975ff3",
        "0x8fde958b89a46c723e7378796de6d6b7dcc2d9d5285329cfc63814a5ea3d4f2b",
        "0x701829f09a4e156884d3f90265ecf272b11ec13c95d7adf98c62242aa59490fb",
        "0x3810a9a923f744ec486c6bbfb26a8f4f5784bd3a2b6775bd038253ed7d181810",
        "0x9c2879a760a18fdec5af5cbbfd5bee59de972354e629a0dda93e5b6d2d56e9f4"
      ],
      [
        2858,
        "0xddef1deac28e2d91f3d3c682c737cc0ef8489aba",
        "4136579168201862",
        2
      ]
    ],
    [
      [
        "0x510de1d7b4686b2b09c2edea19a254cbc1aed8304d97bb8abd24dd734738c89a",
        "0xff0a46e3a9df79ff1237383ed01ebebabb15fcc111c3d3b2c108570ee730cb86",
        "0x18d23d72ddfc215cc06dad3a4aa97d67a5415bfce036c22099ee0fcb7c8e061c",
        "0xf27f43a6844876e71622377ca369a833a601dfb3593d19c792f0ff433cd070ac",
        "0x5099528c17ca9f55f6baa4a97ec956539bd29338d39447b5f5f11df446f9c532"
      ],
      [
        2858,
        "0xf355c48aab6ac9f6ed4e1750a34690f4d28cb30e",
        "22837729938500",
        1
      ]
    ],
    [
      [
        "0xd51b75a455b62a05eed8b9794ca1726a3f20eb3a1750e2515a6834a5fa3c7951",
        "0xad1e354c56603bdaf9d188ec9bbdd09f9086d251698e1ca11813941435b5e4f8",
        "0xddfff27c321d6cf91eb6c2c838b7130e8e6f128f445f64b1eeecb0066ab3a0bf",
        "0xb0b57e004246fc3911090220faa9d410f28fcd49eab901dca41a5a4cfa57692a",
        "0x7358789bc9f8571190de45e812489d4eae5608f627e760b1d7810f5f64975b90",
        "0x5099528c17ca9f55f6baa4a97ec956539bd29338d39447b5f5f11df446f9c532"
      ],
      [
        2858,
        "0xb13a59ecfbbec4d4539be101c5f15521ca23c8ee",
        "91350919754001",
        2
      ]
    ]
  ],
  "noOfWeightBasedClaims": 18,
  "merkleRoot": "0xafcb73774de6514734077890afac65d37b54156b62c7d86edf2fe8744acab9cc",
  "abi": {
    "components": [
      {
        "internalType": "uint24",
        "name": "rewardEpochId",
        "type": "uint24"
      },
      {
        "internalType": "bytes20",
        "name": "beneficiary",
        "type": "bytes20"
      },
      {
        "internalType": "uint120",
        "name": "amount",
        "type": "uint120"
      },
      {
        "internalType": "enum IRewardManager.ClaimType",
        "name": "claimType",
        "type": "uint8"
      }
    ],
    "internalType": "struct IRewardManager.RewardClaim",
    "name": "_claim",
    "type": "tuple"
  }
}