{
  "rewardEpochId": 2848,
  "rewardClaims": [
    {
      "merkleProof": [
        "0x442d64f0b18d28ca368ce0a9b1e42f50aa5878bc39ca58e1bfdfdb1a12419d25",
        "0x30b46a205a435806f8a9f30ab7f2b859051e379e1920fa96edda2980fc9d43fc",
        "0x736a565663652e5bbcd50176a176719b8ae27941536caece9ee8cd9774590e57",
        "0x4dbd585da9462577715a20015581bc3fa32d8b1f3b6107afd7bb248b918281ea",
        "0x3335efb6d28c04c71a2da8c0febf88584986560e08e4d1c5fab66f338e96643a"
      ],
      "body": {
        "beneficiary": "0xf206f9b8bda82301c19a67b3d272f060bbe51e02",
        "claimType": 1,
        "amount": "8192313432398604",
        "rewardEpochId": 2848
      }
    },
    {
      "merkleProof": [
        "0x07ee2c89388cf980a14694d04b51bdb96aad2a5b923e42ae0b0641295eacb444",
        "0xc65cc784bd9527aac65e093fffe93d8ec80c427ef12694d47fca8e2eb860301e",
        "0x467c9bd9fe746c10e7881d7761ddedf9e44631eba88d75dd56bc45a35b3678ea",
        "0x201bda80a6a536b33e9a9a20d6e68c0c96105efd5b24ab7aa09e8a05131da7c1",
        "0x64ca44a2f97dfd9aa910b91471e44af8a2fe3cef24c8e56b71d1da7ec8c92e32"
      ],
      "body": {
        "beneficiary": "0x11cef138b1ee96a481dc040842433bfc5229ad70",
        "claimType": 2,
        "amount": "32769253729594553",
        "rewardEpochId": 2848
      }
    },
    {
      "merkleProof": [
        "0x60accf5e298d423931a50a2e1b8f95df62e9f778ce6f941194f39a510f54a15b",
        "0x5b0b89ad668e0dcc8a0683df1fa4e4efaa13bf044692472b4bdb88bb486abfbd",
        "0x736a565663652e5bbcd50176a176719b8ae27941536caece9ee8cd9774590e57",
        "0x4dbd585da9462577715a20015581bc3fa32d8b1f3b6107afd7bb248b918281ea",
        "0x3335efb6d28c04c71a2da8c0febf88584986560e08e4d1c5fab66f338e96643a"
      ],
      "body": {
        "beneficiary": "0x1d415d28380ff51a507f7b176ca5f27833f7fffd",
        "claimType": 1,
        "amount": "205370615484490924460",
        "rewardEpochId": 2848
      }
    },
    {
      "merkleProof": [
        "0x8a9bc19e37bdb6d9e0ae871c2995577b71a4fa0b69f1175e42fd70be0cda2ef4",
        "0xce307c84e0563cd1a98a565b5e668f229bb0af047acc9237d460b408eb9956cf",
        "0xafb39c953a48a089cb007e82ffd914787858a50fb7f69fae7c4a025659219a04",
        "0x4dbd585da9462577715a20015581bc3fa32d8b1f3b6107afd7bb248b918281ea",
        "0x3335efb6d28c04c71a2da8c0febf88584986560e08e4d1c5fab66f338e96643a"
      ],
      "body": {
        "beneficiary": "0xb849b93b585effb7ce4b522ff88d9b3b24955f24",
        "claimType": 2,
        "amount": "821482461937963698353",
        "rewardEpochId": 2848
      }
    },
    {
      "merkleProof": [
        "0x7c20307e750b3d8423845182ad095eaae3a0c62799859a551e913bdc0c44a469",
        "0x89ae5125a255a73a0c930b9586a0c644cb4ee5bbac7ee5e7be8fa4366f53484b",
        "0xafb39c953a48a089cb007e82ffd914787858a50fb7f69fae7c4a025659219a04",
        "0x4dbd585da9462577715a20015581bc3fa32d8b1f3b6107afd7bb248b918281ea",
        "0x3335efb6d28c04c71a2da8c0febf88584986560e08e4d1c5fab66f338e96643a"
      ],
      "body": {
        "beneficiary": "0x2e46e8d1f3636f7036978d054b0a07e7395053c8",
        "claimType": 1,
        "amount": "555622082874368737036",
        "rewardEpochId": 2848
      }
    },
    {
      "merkleProof": [
        "0xb95e936d5756e3c0049e9d082be98f9c30a768584056b03a91172a400b847d63",
        "0x35d13147262503e826c9d80699400e0146a677502fb6625eb82146af915f6257",
        "0xffec23465a217725cc20764a1f417d982ee13e029b0a6dbd7f001c98467e4125",
        "0x95a2f5e56341ab064995180b1946ed983d55531b517f079260a4625def0fd4c9",
        "0x3335efb6d28c04c71a2da8c0febf88584986560e08e4d1c5fab66f338e96643a"
      ],
      "body": {
        "beneficiary": "0xe80c39eae57c0359ee6c4086e2b22300353728e1",
        "claimType": 2,
        "amount": "2222488331497474948716",
        "rewardEpochId": 2848
      }
    },
    {
      "merkleProof": [
        "0xd98364f24de9c263bc2e344f219bff047727dc18dd2b9021540c981f4cee7e6b",
        "0x8ea675dded3f857b819c8b030fb28da33927c5bc1ed146062a47c73ad4cbffb1",
        "0x4b0001e1f24841eea013edcbbb506ac61a92023d5c42102873840183acaaf119",
        "0x95a2f5e56341ab064995180b1946ed983d55531b517f079260a4625def0fd4c9",
        "0x3335efb6d28c04c71a2da8c0febf88584986560e08e4d1c5fab66f338e96643a"
      ],
      "body": {
        "beneficiary": "0xf0b444bdc5522e908ff903e3f1730b5ab60b610a",
        "claimType": 1,
        "amount": "653198768794177314121",
        "rewardEpochId": 2848
      }
    },
    {
      "merkleProof": [
        "0x4029110b358a70909d8ce333f0b4b572ba005c6cbea8990dc4670d1db7ac321a",
        "0xda7c90039491689693c0e6403655f95a231aa429f4f574c392a884b38f8e5d7d",
        "0x2d1b58665dad6a6b9d7b0a1478d3aa69b98f9d3ca37508c18c61d675fff2d8a1",
        "0xa5c77c198c3b6fb2d8c692d1616f5ddca90666af95a1085a8e1c0f97c07703f6",
        "0x64ca44a2f97dfd9aa910b91471e44af8a2fe3cef24c8e56b71d1da7ec8c92e32"
      ],
      "body": {
        "beneficiary": "0x07f5053c867ae107db15a38aa4421b2c24ac4e51",
        "claimType": 2,
        "amount": "2612795075176709257150",
        "rewardEpochId": 2848
      }
    },
    {
      "merkleProof": [
        "0x23a16f4c8d08e9d91d3c760dc546fd6c575b6dba29b6e2651789af59b4290056",
        "0x9a6df0d6c56aeb33b89b765948283547e70861736d42a4ac676bef3e780c64c4",
        "0xac1225b76db5c615ba50ca2f15fdf71885b2de317101195513e79bab39e37901",
        "0xa5c77c198c3b6fb2d8c692d1616f5ddca90666af95a1085a8e1c0f97c07703f6",
        "0x64ca44a2f97dfd9aa910b91471e44af8a2fe3cef24c8e56b71d1da7ec8c92e32"
      ],
      "body": {
        "beneficiary": "0xc6cb03a22213a3e02186a3126d47c7fba20e4ef5",
        "claimType": 1,
        "amount": "652916455594535745312",
        "rewardEpochId": 2848
      }
    },
    {
      "merkleProof": [
        "0xc9c186d71e6b45b0ef452103c05963b489675c100dfe414d09d45aaec3aa39e4",
        "0x2550b40dd5f016c121d998ef9094dcff3cf19e99df86ae66e07ecc2f33d0d4d9",
        "0x4b0001e1f24841eea013edcbbb506ac61a92023d5c42102873840183acaaf119",
        "0x95a2f5e56341ab064995180b1946ed983d55531b517f079260a4625def0fd4c9",
        "0x3335efb6d28c04c71a2da8c0febf88584986560e08e4d1c5fab66f338e96643a"
      ],
      "body": {
        "beneficiary": "0xabaa1718c2d80fc037bf66e3f66f0975d67431a9",
        "claimType": 2,
        "amount": "2611665822378142981569",
        "rewardEpochId": 2848
      }
    },
    {
      "merkleProof": [
        "0xc2f03fd2492cb3b8411369e55fbb89caf059aef85abc0ee748716febad880e92",
        "0x35d13147262503e826c9d80699400e0146a677502fb6625eb82146af915f6257",
        "0xffec23465a217725cc20764a1f417d982ee13e029b0a6dbd7f001c98467e4125",
        "0x95a2f5e56341ab064995180b1946ed983d55531b517f079260a4625def0fd4c9",
        "0x3335efb6d28c04c71a2da8c0febf88584986560e08e4d1c5fab66f338e96643a"
      ],
      "body": {
        "beneficiary": "0x000000000000000000000000000000000000dead",
        "claimType": 0,
        "amount": "16269794370540621126836",
        "rewardEpochId": 2848
      }
    },
    {
      "merkleProof": [
        "0x71a6f8625416837b4e6cfa45300eb5f572523ef7c91a41d7236535b52161577c",
        "0x5b0b89ad668e0dcc8a0683df1fa4e4efaa13bf044692472b4bdb88bb486abfbd",
        "0x736a565663652e5bbcd50176a176719b8ae27941536caece9ee8cd9774590e57",
        "0x4dbd585da9462577715a20015581bc3fa32d8b1f3b6107afd7bb248b918281ea",
        "0x3335efb6d28c04c71a2da8c0febf88584986560e08e4d1c5fab66f338e96643a"
      ],
      "body": {
        "beneficiary": "0x0bed169e74037b66a2e1c1a4937c285057773dbb",
        "claimType": 1,
        "amount": "5013828312015447042",
        "rewardEpochId": 2848
      }
    },
    {
      "merkleProof": [
        "0x9f47fb61be30d900877459695d0254d7953ad4933abd32399498b039150723e9",
        "0x74f7b18c23b27f488b7df566bb26a94724259f35f9e75452c48c6dedead949c2",
        "0xffec23465a217725cc20764a1f417d982ee13e029b0a6dbd7f001c98467e4125",
        "0x95a2f5e56341ab064995180b1946ed983d55531b517f079260a4625def0fd4c9",
        "0x3335efb6d28c04c71a2da8c0febf88584986560e08e4d1c5fab66f338e96643a"
      ],
      "body": {
        "beneficiary": "0xbc9a659af696a4d7375b104db8e5189b54f9d2b3",
        "claimType": 2,
        "amount": "2490611838077956061744",
        "rewardEpochId": 2848
      }
    },
    {
      "merkleProof": [
        "0x9469359ab239d71e657b1d2fd1ea837bd69fb243cdeb5f8e80b5588e5f57de12",
        "0xce307c84e0563cd1a98a565b5e668f229bb0af047acc9237d460b408eb9956cf",
        "0xafb39c953a48a089cb007e82ffd914787858a50fb7f69fae7c4a025659219a04",
        "0x4dbd585da9462577715a20015581bc3fa32d8b1f3b6107afd7bb248b918281ea",
        "0x3335efb6d28c04c71a2da8c0febf88584986560e08e4d1c5fab66f338e96643a"
      ],
      "body": {
        "beneficiary": "0x437d15fad24dc5fe77384c34e24ee0b4c2607d79",
        "claimType": 1,
        "amount": "822972117947490326",
        "rewardEpochId": 2848
      }
    },
    {
      "merkleProof": [
        "0x2dcb611fb19d79b0ad98086973f1b20f4b33f86dc161d38c2cef6a7b4f50d4ad",
        "0x5edee2f7c0a72452db7ba88710f8a62c070813cdb0b0a13e267f3d16de8cdb64",
        "0x2d1b58665dad6a6b9d7b0a1478d3aa69b98f9d3ca37508c18c61d675fff2d8a1",
        "0xa5c77c198c3b6fb2d8c692d1616f5ddca90666af95a1085a8e1c0f97c07703f6",
        "0x64ca44a2f97dfd9aa910b91471e44af8a2fe3cef24c8e56b71d1da7ec8c92e32"
      ],
      "body": {
        "beneficiary": "0xd88833424225068867309e0ec02999883c14dc77",
        "claimType": 2,
        "amount": "410564482921067494577",
        "rewardEpochId": 2848
      }
    },
    {
      "merkleProof": [
        "0xa08e8625eecb1f68452727fda5f64aa332f1df2008b516dc9e84525741e439ed",
        "0x74f7b18c23b27f488b7df566bb26a94724259f35f9e75452c48c6dedead949c2",
        "0xffec23465a217725cc20764a1f417d982ee13e029b0a6dbd7f001c98467e4125",
        "0x95a2f5e56341ab064995180b1946ed983d55531b517f079260a4625def0fd4c9",
        "0x3335efb6d28c04c71a2da8c0febf88584986560e08e4d1c5fab66f338e96643a"
      ],
      "body": {
        "beneficiary": "0x19b6fde072fd962dd191e5d17121a6733d7e1977",
        "claimType": 1,
        "amount": "2417333135594680798",
        "rewardEpochId": 2848
      }
    },
    {
      "merkleProof": [
        "0x4f770a245f07064086afe087c4125dcc1a6b165b69bb9af01cf58c88bfdda63b",
        "0x30b46a205a435806f8a9f30ab7f2b859051e379e1920fa96edda2980fc9d43fc",
        "0x736a565663652e5bbcd50176a176719b8ae27941536caece9ee8cd9774590e57",
        "0x4dbd585da9462577715a20015581bc3fa32d8b1f3b6107afd7bb248b918281ea",
        "0x3335efb6d28c04c71a2da8c0febf88584986560e08e4d1c5fab66f338e96643a"
      ],
      "body": {
        "beneficiary": "0x9faacf0334c62fcd9b2ead3dde72febce796859d",
        "claimType": 2,
        "amount": "1206249234661752495924",
        "rewardEpochId": 2848
      }
    },
    {
      "merkleProof": [
        "0x1df525934e1f8de1406f33e2e08536796d021fe7b68bd38f0b38a32ae7ce9c21",
        "0x311df09917998f3d7f05f48a12aaff02ed86b83fc4116c548e8b6167b70baeb4",
        "0xac1225b76db5c615ba50ca2f15fdf71885b2de317101195513e79bab39e37901",
        "0xa5c77c198c3b6fb2d8c692d1616f5ddca90666af95a1085a8e1c0f97c07703f6",
        "0x64ca44a2f97dfd9aa910b91471e44af8a2fe3cef24c8e56b71d1da7ec8c92e32"
      ],
      "body": {
        "beneficiary": "0xadf3a9a6494b8c1a24f0eec5d44a388afc10df09",
        "claimType": 1,
        "amount": "1625846560842516089",
        "rewardEpochId": 2848
      }
    },
    {
      "merkleProof": [
        "0x258010e972022d0cadc2d2ee9412f11ed51fd106699ee55e28a191f62b8a4e80",
        "0x9a6df0d6c56aeb33b89b765948283547e70861736d42a4ac676bef3e780c64c4",
        "0xac1225b76db5c615ba50ca2f15fdf71885b2de317101195513e79bab39e37901",
        "0xa5c77c198c3b6fb2d8c692d1616f5ddca90666af95a1085a8e1c0f97c07703f6",
        "0x64ca44a2f97dfd9aa910b91471e44af8a2fe3cef24c8e56b71d1da7ec8c92e32"
      ],
      "body": {
        "beneficiary": "0xf75a67d060f28f269d3f7a51fdb2859e7d6a4d78",
        "claimType": 2,
        "amount": "808124871374679974328",
        "rewardEpochId": 2848
      }
    },
    {
      "merkleProof": [
        "0x0a609a66734ac655e289a86ed8850dc78e63ace976565cb84bb660581a8f8507",
        "0x5645b73574a1f4dd8bc67613e3853213231a10de160294bd07b22bc2e4b9b098",
        "0x467c9bd9fe746c10e7881d7761ddedf9e44631eba88d75dd56bc45a35b3678ea",
        "0x201bda80a6a536b33e9a9a20d6e68c0c96105efd5b24ab7aa09e8a05131da7c1",
        "0x64ca44a2f97dfd9aa910b91471e44af8a2fe3cef24c8e56b71d1da7ec8c92e32"
      ],
      "body": {
        "beneficiary": "0x9181f8ed4381ce39dbf4b8336b6295de89527c46",
        "claimType": 1,
        "amount": "1627366304282895931",
        "rewardEpochId": 2848
      }
    },
    {
      "merkleProof": [
        "0x3c2b198e5e617a955bee63b0c11e3268358fb73e60e6569088ea6e01748977d7",
        "0xda7c90039491689693c0e6403655f95a231aa429f4f574c392a884b38f8e5d7d",
        "0x2d1b58665dad6a6b9d7b0a1478d3aa69b98f9d3ca37508c18c61d675fff2d8a1",
        "0xa5c77c198c3b6fb2d8c692d1616f5ddca90666af95a1085a8e1c0f97c07703f6",
        "0x64ca44a2f97dfd9aa910b91471e44af8a2fe3cef24c8e56b71d1da7ec8c92e32"
      ],
      "body": {
        "beneficiary": "0x884cde7b5f2f0a9ee28f90ce1d4aa526373b3e2c",
        "claimType": 2,
        "amount": "811286830399858428147",
        "rewardEpochId": 2848
      }
    },
    {
      "merkleProof": [
        "0x09ffdf4e3745ead3e736a407736642bcc08e07f61570b9461d0829cbbad15b5a",
        "0xc65cc784bd9527aac65e093fffe93d8ec80c427ef12694d47fca8e2eb860301e",
        "0x467c9bd9fe746c10e7881d7761ddedf9e44631eba88d75dd56bc45a35b3678ea",
        "0x201bda80a6a536b33e9a9a20d6e68c0c96105efd5b24ab7aa09e8a05131da7c1",
        "0x64ca44a2f97dfd9aa910b91471e44af8a2fe3cef24c8e56b71d1da7ec8c92e32"
      ],
      "body": {
        "beneficiary": "0xf355c48aab6ac9f6ed4e1750a34690f4d28cb30e",
        "claimType": 1,
        "amount": "413764245417855326",
        "rewardEpochId": 2848
      }
    },
    {
      "merkleProof": [
        "0x190f51dbcd8abe06c9fde5d008dfeb3d67aec34d639bab768379c10a22c78d6e",
        "0x311df09917998f3d7f05f48a12aaff02ed86b83fc4116c548e8b6167b70baeb4",
        "0xac1225b76db5c615ba50ca2f15fdf71885b2de317101195513e79bab39e37901",
        "0xa5c77c198c3b6fb2d8c692d1616f5ddca90666af95a1085a8e1c0f97c07703f6",
        "0x64ca44a2f97dfd9aa910b91471e44af8a2fe3cef24c8e56b71d1da7ec8c92e32"
      ],
      "body": {
        "beneficiary": "0xb13a59ecfbbec4d4539be101c5f15521ca23c8ee",
        "claimType": 2,
        "amount": "206451361283277723127",
        "rewardEpochId": 2848
      }
    },
    {
      "merkleProof": [
        "0xfad79db6c1581c98fb1f85cb89d221c4cfdcade85550aa34c4074c3bd18e6783",
        "0x040b4ee257124f6a4b228702488a5d19f94045976b2061313515c4e48c905fb9",
        "0x31d9bf6e7d89a399ed40deff0f08e8c7a197fdb4236d0341ca1288b7b6323181",
        "0xa5b64596f431ae1b382d4dde12ffd1cd8158f5bb2e3a29a537581a2b4e99ca80",
        "0x201bda80a6a536b33e9a9a20d6e68c0c96105efd5b24ab7aa09e8a05131da7c1",
        "0x64ca44a2f97dfd9aa910b91471e44af8a2fe3cef24c8e56b71d1da7ec8c92e32"
      ],
      "body": {
        "beneficiary": "0x0dd018692f98a7894ecc7ba90cfb8f93a19159d3",
        "claimType": 1,
        "amount": "17259984147122717",
        "rewardEpochId": 2848
      }
    },
    {
      "merkleProof": [
        "0xe115f353131fe8c93286bdfab31bcdfb59c75f75a2d7be81a479994aaaaf04ed",
        "0x31d9bf6e7d89a399ed40deff0f08e8c7a197fdb4236d0341ca1288b7b6323181",
        "0xa5b64596f431ae1b382d4dde12ffd1cd8158f5bb2e3a29a537581a2b4e99ca80",
        "0x201bda80a6a536b33e9a9a20d6e68c0c96105efd5b24ab7aa09e8a05131da7c1",
        "0x64ca44a2f97dfd9aa910b91471e44af8a2fe3cef24c8e56b71d1da7ec8c92e32"
      ],
      "body": {
        "beneficiary": "0x612cff400ee27c91b956c45f4c50e61b55312430",
        "claimType": 2,
        "amount": "69039936588491087",
        "rewardEpochId": 2848
      }
    },
    {
      "merkleProof": [
        "0x7e78ec80d88d5a971e6f3fc5a4af2253c5b65d12146a6d0e75f72c5d1fb7f028",
        "0x89ae5125a255a73a0c930b9586a0c644cb4ee5bbac7ee5e7be8fa4366f53484b",
        "0xafb39c953a48a089cb007e82ffd914787858a50fb7f69fae7c4a025659219a04",
        "0x4dbd585da9462577715a20015581bc3fa32d8b1f3b6107afd7bb248b918281ea",
        "0x3335efb6d28c04c71a2da8c0febf88584986560e08e4d1c5fab66f338e96643a"
      ],
      "body": {
        "beneficiary": "0xa6a088c1036f4fd6f022d52630842e19f90405ed",
        "claimType": 1,
        "amount": "2174275608484528",
        "rewardEpochId": 2848
      }
    },
    {
      "merkleProof": [
        "0xe9fad6126d639d71ea594bc2413ecfc92b5758da47497a8c812c2ebcb700bcac",
        "0x47aeee540c4f00d30a8ffa089cd89fd2556a8937c6cd7d467ab8968b0c4355d2",
        "0xefe6e9900d0edb42a941c362f010525b02a2e80eab7e372c2f6689505f1fb060",
        "0xa5b64596f431ae1b382d4dde12ffd1cd8158f5bb2e3a29a537581a2b4e99ca80",
        "0x201bda80a6a536b33e9a9a20d6e68c0c96105efd5b24ab7aa09e8a05131da7c1",
        "0x64ca44a2f97dfd9aa910b91471e44af8a2fe3cef24c8e56b71d1da7ec8c92e32"
      ],
      "body": {
        "beneficiary": "0xddef1deac28e2d91f3d3c682c737cc0ef8489aba",
        "claimType": 2,
        "amount": "8697102433938251",
        "rewardEpochId": 2848
      }
    },
    {
      "merkleProof": [
        "0x110542b3ece63a9cdc273a949bba3f3310ea3b476920562b01744fabe80adc72",
        "0x5645b73574a1f4dd8bc67613e3853213231a10de160294bd07b22bc2e4b9b098",
        "0x467c9bd9fe746c10e7881d7761ddedf9e44631eba88d75dd56bc45a35b3678ea",
        "0x201bda80a6a536b33e9a9a20d6e68c0c96105efd5b24ab7aa09e8a05131da7c1",
        "0x64ca44a2f97dfd9aa910b91471e44af8a2fe3cef24c8e56b71d1da7ec8c92e32"
      ],
      "body": {
        "beneficiary": "0x25f42def3fcc078de8895cd01de8ab6514020548",
        "claimType": 1,
        "amount": "30581777820157557",
        "rewardEpochId": 2848
      }
    },
    {
      "merkleProof": [
        "0xe5560c52093c4b66e63c445a0ed038f04eddd6f783c8a1ed615377603541d2eb",
        "0x47aeee540c4f00d30a8ffa089cd89fd2556a8937c6cd7d467ab8968b0c4355d2",
        "0xefe6e9900d0edb42a941c362f010525b02a2e80eab7e372c2f6689505f1fb060",
        "0xa5b64596f431ae1b382d4dde12ffd1cd8158f5bb2e3a29a537581a2b4e99ca80",
        "0x201bda80a6a536b33e9a9a20d6e68c0c96105efd5b24ab7aa09e8a05131da7c1",
        "0x64ca44a2f97dfd9aa910b91471e44af8a2fe3cef24c8e56b71d1da7ec8c92e32"
      ],
      "body": {
        "beneficiary": "0x256194ca4884dbe2933862f0e9f7e0e4d411eb35",
        "claimType": 2,
        "amount": "122327111280630284",
        "rewardEpochId": 2848
      }
    },
    {
      "merkleProof": [
        "0xfcc28e833694a07d83b61c5db8cdfa7ac1458d6477974db3d2f36a19f34e82ac",
        "0x040b4ee257124f6a4b228702488a5d19f94045976b2061313515c4e48c905fb9",
        "0x31d9bf6e7d89a399ed40deff0f08e8c7a197fdb4236d0341ca1288b7b6323181",
        "0xa5b64596f431ae1b382d4dde12ffd1cd8158f5bb2e3a29a537581a2b4e99ca80",
        "0x201bda80a6a536b33e9a9a20d6e68c0c96105efd5b24ab7aa09e8a05131da7c1",
        "0x64ca44a2f97dfd9aa910b91471e44af8a2fe3cef24c8e56b71d1da7ec8c92e32"
      ],
      "body": {
        "beneficiary": "0xca84d6086c5b32212a0cf1638803355d7be31482",
        "claimType": 1,
        "amount": "470573402221430329662",
        "rewardEpochId": 2848
      }
    },
    {
      "merkleProof": [
        "0xe1ca0dbbfd90eb56a8cc675e43b2ee156ac2f56e7bded3bdc8919d9d4ee29a4c",
        "0x8ea675dded3f857b819c8b030fb28da33927c5bc1ed146062a47c73ad4cbffb1",
        "0x4b0001e1f24841eea013edcbbb506ac61a92023d5c42102873840183acaaf119",
        "0x95a2f5e56341ab064995180b1946ed983d55531b517f079260a4625def0fd4c9",
        "0x3335efb6d28c04c71a2da8c0febf88584986560e08e4d1c5fab66f338e96643a"
      ],
      "body": {
        "beneficiary": "0x55fcf7806f556204141fe90fbe9ce6207d9c52ac",
        "claimType": 2,
        "amount": "1882293608885721319055",
        "rewardEpochId": 2848
      }
    },
    {
      "merkleProof": [
        "0xea8a2d90c26bf911c00938607a8a5163ac976fe16f239bfcf8ede38ed63f9aa6",
        "0x2019838b84b35f1ac1cf00a7c648fde9efe6ba4cb786fd3753c3ea4d04140fd8",
        "0xefe6e9900d0edb42a941c362f010525b02a2e80eab7e372c2f6689505f1fb060",
        "0xa5b64596f431ae1b382d4dde12ffd1cd8158f5bb2e3a29a537581a2b4e99ca80",
        "0x201bda80a6a536b33e9a9a20d6e68c0c96105efd5b24ab7aa09e8a05131da7c1",
        "0x64ca44a2f97dfd9aa910b91471e44af8a2fe3cef24c8e56b71d1da7ec8c92e32"
      ],
      "body": {
        "beneficiary": "0x3134c526171f16e14ac0dfbe56d10ef09273817f",
        "claimType": 1,
        "amount": "11425322868465481203",
        "rewardEpochId": 2848
      }
    },
    {
      "merkleProof": [
        "0x3629546623e354a351b9bd420eb28bcc95a29f3741f0c56f2a45d5892f6c30fe",
        "0x5edee2f7c0a72452db7ba88710f8a62c070813cdb0b0a13e267f3d16de8cdb64",
        "0x2d1b58665dad6a6b9d7b0a1478d3aa69b98f9d3ca37508c18c61d675fff2d8a1",
        "0xa5c77c198c3b6fb2d8c692d1616f5ddca90666af95a1085a8e1c0f97c07703f6",
        "0x64ca44a2f97dfd9aa910b91471e44af8a2fe3cef24c8e56b71d1da7ec8c92e32"
      ],
      "body": {
        "beneficiary": "0xaf47c84608043ba7d58122e5c3a46adf67371df3",
        "claimType": 2,
        "amount": "45701291473861925274",
        "rewardEpochId": 2848
      }
    },
    {
      "merkleProof": [
        "0xc9341b0bd482db6478b57ed3f3f84d0080ce7b39f8e417e86d3c46e4fcc55919",
        "0x2550b40dd5f016c121d998ef9094dcff3cf19e99df86ae66e07ecc2f33d0d4d9",
        "0x4b0001e1f24841eea013edcbbb506ac61a92023d5c42102873840183acaaf119",
        "0x95a2f5e56341ab064995180b1946ed983d55531b517f079260a4625def0fd4c9",
        "0x3335efb6d28c04c71a2da8c0febf88584986560e08e4d1c5fab66f338e96643a"
      ],
      "body": {
        "beneficiary": "0x0f4edd405e2550f88903c3f5614a1067f1d9d84c",
        "claimType": 1,
        "amount": "155720209035417",
        "rewardEpochId": 2848
      }
    },
    {
      "merkleProof": [
        "0xec998f8b7269d0ffac960146b8413a3038db7cdcbdafef1fcdaedee71b954272",
        "0x2019838b84b35f1ac1cf00a7c648fde9efe6ba4cb786fd3753c3ea4d04140fd8",
        "0xefe6e9900d0edb42a941c362f010525b02a2e80eab7e372c2f6689505f1fb060",
        "0xa5b64596f431ae1b382d4dde12ffd1cd8158f5bb2e3a29a537581a2b4e99ca80",
        "0x201bda80a6a536b33e9a9a20d6e68c0c96105efd5b24ab7aa09e8a05131da7c1",
        "0x64ca44a2f97dfd9aa910b91471e44af8a2fe3cef24c8e56b71d1da7ec8c92e32"
      ],
      "body": {
        "beneficiary": "0x67daef0258d83fe9513feaee28a8bbac7e8a031f",
        "claimType": 2,
        "amount": "622880836141691",
        "rewardEpochId": 2848
      }
    }
  ],
  "noOfWeightBasedClaims": 17,
  "merkleRoot": "0x82ac39bbadbdc0e4977c34b4cc900b4475fce1e27a4798e67bd68c8ce3b8df83",
  "abi": {
    "components": [
      {
        "internalType": "uint24",
        "name": "rewardEpochId",
        "type": "uint24"
      },
      {
        "internalType": "bytes20",
        "name": "beneficiary",
        "type": "bytes20"
      },
      {
        "internalType": "uint120",
        "name": "amount",
        "type": "uint120"
      },
      {
        "internalType": "enum IRewardManager.ClaimType",
        "name": "claimType",
        "type": "uint8"
      }
    ],
    "internalType": "struct IRewardManager.RewardClaim",
    "name": "_claim",
    "type": "tuple"
  }
}