{
  "rewardEpochId": 2843,
  "rewardClaims": [
    {
      "merkleProof": [
        "0x962ea897497e4b235387204f60023f9269bddf0fae40b93d27a70503f238126b",
        "0x0af77fdc8e127bc8e87fea9c78857687b2b76f60800fa86f782d354cbbef138d",
        "0x4b5af6294e6f2c1de5a09c3e3b904bbf2d835c96e769ad3ced72a79c45f3486f",
        "0x090f4e879a373cdb3f745b63c463cf76a8cc6396db69bcebe06b6626988fa4ed",
        "0x841a5170193dbfc97ae9af87f88d9b1da40e6beca2ae8b2b24545b30c2a43644"
      ],
      "body": {
        "beneficiary": "0xadf3a9a6494b8c1a24f0eec5d44a388afc10df09",
        "claimType": 1,
        "amount": "18223228944390621738",
        "rewardEpochId": 2843
      }
    },
    {
      "merkleProof": [
        "0x5be69d0162f367282c27ee6663e64628359c3c3a6e8228105ef9152908eda9fa",
        "0x1855fa9ce11aa19b4c9169f17f12479a31de024e99d066f6c9c0a79c2a484e33",
        "0xb1877a18e80a8750e5ffad80ecd1dd1c4fe52c4165539a2db677494e5e588032",
        "0xc787d8cb9d553a5252ec1ef8217e8ee319a85f217e0253ab170af76fd8f2aeac",
        "0x841a5170193dbfc97ae9af87f88d9b1da40e6beca2ae8b2b24545b30c2a43644"
      ],
      "body": {
        "beneficiary": "0xf75a67d060f28f269d3f7a51fdb2859e7d6a4d78",
        "claimType": 2,
        "amount": "614559734237427761750",
        "rewardEpochId": 2843
      }
    },
    {
      "merkleProof": [
        "0x101f5aed6277aa463446e1764454eae869a4d8a7f2f95da0256cbbd031c399b0",
        "0x7f435826226b9c940baf0b9c851ca5943893e576dd8f6b57be4dc015c60df114",
        "0x085940712e85b546750605c364c23738bd93526a69a11be43da93c852b5a2d6a",
        "0x8d4ade5cec544afa01a59ac2730417eceaf8b59c4bcd2f1fbc43e3ee5638d614",
        "0x8a43ba2bb47a977fb1df81718846b0d5ba6b06295a1f5bd38a2acbacee073d37"
      ],
      "body": {
        "beneficiary": "0xc6cb03a22213a3e02186a3126d47c7fba20e4ef5",
        "claimType": 1,
        "amount": "677044419930962300058",
        "rewardEpochId": 2843
      }
    },
    {
      "merkleProof": [
        "0x57f9ffc8f00105a8e615c68b581b9e4f898d34090daf3295149a110ccd176476",
        "0x6933962fd0b4aa784288948dfb658869ae35e5b4142c2758611bcd6ac1cee947",
        "0xa4675cf5c54d4f2d814da7fbdd0f4bf19fd33cc1c979ee48771f115dfde3ff7f",
        "0xc787d8cb9d553a5252ec1ef8217e8ee319a85f217e0253ab170af76fd8f2aeac",
        "0x841a5170193dbfc97ae9af87f88d9b1da40e6beca2ae8b2b24545b30c2a43644"
      ],
      "body": {
        "beneficiary": "0xabaa1718c2d80fc037bf66e3f66f0975d67431a9",
        "claimType": 2,
        "amount": "2708177679723849200611",
        "rewardEpochId": 2843
      }
    },
    {
      "merkleProof": [
        "0x21c3e7cbc584e87dd9432858b09e1a55d93861bdd7bcf5a92cfd9aefae8bfefd",
        "0xb138f338427e3acc2f5dfa884de377be47e96f3c9dd84802f1f332216d6ee421",
        "0xf0cfce3b948d695c433da526638f2d656a38a0d66e9c9b61575d099f432435d5",
        "0x8d4ade5cec544afa01a59ac2730417eceaf8b59c4bcd2f1fbc43e3ee5638d614",
        "0x8a43ba2bb47a977fb1df81718846b0d5ba6b06295a1f5bd38a2acbacee073d37"
      ],
      "body": {
        "beneficiary": "0x0dd018692f98a7894ecc7ba90cfb8f93a19159d3",
        "claimType": 1,
        "amount": "23939949062453990",
        "rewardEpochId": 2843
      }
    },
    {
      "merkleProof": [
        "0x639652203a3d6fe54da402eecb846035e91dd0338c6d24741f7bdd7eb6f826f3",
        "0x62406d999751088ff02626b5853ddf8a5d6d0e926f8700b7b1e21dbfdbb1c9ff",
        "0xb1877a18e80a8750e5ffad80ecd1dd1c4fe52c4165539a2db677494e5e588032",
        "0xc787d8cb9d553a5252ec1ef8217e8ee319a85f217e0253ab170af76fd8f2aeac",
        "0x841a5170193dbfc97ae9af87f88d9b1da40e6beca2ae8b2b24545b30c2a43644"
      ],
      "body": {
        "beneficiary": "0x612cff400ee27c91b956c45f4c50e61b55312430",
        "claimType": 2,
        "amount": "95759796249816071",
        "rewardEpochId": 2843
      }
    },
    {
      "merkleProof": [
        "0x8e2e55f6995b6a8653165a75ecb58ce5fbfb25a8ca3c9a92f384e40d21361d41",
        "0xbcf591ff10af26a0c35f7181a916b7aaccb645f6a964263ef3eef3ac222f4cba",
        "0xfb324ad074aeafd4be77e3a8b9247e61f92138ccfa840ab84c17e9ddecd74355",
        "0x090f4e879a373cdb3f745b63c463cf76a8cc6396db69bcebe06b6626988fa4ed",
        "0x841a5170193dbfc97ae9af87f88d9b1da40e6beca2ae8b2b24545b30c2a43644"
      ],
      "body": {
        "beneficiary": "0x3134c526171f16e14ac0dfbe56d10ef09273817f",
        "claimType": 1,
        "amount": "11828650123926928353",
        "rewardEpochId": 2843
      }
    },
    {
      "merkleProof": [
        "0xe84b8d5b49f221b0e74640b8f7a8fbc051dfec815dd25940ba3c309dea57c417",
        "0x03c3e6d7976c5ca025af3dabb172612f93df501d60ae356973c49e1da4d246f7",
        "0xb138f338427e3acc2f5dfa884de377be47e96f3c9dd84802f1f332216d6ee421",
        "0xf0cfce3b948d695c433da526638f2d656a38a0d66e9c9b61575d099f432435d5",
        "0x8d4ade5cec544afa01a59ac2730417eceaf8b59c4bcd2f1fbc43e3ee5638d614",
        "0x8a43ba2bb47a977fb1df81718846b0d5ba6b06295a1f5bd38a2acbacee073d37"
      ],
      "body": {
        "beneficiary": "0xaf47c84608043ba7d58122e5c3a46adf67371df3",
        "claimType": 2,
        "amount": "47314600495707713770",
        "rewardEpochId": 2843
      }
    },
    {
      "merkleProof": [
        "0xab13e87240213103c081b9b88217253c121080394d02c02b0a96fc431a9bd26a",
        "0x2244b32d4f9a9b02b2716bf5bd4a04c2d1bfc25d72cff4d6f757e3eebf95d2b9",
        "0x4b5af6294e6f2c1de5a09c3e3b904bbf2d835c96e769ad3ced72a79c45f3486f",
        "0x090f4e879a373cdb3f745b63c463cf76a8cc6396db69bcebe06b6626988fa4ed",
        "0x841a5170193dbfc97ae9af87f88d9b1da40e6beca2ae8b2b24545b30c2a43644"
      ],
      "body": {
        "beneficiary": "0xca84d6086c5b32212a0cf1638803355d7be31482",
        "claimType": 1,
        "amount": "331165719443061087980",
        "rewardEpochId": 2843
      }
    },
    {
      "merkleProof": [
        "0x54dd1d80e6e3ec14d71e14c6edfed7a721636cb24919f686c5344f2de0503150",
        "0xe82ce71902a13c6efe7876a6b27a26dec73fbbc02d1383e426d785468b43e9c1",
        "0xa4675cf5c54d4f2d814da7fbdd0f4bf19fd33cc1c979ee48771f115dfde3ff7f",
        "0xc787d8cb9d553a5252ec1ef8217e8ee319a85f217e0253ab170af76fd8f2aeac",
        "0x841a5170193dbfc97ae9af87f88d9b1da40e6beca2ae8b2b24545b30c2a43644"
      ],
      "body": {
        "beneficiary": "0x55fcf7806f556204141fe90fbe9ce6207d9c52ac",
        "claimType": 2,
        "amount": "1324662877772244352268",
        "rewardEpochId": 2843
      }
    },
    {
      "merkleProof": [
        "0x3e908996f96bd74e5c049e0fe7aa43fefd138c234a98c5a8eb799fe0663dde27",
        "0xb0d4545f2fff89f95c676c9e697aecf0661e0a7c24fd377017e419c5a0a122b4",
        "0x79747d0ae56550fd91a7733f023c69a70dfc26caade5c7d8d59f707cdef93190",
        "0x62905e29358535cd829db55b2a4f7e94818b05d21e1d4e091970a7bcddf20996",
        "0x8a43ba2bb47a977fb1df81718846b0d5ba6b06295a1f5bd38a2acbacee073d37"
      ],
      "body": {
        "beneficiary": "0x1d415d28380ff51a507f7b176ca5f27833f7fffd",
        "claimType": 1,
        "amount": "231446188312390188215",
        "rewardEpochId": 2843
      }
    },
    {
      "merkleProof": [
        "0x6438585348fb2615a0b745b8019ece8f2a7a5eb3f2c7d4e2918d73c1f4cddaa9",
        "0x62406d999751088ff02626b5853ddf8a5d6d0e926f8700b7b1e21dbfdbb1c9ff",
        "0xb1877a18e80a8750e5ffad80ecd1dd1c4fe52c4165539a2db677494e5e588032",
        "0xc787d8cb9d553a5252ec1ef8217e8ee319a85f217e0253ab170af76fd8f2aeac",
        "0x841a5170193dbfc97ae9af87f88d9b1da40e6beca2ae8b2b24545b30c2a43644"
      ],
      "body": {
        "beneficiary": "0xb849b93b585effb7ce4b522ff88d9b3b24955f24",
        "claimType": 2,
        "amount": "925784753249560753100",
        "rewardEpochId": 2843
      }
    },
    {
      "merkleProof": [
        "0x5b201e9a362830948d1e309362802197db2abd4be9be5f684de631c1a27b6f2e",
        "0x6933962fd0b4aa784288948dfb658869ae35e5b4142c2758611bcd6ac1cee947",
        "0xa4675cf5c54d4f2d814da7fbdd0f4bf19fd33cc1c979ee48771f115dfde3ff7f",
        "0xc787d8cb9d553a5252ec1ef8217e8ee319a85f217e0253ab170af76fd8f2aeac",
        "0x841a5170193dbfc97ae9af87f88d9b1da40e6beca2ae8b2b24545b30c2a43644"
      ],
      "body": {
        "beneficiary": "0xf0b444bdc5522e908ff903e3f1730b5ab60b610a",
        "claimType": 1,
        "amount": "595385119085814072206",
        "rewardEpochId": 2843
      }
    },
    {
      "merkleProof": [
        "0x422c622c657fe2a387869b5c795a5075d0dad3c149b12c3d39a6bee5354212fc",
        "0xc10ce722cc17fa9789b85c190f19fa5d2f10d4eb36133079440c8b065aae289a",
        "0xdfe6963ff502bb1789a6e4d9d4c2a7764685783d864db77cd26966f5c09bd758",
        "0x62905e29358535cd829db55b2a4f7e94818b05d21e1d4e091970a7bcddf20996",
        "0x8a43ba2bb47a977fb1df81718846b0d5ba6b06295a1f5bd38a2acbacee073d37"
      ],
      "body": {
        "beneficiary": "0x07f5053c867ae107db15a38aa4421b2c24ac4e51",
        "claimType": 2,
        "amount": "2381540476343256289305",
        "rewardEpochId": 2843
      }
    },
    {
      "merkleProof": [
        "0xc334aa93e69c4b7f9311d1716f3a1a4731fa04daa73df5a1dcaf669eb3841102",
        "0xc15f9f2be1706fd6729917574cd44eb651ea5e4243df689c23201994f36d4c26",
        "0xd75b528193bdaf871478bd5168a6eb593b897bbeaa498435ba30df1e9a2a1f3a",
        "0xf0cfce3b948d695c433da526638f2d656a38a0d66e9c9b61575d099f432435d5",
        "0x8d4ade5cec544afa01a59ac2730417eceaf8b59c4bcd2f1fbc43e3ee5638d614",
        "0x8a43ba2bb47a977fb1df81718846b0d5ba6b06295a1f5bd38a2acbacee073d37"
      ],
      "body": {
        "beneficiary": "0x2e46e8d1f3636f7036978d054b0a07e7395053c8",
        "claimType": 1,
        "amount": "559890492649616659805",
        "rewardEpochId": 2843
      }
    },
    {
      "merkleProof": [
        "0x3ed6cc053b918c2dcad1d8b6712f46a860f53afa324d831e39d007a7a2b60442",
        "0x0ec2458747756b67f824676a1dfe412b9d30ba8e66a4722e60ff349ef70a6bb0",
        "0xdfe6963ff502bb1789a6e4d9d4c2a7764685783d864db77cd26966f5c09bd758",
        "0x62905e29358535cd829db55b2a4f7e94818b05d21e1d4e091970a7bcddf20996",
        "0x8a43ba2bb47a977fb1df81718846b0d5ba6b06295a1f5bd38a2acbacee073d37"
      ],
      "body": {
        "beneficiary": "0xe80c39eae57c0359ee6c4086e2b22300353728e1",
        "claimType": 2,
        "amount": "2239561970598466639726",
        "rewardEpochId": 2843
      }
    },
    {
      "merkleProof": [
        "0x65c42cf0836da345b2dd64593262e751b9e10318a6708fddd07c0d4dc4015f1e",
        "0xb4158f6e36e2b2e51d899af16f64bcec612c53ae7482ee618d8ff8c777510533",
        "0xfb324ad074aeafd4be77e3a8b9247e61f92138ccfa840ab84c17e9ddecd74355",
        "0x090f4e879a373cdb3f745b63c463cf76a8cc6396db69bcebe06b6626988fa4ed",
        "0x841a5170193dbfc97ae9af87f88d9b1da40e6beca2ae8b2b24545b30c2a43644"
      ],
      "body": {
        "beneficiary": "0x9181f8ed4381ce39dbf4b8336b6295de89527c46",
        "claimType": 1,
        "amount": "1344098536568386825",
        "rewardEpochId": 2843
      }
    },
    {
      "merkleProof": [
        "0xcf26525daec98d77b204b8f6f8f633ad0b7d6c5adf3e9a39212b2ce6d996b1f4",
        "0x61ef0690b4556fc92b2894c77be885815482dafe84a82f6d4beda6c3b9361b86",
        "0xd75b528193bdaf871478bd5168a6eb593b897bbeaa498435ba30df1e9a2a1f3a",
        "0xf0cfce3b948d695c433da526638f2d656a38a0d66e9c9b61575d099f432435d5",
        "0x8d4ade5cec544afa01a59ac2730417eceaf8b59c4bcd2f1fbc43e3ee5638d614",
        "0x8a43ba2bb47a977fb1df81718846b0d5ba6b06295a1f5bd38a2acbacee073d37"
      ],
      "body": {
        "beneficiary": "0x884cde7b5f2f0a9ee28f90ce1d4aa526373b3e2c",
        "claimType": 2,
        "amount": "670101291655899436089",
        "rewardEpochId": 2843
      }
    },
    {
      "merkleProof": [
        "0x6085daa4b710cdf67ed9aa44e1e40c7281716816a50c2371c7c53d7e36296f50",
        "0x1855fa9ce11aa19b4c9169f17f12479a31de024e99d066f6c9c0a79c2a484e33",
        "0xb1877a18e80a8750e5ffad80ecd1dd1c4fe52c4165539a2db677494e5e588032",
        "0xc787d8cb9d553a5252ec1ef8217e8ee319a85f217e0253ab170af76fd8f2aeac",
        "0x841a5170193dbfc97ae9af87f88d9b1da40e6beca2ae8b2b24545b30c2a43644"
      ],
      "body": {
        "beneficiary": "0x000000000000000000000000000000000000dead",
        "claimType": 0,
        "amount": "18549636654029288150216",
        "rewardEpochId": 2843
      }
    },
    {
      "merkleProof": [
        "0xab127cfed906f95191c71185744c547f812830f32543c1258b6478662d000817",
        "0x2244b32d4f9a9b02b2716bf5bd4a04c2d1bfc25d72cff4d6f757e3eebf95d2b9",
        "0x4b5af6294e6f2c1de5a09c3e3b904bbf2d835c96e769ad3ced72a79c45f3486f",
        "0x090f4e879a373cdb3f745b63c463cf76a8cc6396db69bcebe06b6626988fa4ed",
        "0x841a5170193dbfc97ae9af87f88d9b1da40e6beca2ae8b2b24545b30c2a43644"
      ],
      "body": {
        "beneficiary": "0x0bed169e74037b66a2e1c1a4937c285057773dbb",
        "claimType": 1,
        "amount": "6356318650818608010",
        "rewardEpochId": 2843
      }
    },
    {
      "merkleProof": [
        "0x44156c91ade1022810c37f99829f63428ad2883304b0d29da7cb9b48b9af9943",
        "0xc10ce722cc17fa9789b85c190f19fa5d2f10d4eb36133079440c8b065aae289a",
        "0xdfe6963ff502bb1789a6e4d9d4c2a7764685783d864db77cd26966f5c09bd758",
        "0x62905e29358535cd829db55b2a4f7e94818b05d21e1d4e091970a7bcddf20996",
        "0x8a43ba2bb47a977fb1df81718846b0d5ba6b06295a1f5bd38a2acbacee073d37"
      ],
      "body": {
        "beneficiary": "0xbc9a659af696a4d7375b104db8e5189b54f9d2b3",
        "claimType": 2,
        "amount": "1662637415403460032117",
        "rewardEpochId": 2843
      }
    },
    {
      "merkleProof": [
        "0x27bd5cbbc87ab7f17df3c5be5dc686a8c8785c48fd045723ce2a83ef40a28098",
        "0xb0d4545f2fff89f95c676c9e697aecf0661e0a7c24fd377017e419c5a0a122b4",
        "0x79747d0ae56550fd91a7733f023c69a70dfc26caade5c7d8d59f707cdef93190",
        "0x62905e29358535cd829db55b2a4f7e94818b05d21e1d4e091970a7bcddf20996",
        "0x8a43ba2bb47a977fb1df81718846b0d5ba6b06295a1f5bd38a2acbacee073d37"
      ],
      "body": {
        "beneficiary": "0x19b6fde072fd962dd191e5d17121a6733d7e1977",
        "claimType": 1,
        "amount": "2018955240795414525",
        "rewardEpochId": 2843
      }
    },
    {
      "merkleProof": [
        "0x40654fba44734e295d20483094506ff9d1e076e0adacdaccb87eb6409f14ebe0",
        "0x0ec2458747756b67f824676a1dfe412b9d30ba8e66a4722e60ff349ef70a6bb0",
        "0xdfe6963ff502bb1789a6e4d9d4c2a7764685783d864db77cd26966f5c09bd758",
        "0x62905e29358535cd829db55b2a4f7e94818b05d21e1d4e091970a7bcddf20996",
        "0x8a43ba2bb47a977fb1df81718846b0d5ba6b06295a1f5bd38a2acbacee073d37"
      ],
      "body": {
        "beneficiary": "0x9faacf0334c62fcd9b2ead3dde72febce796859d",
        "claimType": 2,
        "amount": "1007458665156912632096",
        "rewardEpochId": 2843
      }
    },
    {
      "merkleProof": [
        "0x273f9c4ab2364cb1ee6697bf1c2a673a4301b76c7139bf286ab4f4ef826a8fbc",
        "0xc60f113c1a7686886742cfb79a7764333e1f494f79bd9c32a368cc292318e5f6",
        "0x79747d0ae56550fd91a7733f023c69a70dfc26caade5c7d8d59f707cdef93190",
        "0x62905e29358535cd829db55b2a4f7e94818b05d21e1d4e091970a7bcddf20996",
        "0x8a43ba2bb47a977fb1df81718846b0d5ba6b06295a1f5bd38a2acbacee073d37"
      ],
      "body": {
        "beneficiary": "0x0f4edd405e2550f88903c3f5614a1067f1d9d84c",
        "claimType": 1,
        "amount": "234948036830845",
        "rewardEpochId": 2843
      }
    },
    {
      "merkleProof": [
        "0xcf160fad9b107071581d69708b4b25343eff09fa2f7f327c7c6b8c92e1e55a0a",
        "0x61ef0690b4556fc92b2894c77be885815482dafe84a82f6d4beda6c3b9361b86",
        "0xd75b528193bdaf871478bd5168a6eb593b897bbeaa498435ba30df1e9a2a1f3a",
        "0xf0cfce3b948d695c433da526638f2d656a38a0d66e9c9b61575d099f432435d5",
        "0x8d4ade5cec544afa01a59ac2730417eceaf8b59c4bcd2f1fbc43e3ee5638d614",
        "0x8a43ba2bb47a977fb1df81718846b0d5ba6b06295a1f5bd38a2acbacee073d37"
      ],
      "body": {
        "beneficiary": "0x67daef0258d83fe9513feaee28a8bbac7e8a031f",
        "claimType": 2,
        "amount": "939792147323398",
        "rewardEpochId": 2843
      }
    },
    {
      "merkleProof": [
        "0x8567316e29683ac99264ac7fb63e1d493407e4b1eb59d5decb7f876aade42b93",
        "0xbcf591ff10af26a0c35f7181a916b7aaccb645f6a964263ef3eef3ac222f4cba",
        "0xfb324ad074aeafd4be77e3a8b9247e61f92138ccfa840ab84c17e9ddecd74355",
        "0x090f4e879a373cdb3f745b63c463cf76a8cc6396db69bcebe06b6626988fa4ed",
        "0x841a5170193dbfc97ae9af87f88d9b1da40e6beca2ae8b2b24545b30c2a43644"
      ],
      "body": {
        "beneficiary": "0x25f42def3fcc078de8895cd01de8ab6514020548",
        "claimType": 1,
        "amount": "12119687507652708889",
        "rewardEpochId": 2843
      }
    },
    {
      "merkleProof": [
        "0x75082c31e916e37505268c6f5091186c69f8fc7e60db952a441beb4b28c513bc",
        "0xb4158f6e36e2b2e51d899af16f64bcec612c53ae7482ee618d8ff8c777510533",
        "0xfb324ad074aeafd4be77e3a8b9247e61f92138ccfa840ab84c17e9ddecd74355",
        "0x090f4e879a373cdb3f745b63c463cf76a8cc6396db69bcebe06b6626988fa4ed",
        "0x841a5170193dbfc97ae9af87f88d9b1da40e6beca2ae8b2b24545b30c2a43644"
      ],
      "body": {
        "beneficiary": "0x256194ca4884dbe2933862f0e9f7e0e4d411eb35",
        "claimType": 2,
        "amount": "48478750030610835730",
        "rewardEpochId": 2843
      }
    },
    {
      "merkleProof": [
        "0xb9e1b1f6f6c42b6b49b5cc398058d76904f92b1970f3560b3ba516d54e9c8d73",
        "0xc15f9f2be1706fd6729917574cd44eb651ea5e4243df689c23201994f36d4c26",
        "0xd75b528193bdaf871478bd5168a6eb593b897bbeaa498435ba30df1e9a2a1f3a",
        "0xf0cfce3b948d695c433da526638f2d656a38a0d66e9c9b61575d099f432435d5",
        "0x8d4ade5cec544afa01a59ac2730417eceaf8b59c4bcd2f1fbc43e3ee5638d614",
        "0x8a43ba2bb47a977fb1df81718846b0d5ba6b06295a1f5bd38a2acbacee073d37"
      ],
      "body": {
        "beneficiary": "0xa6a088c1036f4fd6f022d52630842e19f90405ed",
        "claimType": 1,
        "amount": "3023137527942355",
        "rewardEpochId": 2843
      }
    },
    {
      "merkleProof": [
        "0x140e0dfb4f50a39c25b0276667226aa180e39dcbfa5b7c92024eb83f86334166",
        "0xc60f113c1a7686886742cfb79a7764333e1f494f79bd9c32a368cc292318e5f6",
        "0x79747d0ae56550fd91a7733f023c69a70dfc26caade5c7d8d59f707cdef93190",
        "0x62905e29358535cd829db55b2a4f7e94818b05d21e1d4e091970a7bcddf20996",
        "0x8a43ba2bb47a977fb1df81718846b0d5ba6b06295a1f5bd38a2acbacee073d37"
      ],
      "body": {
        "beneficiary": "0xddef1deac28e2d91f3d3c682c737cc0ef8489aba",
        "claimType": 2,
        "amount": "12092550111769494",
        "rewardEpochId": 2843
      }
    },
    {
      "merkleProof": [
        "0x0dbee1f064d48ac858516f01a101966b11d11b6bcd0de9ff58adee171258b7a3",
        "0xeb41bca0152bc8a92322a63598dc297207c2442ab24debc7fe04288b9be32774",
        "0x085940712e85b546750605c364c23738bd93526a69a11be43da93c852b5a2d6a",
        "0x8d4ade5cec544afa01a59ac2730417eceaf8b59c4bcd2f1fbc43e3ee5638d614",
        "0x8a43ba2bb47a977fb1df81718846b0d5ba6b06295a1f5bd38a2acbacee073d37"
      ],
      "body": {
        "beneficiary": "0x437d15fad24dc5fe77384c34e24ee0b4c2607d79",
        "claimType": 1,
        "amount": "667057752779315514",
        "rewardEpochId": 2843
      }
    },
    {
      "merkleProof": [
        "0x551bc4f50b625e59d92d818b66e47577501c5c6216866a6c9e720ed34f360d2c",
        "0xe82ce71902a13c6efe7876a6b27a26dec73fbbc02d1383e426d785468b43e9c1",
        "0xa4675cf5c54d4f2d814da7fbdd0f4bf19fd33cc1c979ee48771f115dfde3ff7f",
        "0xc787d8cb9d553a5252ec1ef8217e8ee319a85f217e0253ab170af76fd8f2aeac",
        "0x841a5170193dbfc97ae9af87f88d9b1da40e6beca2ae8b2b24545b30c2a43644"
      ],
      "body": {
        "beneficiary": "0xd88833424225068867309e0ec02999883c14dc77",
        "claimType": 2,
        "amount": "332539261643816827676",
        "rewardEpochId": 2843
      }
    },
    {
      "merkleProof": [
        "0xef8fca23802c37d36a2aaff91f810e6a1e2b71d5e54d85316dd790d7b8bf7384",
        "0x03c3e6d7976c5ca025af3dabb172612f93df501d60ae356973c49e1da4d246f7",
        "0xb138f338427e3acc2f5dfa884de377be47e96f3c9dd84802f1f332216d6ee421",
        "0xf0cfce3b948d695c433da526638f2d656a38a0d66e9c9b61575d099f432435d5",
        "0x8d4ade5cec544afa01a59ac2730417eceaf8b59c4bcd2f1fbc43e3ee5638d614",
        "0x8a43ba2bb47a977fb1df81718846b0d5ba6b06295a1f5bd38a2acbacee073d37"
      ],
      "body": {
        "beneficiary": "0xf206f9b8bda82301c19a67b3d272f060bbe51e02",
        "claimType": 1,
        "amount": "6862495234603523",
        "rewardEpochId": 2843
      }
    },
    {
      "merkleProof": [
        "0x0f15a948bc3907a6c424bebc19e993e767aadba357d42089b8d62da15024427f",
        "0xeb41bca0152bc8a92322a63598dc297207c2442ab24debc7fe04288b9be32774",
        "0x085940712e85b546750605c364c23738bd93526a69a11be43da93c852b5a2d6a",
        "0x8d4ade5cec544afa01a59ac2730417eceaf8b59c4bcd2f1fbc43e3ee5638d614",
        "0x8a43ba2bb47a977fb1df81718846b0d5ba6b06295a1f5bd38a2acbacee073d37"
      ],
      "body": {
        "beneficiary": "0x11cef138b1ee96a481dc040842433bfc5229ad70",
        "claimType": 2,
        "amount": "27449980938414140",
        "rewardEpochId": 2843
      }
    },
    {
      "merkleProof": [
        "0x139e6dbbf8b64090089cfcdffed45acc6cac6ed7ecaf031391db39b85a8d242e",
        "0x7f435826226b9c940baf0b9c851ca5943893e576dd8f6b57be4dc015c60df114",
        "0x085940712e85b546750605c364c23738bd93526a69a11be43da93c852b5a2d6a",
        "0x8d4ade5cec544afa01a59ac2730417eceaf8b59c4bcd2f1fbc43e3ee5638d614",
        "0x8a43ba2bb47a977fb1df81718846b0d5ba6b06295a1f5bd38a2acbacee073d37"
      ],
      "body": {
        "beneficiary": "0xa17d0877c137a415f91054c5d988489eb6eb28e4",
        "claimType": 1,
        "amount": "142958062031355279",
        "rewardEpochId": 2843
      }
    },
    {
      "merkleProof": [
        "0x9fd3c13d8843d3a62b87ad5117bec9341303a85e1dcf70dbe847bc95be48c3c9",
        "0x0af77fdc8e127bc8e87fea9c78857687b2b76f60800fa86f782d354cbbef138d",
        "0x4b5af6294e6f2c1de5a09c3e3b904bbf2d835c96e769ad3ced72a79c45f3486f",
        "0x090f4e879a373cdb3f745b63c463cf76a8cc6396db69bcebe06b6626988fa4ed",
        "0x841a5170193dbfc97ae9af87f88d9b1da40e6beca2ae8b2b24545b30c2a43644"
      ],
      "body": {
        "beneficiary": "0x3a80da2731efa274f9fce54e42c3e1e1a162e3cc",
        "claimType": 2,
        "amount": "571832248125421127",
        "rewardEpochId": 2843
      }
    }
  ],
  "noOfWeightBasedClaims": 17,
  "merkleRoot": "0x3d8d36a9454797335c929b90f436d7add66b1895c34735f72cf6f8fb833efb63",
  "abi": {
    "components": [
      {
        "internalType": "uint24",
        "name": "rewardEpochId",
        "type": "uint24"
      },
      {
        "internalType": "bytes20",
        "name": "beneficiary",
        "type": "bytes20"
      },
      {
        "internalType": "uint120",
        "name": "amount",
        "type": "uint120"
      },
      {
        "internalType": "enum IRewardManager.ClaimType",
        "name": "claimType",
        "type": "uint8"
      }
    ],
    "internalType": "struct IRewardManager.RewardClaim",
    "name": "_claim",
    "type": "tuple"
  }
}