{
  "rewardEpochId": 2835,
  "rewardClaims": [
    [
      [
        "0x1fe76b70a5aaf071cea9b354f40c54831ea009376f3f8f50fab28dfbf3722dae",
        "0xcb99f45a84fc8663a79cee48faefdbebe4fb5c395e856e157a6c0947ccb09360",
        "0xf0f399c27da31be69d7ac988d0f0fc5c2af5fdbad7f247be09981fac2fb301ee",
        "0xf1aee35cbc0cddc8e8a084f6d35268048e62f310157c9930435ec3f38d874691",
        "0xa8b666f2a98e34ad6cc52cbac22b0bd18f2e39ad8c0ce438cc6cc903c17f515d"
      ],
      [
        2835,
        "0x000000000000000000000000000000000000dead",
        "17227902000936310465630",
        0
      ]
    ],
    [
      [
        "0x59c194902570736a8c7eb3e13357e298d504964b7d3a9b3a8187c86cfc5eeeed",
        "0x0a9fbd170b5a451c93804a6b3ff69116536a9069ff5c2e53d79d7e4c898a8065",
        "0xfadc45f40cc321a9a1752a9a0e8c40764a7887a7af96e576ba3939182febbab4",
        "0xf1aee35cbc0cddc8e8a084f6d35268048e62f310157c9930435ec3f38d874691",
        "0xa8b666f2a98e34ad6cc52cbac22b0bd18f2e39ad8c0ce438cc6cc903c17f515d"
      ],
      [
        2835,
        "0xadf3a9a6494b8c1a24f0eec5d44a388afc10df09",
        "1643595266228681847",
        1
      ]
    ],
    [
      [
        "0x6dcee78a38b7bd061415f24842860af5c3110f8ac7aeeae28d8022f31c9c1c8d",
        "0xadc31cf6c471e06042c7980fe71c901407a143de3e09efde00eaa6d2f9799945",
        "0x2a5a74e0d4907328bbdbda084d111c54861f68ff157dbdf5f151bf3dc1ceb2c7",
        "0x98dd3f3a5ef5e70035f030ef4233dd69db798df6af071eccf03432731788de60",
        "0x7d37d944110f067e33acf85e4f6925189d350bb093b45ab94a556926f4b89451"
      ],
      [
        2835,
        "0xf75a67d060f28f269d3f7a51fdb2859e7d6a4d78",
        "816740734705177164165",
        2
      ]
    ],
    [
      [
        "0x6fc7ee1c3e38beaee9a0d46affb84c4a500f404767817299612bcf2c2e9d911c",
        "0x04da64f71908daf001f34e3beb2b17ee9954f342444a8e0a4af1db2cf4ca1eb8",
        "0xd8a92bff15d5e86dce27524d2c47b0815c280dba3a1d6d56ba3f7e1a7e988bfd",
        "0xe3667cf89e1af112f3e4128f40ff40622b27a2a726e84c8e8b1641f90df42245",
        "0xa8b666f2a98e34ad6cc52cbac22b0bd18f2e39ad8c0ce438cc6cc903c17f515d"
      ],
      [
        2835,
        "0x0bed169e74037b66a2e1c1a4937c285057773dbb",
        "5836724498848620551",
        1
      ]
    ],
    [
      [
        "0x65e0333e411f944a0fed700f110063286c0d6c20d17a0b1cb7cd9d0c856dcbab",
        "0x0a9fbd170b5a451c93804a6b3ff69116536a9069ff5c2e53d79d7e4c898a8065",
        "0xfadc45f40cc321a9a1752a9a0e8c40764a7887a7af96e576ba3939182febbab4",
        "0xf1aee35cbc0cddc8e8a084f6d35268048e62f310157c9930435ec3f38d874691",
        "0xa8b666f2a98e34ad6cc52cbac22b0bd18f2e39ad8c0ce438cc6cc903c17f515d"
      ],
      [
        2835,
        "0xbc9a659af696a4d7375b104db8e5189b54f9d2b3",
        "2027271144861881617225",
        2
      ]
    ],
    [
      [
        "0xf4f3672c6578ca2d3a01a6e0c343b0862f684677c50c22e5bd5b330734a156d3",
        "0x57350f80d40f1fa7268bf418ded0346e7d1657dc532c0b8b06bd6fdb658efea0",
        "0x4e5c1cbbf30bd467bf2da1e57a38611f7bb635c3b6b902e89c9f7872c4abba25",
        "0x3d7899c24a4dfb0d4ca8fdced9b05abcf8b98f77c43b7998e57aa7cfcf6d65dd",
        "0x7d37d944110f067e33acf85e4f6925189d350bb093b45ab94a556926f4b89451"
      ],
      [
        2835,
        "0x19b6fde072fd962dd191e5d17121a6733d7e1977",
        "1582940492818610394",
        1
      ]
    ],
    [
      [
        "0x7ebead4d90ba6909064ec87915424f4e0afd6380e6c32dcc2dc31acf6bf078b2",
        "0xdaa26f4adedec3e917cefdd3f9ae9aa56464b875092bbcd8cb44b7a691148334",
        "0xfc647b85867ce384a7f220933ad3443a73c197c6c69ca46131df4cda6f482f10",
        "0x98dd3f3a5ef5e70035f030ef4233dd69db798df6af071eccf03432731788de60",
        "0x7d37d944110f067e33acf85e4f6925189d350bb093b45ab94a556926f4b89451"
      ],
      [
        2835,
        "0x9faacf0334c62fcd9b2ead3dde72febce796859d",
        "789887305916487210197",
        2
      ]
    ],
    [
      [
        "0x724b0279129b9085152e74329349f055bb4cca078770787747e08080ec7d2bf2",
        "0x97c03798f6d68f9be603fdabb51a1f53055ba51332b7af16c45e769774669e12",
        "0x2a5a74e0d4907328bbdbda084d111c54861f68ff157dbdf5f151bf3dc1ceb2c7",
        "0x98dd3f3a5ef5e70035f030ef4233dd69db798df6af071eccf03432731788de60",
        "0x7d37d944110f067e33acf85e4f6925189d350bb093b45ab94a556926f4b89451"
      ],
      [
        2835,
        "0x2e46e8d1f3636f7036978d054b0a07e7395053c8",
        "587273211649623610798",
        1
      ]
    ],
    [
      [
        "0xb031bacf0910eea6fb4aaeb5759d87ab38877f57efbbbd38551580480cb14ad2",
        "0x791d3eaab3e4a5628261a496aeb1c857c7b3980c5a1e4946aa6be2acb56b88fa",
        "0xfc647b85867ce384a7f220933ad3443a73c197c6c69ca46131df4cda6f482f10",
        "0x98dd3f3a5ef5e70035f030ef4233dd69db798df6af071eccf03432731788de60",
        "0x7d37d944110f067e33acf85e4f6925189d350bb093b45ab94a556926f4b89451"
      ],
      [
        2835,
        "0xe80c39eae57c0359ee6c4086e2b22300353728e1",
        "2349092846598494443764",
        2
      ]
    ],
    [
      [
        "0x19e7a4e5d4e676a62565c946d9c6343f544e82a24239efd9a49713166b1b8493",
        "0x96e6c604253eaf98c690a3cc1af5f0e6731d4148d6359baa061c8b0790066116",
        "0x2f11f3db2cad718ca7b55bb5bd8b213bca7e73ade788591de25b1e7b213ca0e8",
        "0xe3667cf89e1af112f3e4128f40ff40622b27a2a726e84c8e8b1641f90df42245",
        "0xa8b666f2a98e34ad6cc52cbac22b0bd18f2e39ad8c0ce438cc6cc903c17f515d"
      ],
      [
        2835,
        "0xf0b444bdc5522e908ff903e3f1730b5ab60b610a",
        "694291707440500602040",
        1
      ]
    ],
    [
      [
        "0xb55dd710149db4bc789ee54de7f237a099c10ae4d3b0602ad3d38a4453f2655a",
        "0x1778a613bbdf1ad7030e9d58dd0cda021a5e1e70afa75ebc3565b1631273c3a9",
        "0xdcf8a6e07ecfdf4ca85241b0ab033b434727c0695199c20e02da146757d73a1b",
        "0x3d7899c24a4dfb0d4ca8fdced9b05abcf8b98f77c43b7998e57aa7cfcf6d65dd",
        "0x7d37d944110f067e33acf85e4f6925189d350bb093b45ab94a556926f4b89451"
      ],
      [
        2835,
        "0x07f5053c867ae107db15a38aa4421b2c24ac4e51",
        "2777166829762002408801",
        2
      ]
    ],
    [
      [
        "0x1baed9e3c56adbdc811538ac8c1e7aae20be6380a2f3d21a1bb8b7cf05d8e560",
        "0xc1171b0b4bcc504120861c6886097bf5b5b93892663e5dfc4943d2b5af7d05da",
        "0x2f11f3db2cad718ca7b55bb5bd8b213bca7e73ade788591de25b1e7b213ca0e8",
        "0xe3667cf89e1af112f3e4128f40ff40622b27a2a726e84c8e8b1641f90df42245",
        "0xa8b666f2a98e34ad6cc52cbac22b0bd18f2e39ad8c0ce438cc6cc903c17f515d"
      ],
      [
        2835,
        "0xf206f9b8bda82301c19a67b3d272f060bbe51e02",
        "12756023470561148",
        1
      ]
    ],
    [
      [
        "0xf8ac5247b08bba6e19442403295cf18988c5cd1b148470175adc6c86bcc376a1",
        "0x01f610b071d8f592e2081d14bb1594a384ffc6204e082f6d338d8a006a5e9094",
        "0x04da64f71908daf001f34e3beb2b17ee9954f342444a8e0a4af1db2cf4ca1eb8",
        "0xd8a92bff15d5e86dce27524d2c47b0815c280dba3a1d6d56ba3f7e1a7e988bfd",
        "0xe3667cf89e1af112f3e4128f40ff40622b27a2a726e84c8e8b1641f90df42245",
        "0xa8b666f2a98e34ad6cc52cbac22b0bd18f2e39ad8c0ce438cc6cc903c17f515d"
      ],
      [
        2835,
        "0x11cef138b1ee96a481dc040842433bfc5229ad70",
        "51024093882244742",
        2
      ]
    ],
    [
      [
        "0x267bba6558086ff3492af6ca5cee011d4e659948ffee98e4cc754debcc7f7c0b",
        "0xcb99f45a84fc8663a79cee48faefdbebe4fb5c395e856e157a6c0947ccb09360",
        "0xf0f399c27da31be69d7ac988d0f0fc5c2af5fdbad7f247be09981fac2fb301ee",
        "0xf1aee35cbc0cddc8e8a084f6d35268048e62f310157c9930435ec3f38d874691",
        "0xa8b666f2a98e34ad6cc52cbac22b0bd18f2e39ad8c0ce438cc6cc903c17f515d"
      ],
      [
        2835,
        "0x0dd018692f98a7894ecc7ba90cfb8f93a19159d3",
        "2638362237581599267",
        1
      ]
    ],
    [
      [
        "0x0c9c80722a46ab4737e250ef02f415d1cb83b1a98ad3a6c8acaa11a3fa6b2a28",
        "0xfef91ac23ee77401717319d0da09a5f55ed29d6342712645f7c40f2fee3432bd",
        "0xd8a92bff15d5e86dce27524d2c47b0815c280dba3a1d6d56ba3f7e1a7e988bfd",
        "0xe3667cf89e1af112f3e4128f40ff40622b27a2a726e84c8e8b1641f90df42245",
        "0xa8b666f2a98e34ad6cc52cbac22b0bd18f2e39ad8c0ce438cc6cc903c17f515d"
      ],
      [
        2835,
        "0x612cff400ee27c91b956c45f4c50e61b55312430",
        "10553448950326397374",
        2
      ]
    ],
    [
      [
        "0xc532626dd467d5b9304ca508e5ce7c21c7ee6fa6782cfb253d4170c573906e56",
        "0x8566000162657a0f55bbea01c3018a87e83f01e469b7f5c2f29066e29a38e6f2",
        "0x4e5c1cbbf30bd467bf2da1e57a38611f7bb635c3b6b902e89c9f7872c4abba25",
        "0x3d7899c24a4dfb0d4ca8fdced9b05abcf8b98f77c43b7998e57aa7cfcf6d65dd",
        "0x7d37d944110f067e33acf85e4f6925189d350bb093b45ab94a556926f4b89451"
      ],
      [
        2835,
        "0xca84d6086c5b32212a0cf1638803355d7be31482",
        "416514846358483023616",
        1
      ]
    ],
    [
      [
        "0x3b40ba5f21928ea18e6f0a6934dfd5ac4ba5a0490182c9f319925ce2651349b0",
        "0x7ff48c80dbb224cdcb1a99f645cd594ee9afdbfd085ad33d3d5ea7ca2899e6d0",
        "0xf0f399c27da31be69d7ac988d0f0fc5c2af5fdbad7f247be09981fac2fb301ee",
        "0xf1aee35cbc0cddc8e8a084f6d35268048e62f310157c9930435ec3f38d874691",
        "0xa8b666f2a98e34ad6cc52cbac22b0bd18f2e39ad8c0ce438cc6cc903c17f515d"
      ],
      [
        2835,
        "0x55fcf7806f556204141fe90fbe9ce6207d9c52ac",
        "1666059385433932094822",
        2
      ]
    ],
    [
      [
        "0xb62785848f5c8d30242b6f07a6f1737120d50f9244eb9d8dc38ff976b6cc76c4",
        "0x1778a613bbdf1ad7030e9d58dd0cda021a5e1e70afa75ebc3565b1631273c3a9",
        "0xdcf8a6e07ecfdf4ca85241b0ab033b434727c0695199c20e02da146757d73a1b",
        "0x3d7899c24a4dfb0d4ca8fdced9b05abcf8b98f77c43b7998e57aa7cfcf6d65dd",
        "0x7d37d944110f067e33acf85e4f6925189d350bb093b45ab94a556926f4b89451"
      ],
      [
        2835,
        "0x1d415d28380ff51a507f7b176ca5f27833f7fffd",
        "224934723093245938585",
        1
      ]
    ],
    [
      [
        "0x8f23452ef300da3cfdf557f1721fa88e4d7f6ad04304ec0234961019736b7d5e",
        "0xdaa26f4adedec3e917cefdd3f9ae9aa56464b875092bbcd8cb44b7a691148334",
        "0xfc647b85867ce384a7f220933ad3443a73c197c6c69ca46131df4cda6f482f10",
        "0x98dd3f3a5ef5e70035f030ef4233dd69db798df6af071eccf03432731788de60",
        "0x7d37d944110f067e33acf85e4f6925189d350bb093b45ab94a556926f4b89451"
      ],
      [
        2835,
        "0xb849b93b585effb7ce4b522ff88d9b3b24955f24",
        "899738892372983754583",
        2
      ]
    ],
    [
      [
        "0x19c7f8308d3caffbafdc74ba86945dfbfe57226e5002ae6815ea9e97593ad1f8",
        "0xfef91ac23ee77401717319d0da09a5f55ed29d6342712645f7c40f2fee3432bd",
        "0xd8a92bff15d5e86dce27524d2c47b0815c280dba3a1d6d56ba3f7e1a7e988bfd",
        "0xe3667cf89e1af112f3e4128f40ff40622b27a2a726e84c8e8b1641f90df42245",
        "0xa8b666f2a98e34ad6cc52cbac22b0bd18f2e39ad8c0ce438cc6cc903c17f515d"
      ],
      [
        2835,
        "0xc6cb03a22213a3e02186a3126d47c7fba20e4ef5",
        "723911267536202513033",
        1
      ]
    ],
    [
      [
        "0xb40e4f5f7f6f64f7474ce00af262ea9e6478afcad9beef451233ab46f939d70a",
        "0xf3013ffdce87457fd5dcf53d86811ec6c9c6b85674bdad404f4c2ba01076009f",
        "0xdcf8a6e07ecfdf4ca85241b0ab033b434727c0695199c20e02da146757d73a1b",
        "0x3d7899c24a4dfb0d4ca8fdced9b05abcf8b98f77c43b7998e57aa7cfcf6d65dd",
        "0x7d37d944110f067e33acf85e4f6925189d350bb093b45ab94a556926f4b89451"
      ],
      [
        2835,
        "0xabaa1718c2d80fc037bf66e3f66f0975d67431a9",
        "2895645070144810052873",
        2
      ]
    ],
    [
      [
        "0xbd0344864266d1333b81fdbfc56a77d12c277ee5da9399cc52c51ce553ca36ac",
        "0x8566000162657a0f55bbea01c3018a87e83f01e469b7f5c2f29066e29a38e6f2",
        "0x4e5c1cbbf30bd467bf2da1e57a38611f7bb635c3b6b902e89c9f7872c4abba25",
        "0x3d7899c24a4dfb0d4ca8fdced9b05abcf8b98f77c43b7998e57aa7cfcf6d65dd",
        "0x7d37d944110f067e33acf85e4f6925189d350bb093b45ab94a556926f4b89451"
      ],
      [
        2835,
        "0x25f42def3fcc078de8895cd01de8ab6514020548",
        "7082572067240129807",
        1
      ]
    ],
    [
      [
        "0xe14de49df9c2260b5e77e3072a034693726e59fab1ea76bad3d2d588d9b37b0f",
        "0x57350f80d40f1fa7268bf418ded0346e7d1657dc532c0b8b06bd6fdb658efea0",
        "0x4e5c1cbbf30bd467bf2da1e57a38611f7bb635c3b6b902e89c9f7872c4abba25",
        "0x3d7899c24a4dfb0d4ca8fdced9b05abcf8b98f77c43b7998e57aa7cfcf6d65dd",
        "0x7d37d944110f067e33acf85e4f6925189d350bb093b45ab94a556926f4b89451"
      ],
      [
        2835,
        "0x256194ca4884dbe2933862f0e9f7e0e4d411eb35",
        "28330288268960519443",
        2
      ]
    ],
    [
      [
        "0x43dfa1b73cd360d19216a2887c5d47258032c7d517e8ddf96dfb2b99f8dc24df",
        "0x0dd5a4490de19a5ffe3326e355133915984cd3da0c708bdfe8560bf5ba184ced",
        "0xfadc45f40cc321a9a1752a9a0e8c40764a7887a7af96e576ba3939182febbab4",
        "0xf1aee35cbc0cddc8e8a084f6d35268048e62f310157c9930435ec3f38d874691",
        "0xa8b666f2a98e34ad6cc52cbac22b0bd18f2e39ad8c0ce438cc6cc903c17f515d"
      ],
      [
        2835,
        "0x3134c526171f16e14ac0dfbe56d10ef09273817f",
        "11425796216207498441",
        1
      ]
    ],
    [
      [
        "0x1a84145a7da3580f970afd297d39381cde4d5675316be228a32a5ce132c05156",
        "0xc1171b0b4bcc504120861c6886097bf5b5b93892663e5dfc4943d2b5af7d05da",
        "0x2f11f3db2cad718ca7b55bb5bd8b213bca7e73ade788591de25b1e7b213ca0e8",
        "0xe3667cf89e1af112f3e4128f40ff40622b27a2a726e84c8e8b1641f90df42245",
        "0xa8b666f2a98e34ad6cc52cbac22b0bd18f2e39ad8c0ce438cc6cc903c17f515d"
      ],
      [
        2835,
        "0xaf47c84608043ba7d58122e5c3a46adf67371df3",
        "45703184864829994043",
        2
      ]
    ],
    [
      [
        "0x4ef11e131636a4475dcde0bfbc57da9d7f679a71c258160da08e1c174babf961",
        "0x0dd5a4490de19a5ffe3326e355133915984cd3da0c708bdfe8560bf5ba184ced",
        "0xfadc45f40cc321a9a1752a9a0e8c40764a7887a7af96e576ba3939182febbab4",
        "0xf1aee35cbc0cddc8e8a084f6d35268048e62f310157c9930435ec3f38d874691",
        "0xa8b666f2a98e34ad6cc52cbac22b0bd18f2e39ad8c0ce438cc6cc903c17f515d"
      ],
      [
        2835,
        "0x437d15fad24dc5fe77384c34e24ee0b4c2607d79",
        "591363721594402015",
        1
      ]
    ],
    [
      [
        "0x1a5ab4421f50625bb739583590536cd6b6088b036a92230dba5fb5c6ddc31222",
        "0x96e6c604253eaf98c690a3cc1af5f0e6731d4148d6359baa061c8b0790066116",
        "0x2f11f3db2cad718ca7b55bb5bd8b213bca7e73ade788591de25b1e7b213ca0e8",
        "0xe3667cf89e1af112f3e4128f40ff40622b27a2a726e84c8e8b1641f90df42245",
        "0xa8b666f2a98e34ad6cc52cbac22b0bd18f2e39ad8c0ce438cc6cc903c17f515d"
      ],
      [
        2835,
        "0xd88833424225068867309e0ec02999883c14dc77",
        "295060123982296589682",
        2
      ]
    ],
    [
      [
        "0xf514d4033708544b2f23bcc65bc85f2b55d9a213194731ddf6e068757d384735",
        "0x01f610b071d8f592e2081d14bb1594a384ffc6204e082f6d338d8a006a5e9094",
        "0x04da64f71908daf001f34e3beb2b17ee9954f342444a8e0a4af1db2cf4ca1eb8",
        "0xd8a92bff15d5e86dce27524d2c47b0815c280dba3a1d6d56ba3f7e1a7e988bfd",
        "0xe3667cf89e1af112f3e4128f40ff40622b27a2a726e84c8e8b1641f90df42245",
        "0xa8b666f2a98e34ad6cc52cbac22b0bd18f2e39ad8c0ce438cc6cc903c17f515d"
      ],
      [
        2835,
        "0x9181f8ed4381ce39dbf4b8336b6295de89527c46",
        "908094837964234286",
        1
      ]
    ],
    [
      [
        "0x2ef65b7cfdcf8b79f75a7143be542f682357281c7a1723c22bf17c3d3773a735",
        "0x7ff48c80dbb224cdcb1a99f645cd594ee9afdbfd085ad33d3d5ea7ca2899e6d0",
        "0xf0f399c27da31be69d7ac988d0f0fc5c2af5fdbad7f247be09981fac2fb301ee",
        "0xf1aee35cbc0cddc8e8a084f6d35268048e62f310157c9930435ec3f38d874691",
        "0xa8b666f2a98e34ad6cc52cbac22b0bd18f2e39ad8c0ce438cc6cc903c17f515d"
      ],
      [
        2835,
        "0x884cde7b5f2f0a9ee28f90ce1d4aa526373b3e2c",
        "452418887843839176134",
        2
      ]
    ],
    [
      [
        "0x6adb7e4d4fdad3978aca1f97c43d26d8438746f77e399a1f5f7b79e50008df8a",
        "0xadc31cf6c471e06042c7980fe71c901407a143de3e09efde00eaa6d2f9799945",
        "0x2a5a74e0d4907328bbdbda084d111c54861f68ff157dbdf5f151bf3dc1ceb2c7",
        "0x98dd3f3a5ef5e70035f030ef4233dd69db798df6af071eccf03432731788de60",
        "0x7d37d944110f067e33acf85e4f6925189d350bb093b45ab94a556926f4b89451"
      ],
      [
        2835,
        "0xa6a088c1036f4fd6f022d52630842e19f90405ed",
        "3098762089139829",
        1
      ]
    ],
    [
      [
        "0x7379e42458c4db794441f429031d474cc6d508d6e59a04e3452e3cd458b3be30",
        "0x97c03798f6d68f9be603fdabb51a1f53055ba51332b7af16c45e769774669e12",
        "0x2a5a74e0d4907328bbdbda084d111c54861f68ff157dbdf5f151bf3dc1ceb2c7",
        "0x98dd3f3a5ef5e70035f030ef4233dd69db798df6af071eccf03432731788de60",
        "0x7d37d944110f067e33acf85e4f6925189d350bb093b45ab94a556926f4b89451"
      ],
      [
        2835,
        "0xddef1deac28e2d91f3d3c682c737cc0ef8489aba",
        "12395048356559444",
        2
      ]
    ],
    [
      [
        "0xb3be03da6962f02e42fa8655b2a1898262987eff248b79c4c1e924544756a142",
        "0xf3013ffdce87457fd5dcf53d86811ec6c9c6b85674bdad404f4c2ba01076009f",
        "0xdcf8a6e07ecfdf4ca85241b0ab033b434727c0695199c20e02da146757d73a1b",
        "0x3d7899c24a4dfb0d4ca8fdced9b05abcf8b98f77c43b7998e57aa7cfcf6d65dd",
        "0x7d37d944110f067e33acf85e4f6925189d350bb093b45ab94a556926f4b89451"
      ],
      [
        2835,
        "0xa17d0877c137a415f91054c5d988489eb6eb28e4",
        "108907098414597630",
        1
      ]
    ],
    [
      [
        "0x92b9ca677aefc84df3941dc0a2a4d7278dbe3b2f4fabcc2fe23205f5bb7a6732",
        "0x791d3eaab3e4a5628261a496aeb1c857c7b3980c5a1e4946aa6be2acb56b88fa",
        "0xfc647b85867ce384a7f220933ad3443a73c197c6c69ca46131df4cda6f482f10",
        "0x98dd3f3a5ef5e70035f030ef4233dd69db798df6af071eccf03432731788de60",
        "0x7d37d944110f067e33acf85e4f6925189d350bb093b45ab94a556926f4b89451"
      ],
      [
        2835,
        "0x3a80da2731efa274f9fce54e42c3e1e1a162e3cc",
        "435628393658390532",
        2
      ]
    ]
  ],
  "noOfWeightBasedClaims": 16,
  "merkleRoot": "0xe343d5c1af9ef59c31afacf17ecea25174c68775215b6e4584c6d86a0c056682",
  "abi": {
    "components": [
      {
        "internalType": "uint24",
        "name": "rewardEpochId",
        "type": "uint24"
      },
      {
        "internalType": "bytes20",
        "name": "beneficiary",
        "type": "bytes20"
      },
      {
        "internalType": "uint120",
        "name": "amount",
        "type": "uint120"
      },
      {
        "internalType": "enum IRewardManager.ClaimType",
        "name": "claimType",
        "type": "uint8"
      }
    ],
    "internalType": "struct IRewardManager.RewardClaim",
    "name": "_claim",
    "type": "tuple"
  }
}