{
  "rewardEpochId": 2801,
  "rewardClaims": [
    [
      [
        "0xe5ef02aed3f883a2ff3799c8e0a5f0b0536de7fbbdd7580d4bb2f6ae5130c798",
        "0x0b52d3a4d9af277a3cf9e05d10e8ddc2d7216bfb973aad091e24407ba02d7ced",
        "0x84b5c512caef3e49bdd327809d07192ac5b791265655f04be21b2ed17a8427c0",
        "0xac42a23a33bd14e726224be6f493699e753f2d9bef7ffe890406698d51a4bd33",
        "0xbb5ffb48955298edf1a5d96fa32e50d9c59d16c9a5602745983b5f150fe05b0a"
      ],
      [
        2801,
        "0x2e46e8d1f3636f7036978d054b0a07e7395053c8",
        "700714220317170973701",
        1
      ]
    ],
    [
      [
        "0x7b7423c4205192a1ac6288800798f103956499e023bec011d7203bd48343e871",
        "0xedcd54fe72ac7a6f3bdda4473516e4024ae85b282b8b863f99b6c4e0c56c4313",
        "0xefcc497e5e5eae4c5ab254c9ab05de9d6f60028df555f345235c97c71b422476",
        "0xee617403586a0cd094d93561dc77237fc537fccfec81b580cb2ab6ded489ebf3",
        "0x46b3da60587807dad48c9cc6c492abeafcbe4bff47a1310219d855d13b200732"
      ],
      [
        2801,
        "0xe80c39eae57c0359ee6c4086e2b22300353728e1",
        "2802856881268683895361",
        2
      ]
    ],
    [
      [
        "0xd1163204eba1ec0f64efb12105096abbdb783c2c14a9926f60be5c4109d91493",
        "0x0b52d3a4d9af277a3cf9e05d10e8ddc2d7216bfb973aad091e24407ba02d7ced",
        "0x84b5c512caef3e49bdd327809d07192ac5b791265655f04be21b2ed17a8427c0",
        "0xac42a23a33bd14e726224be6f493699e753f2d9bef7ffe890406698d51a4bd33",
        "0xbb5ffb48955298edf1a5d96fa32e50d9c59d16c9a5602745983b5f150fe05b0a"
      ],
      [
        2801,
        "0x000000000000000000000000000000000000dead",
        "14216132913708924929437",
        0
      ]
    ],
    [
      [
        "0xb8af1a13b52945a30ddb4d56d9f1e22e6d02c7eee3a1cee68aeabddab5a391ae",
        "0x4ab31847df9c62bd1cdefb9561c34d9253d955e2b380df4412af40736cdee3dd",
        "0xdc9ed1120b16d522d4e8ede0853c589c8659f2e56b1be6e7acebc68e4d2c1a62",
        "0xac42a23a33bd14e726224be6f493699e753f2d9bef7ffe890406698d51a4bd33",
        "0xbb5ffb48955298edf1a5d96fa32e50d9c59d16c9a5602745983b5f150fe05b0a"
      ],
      [
        2801,
        "0x9181f8ed4381ce39dbf4b8336b6295de89527c46",
        "1250643763732812229",
        1
      ]
    ],
    [
      [
        "0xa25c3a0a451ff9efff876c0da8471266774cb54af4c7a3fc562047967ead7142",
        "0x5fd0a3b16e05e6e426ca7c7e9850210b951fef54b467b8903a249c380ec19c12",
        "0x38806fef5fbae982f97c6b792c74114d53fc2e73b2a15f3178aa5129a8d97794",
        "0x14e9973ad579b28f1abcaba02f4fd7e898719c0798384417e8dc7b6b7873390a",
        "0xbb5ffb48955298edf1a5d96fa32e50d9c59d16c9a5602745983b5f150fe05b0a"
      ],
      [
        2801,
        "0x884cde7b5f2f0a9ee28f90ce1d4aa526373b3e2c",
        "623107343368883565420",
        2
      ]
    ],
    [
      [
        "0x1c8d752586aa5c6670854e7b1f0e9fb8f6141b527e3b81a1cedb226f0e5c8116",
        "0x99f92bf128aab2117c7b574cd369474f71ee488d642fd789dd59dbaa9ae45b62",
        "0x55241f5078d277a79cb52821b736dd2570196ae5e4af07055d3df0672b93026e",
        "0x335266d4c2f5127b68affdca5a120ab52786df009b4d107e3b20ea18b6e222d5",
        "0x46b3da60587807dad48c9cc6c492abeafcbe4bff47a1310219d855d13b200732"
      ],
      [
        2801,
        "0x19b6fde072fd962dd191e5d17121a6733d7e1977",
        "2531757356418694496",
        1
      ]
    ],
    [
      [
        "0x714d747097600b77fec6a284421d58a3e7a02b54a86c9fe313c190d96bb1b540",
        "0xcc517da19ae82230e62fd1100813f572891e4625e1264505ae09f83c927df0bb",
        "0xefcc497e5e5eae4c5ab254c9ab05de9d6f60028df555f345235c97c71b422476",
        "0xee617403586a0cd094d93561dc77237fc537fccfec81b580cb2ab6ded489ebf3",
        "0x46b3da60587807dad48c9cc6c492abeafcbe4bff47a1310219d855d13b200732"
      ],
      [
        2801,
        "0x9faacf0334c62fcd9b2ead3dde72febce796859d",
        "1263346920852935457003",
        2
      ]
    ],
    [
      [
        "0xb4975031484d00a6f5d2b98d6ffdf59ee54047efa6a6e733b1b1a3245226efa3",
        "0xfe8646c759104d10c117adf67af15b0a180cca81af040d002f24f241a99a853f",
        "0xdc9ed1120b16d522d4e8ede0853c589c8659f2e56b1be6e7acebc68e4d2c1a62",
        "0xac42a23a33bd14e726224be6f493699e753f2d9bef7ffe890406698d51a4bd33",
        "0xbb5ffb48955298edf1a5d96fa32e50d9c59d16c9a5602745983b5f150fe05b0a"
      ],
      [
        2801,
        "0x0bed169e74037b66a2e1c1a4937c285057773dbb",
        "4392227777108114757",
        1
      ]
    ],
    [
      [
        "0xafab3f2f76d45e1fa5c984933d184b459bd8b2dcf66198714e45836f3802d8e9",
        "0x0540acc1b11b066182213ccae484a90913f9696fa1457dfa1907914ed6ae139f",
        "0xb6edc1983b156870f5a79c3d6a28c76d7916296339076609b95a35b36a7c32c2",
        "0x14e9973ad579b28f1abcaba02f4fd7e898719c0798384417e8dc7b6b7873390a",
        "0xbb5ffb48955298edf1a5d96fa32e50d9c59d16c9a5602745983b5f150fe05b0a"
      ],
      [
        2801,
        "0xbc9a659af696a4d7375b104db8e5189b54f9d2b3",
        "2177211575801627821693",
        2
      ]
    ],
    [
      [
        "0xeb4d639a333a5ddf7be8846e16223ab026f19a5cdfd22e2e04ba64034abe7477",
        "0x8784f69f18d8f585dcdb2fee5e58d6f4bf146405ecbb36ca3a4c955ecf643834",
        "0x84b5c512caef3e49bdd327809d07192ac5b791265655f04be21b2ed17a8427c0",
        "0xac42a23a33bd14e726224be6f493699e753f2d9bef7ffe890406698d51a4bd33",
        "0xbb5ffb48955298edf1a5d96fa32e50d9c59d16c9a5602745983b5f150fe05b0a"
      ],
      [
        2801,
        "0xf355c48aab6ac9f6ed4e1750a34690f4d28cb30e",
        "556566733720289110",
        1
      ]
    ],
    [
      [
        "0xb04217007d6e7d35c7c2d3211b31664e2f15319ad5907831278baab0dfb2d8d3",
        "0x0540acc1b11b066182213ccae484a90913f9696fa1457dfa1907914ed6ae139f",
        "0xb6edc1983b156870f5a79c3d6a28c76d7916296339076609b95a35b36a7c32c2",
        "0x14e9973ad579b28f1abcaba02f4fd7e898719c0798384417e8dc7b6b7873390a",
        "0xbb5ffb48955298edf1a5d96fa32e50d9c59d16c9a5602745983b5f150fe05b0a"
      ],
      [
        2801,
        "0xb13a59ecfbbec4d4539be101c5f15521ca23c8ee",
        "277398959807992563547",
        2
      ]
    ],
    [
      [
        "0xce61ff14454ad444381e956f32e92a18b6da4d184a6704d22a89359f83d05653",
        "0x4ab31847df9c62bd1cdefb9561c34d9253d955e2b380df4412af40736cdee3dd",
        "0xdc9ed1120b16d522d4e8ede0853c589c8659f2e56b1be6e7acebc68e4d2c1a62",
        "0xac42a23a33bd14e726224be6f493699e753f2d9bef7ffe890406698d51a4bd33",
        "0xbb5ffb48955298edf1a5d96fa32e50d9c59d16c9a5602745983b5f150fe05b0a"
      ],
      [
        2801,
        "0x25f42def3fcc078de8895cd01de8ab6514020548",
        "2185818577959551197",
        1
      ]
    ],
    [
      [
        "0xf746d726da85d8c25ee8fb53aab023d436ccb0b3f388812898a3d1ec01356b41",
        "0x0642fb7d6be99bef266269094a4d433e83f4f81c95e35a9258220b71526d7857",
        "0xdd2fa3af340986b3957367fb5306d15142feb98c07c91fd5614f61a6b8a51111",
        "0x55241f5078d277a79cb52821b736dd2570196ae5e4af07055d3df0672b93026e",
        "0x335266d4c2f5127b68affdca5a120ab52786df009b4d107e3b20ea18b6e222d5",
        "0x46b3da60587807dad48c9cc6c492abeafcbe4bff47a1310219d855d13b200732"
      ],
      [
        2801,
        "0x256194ca4884dbe2933862f0e9f7e0e4d411eb35",
        "1144716985348230030080",
        2
      ]
    ],
    [
      [
        "0x23fab57797863b6e048f53759de8bf62e1a2151f4099cffbb13036e14697870f",
        "0xa28981f12f3c09ef10d516bf01445ea2c35d6f614f35dae88bd686a2809a4fe7",
        "0xa331ee7e68258f1037288bc351bb4301e457488ac4fcd1e95ffe408de1fdba24",
        "0x335266d4c2f5127b68affdca5a120ab52786df009b4d107e3b20ea18b6e222d5",
        "0x46b3da60587807dad48c9cc6c492abeafcbe4bff47a1310219d855d13b200732"
      ],
      [
        2801,
        "0xadf3a9a6494b8c1a24f0eec5d44a388afc10df09",
        "1252411946522922376",
        1
      ]
    ],
    [
      [
        "0x1caf970b805108777b22734e25a44b3f20367bba4d21fd00e3bd340002d19650",
        "0xa28981f12f3c09ef10d516bf01445ea2c35d6f614f35dae88bd686a2809a4fe7",
        "0xa331ee7e68258f1037288bc351bb4301e457488ac4fcd1e95ffe408de1fdba24",
        "0x335266d4c2f5127b68affdca5a120ab52786df009b4d107e3b20ea18b6e222d5",
        "0x46b3da60587807dad48c9cc6c492abeafcbe4bff47a1310219d855d13b200732"
      ],
      [
        2801,
        "0xf75a67d060f28f269d3f7a51fdb2859e7d6a4d78",
        "621446639992905320519",
        2
      ]
    ],
    [
      [
        "0xa6eb882874dd66d17776af54a2c37367dc57c628f33e8cb672c0c8a9b73098af",
        "0x5be601d126849d4caf5c16e63397257491bc2a9b1349eac11725042624bff5f7",
        "0xb6edc1983b156870f5a79c3d6a28c76d7916296339076609b95a35b36a7c32c2",
        "0x14e9973ad579b28f1abcaba02f4fd7e898719c0798384417e8dc7b6b7873390a",
        "0xbb5ffb48955298edf1a5d96fa32e50d9c59d16c9a5602745983b5f150fe05b0a"
      ],
      [
        2801,
        "0x437d15fad24dc5fe77384c34e24ee0b4c2607d79",
        "705911926615626499",
        1
      ]
    ],
    [
      [
        "0x2cb6d80580d3e637d05825cadeeda08fe9b0878efc498a6f759f2f9969214ed4",
        "0x5e5cff8d3f11850cfacfca2b2df2c64e989b1fa6b49d9b76e59cccb95bf37a6a",
        "0xa331ee7e68258f1037288bc351bb4301e457488ac4fcd1e95ffe408de1fdba24",
        "0x335266d4c2f5127b68affdca5a120ab52786df009b4d107e3b20ea18b6e222d5",
        "0x46b3da60587807dad48c9cc6c492abeafcbe4bff47a1310219d855d13b200732"
      ],
      [
        2801,
        "0xd88833424225068867309e0ec02999883c14dc77",
        "351264829940695941099",
        2
      ]
    ],
    [
      [
        "0x64158ff0d16914537fd69e4111a83cf928e5f03969dd12dcf425f8e8422b4379",
        "0xcc517da19ae82230e62fd1100813f572891e4625e1264505ae09f83c927df0bb",
        "0xefcc497e5e5eae4c5ab254c9ab05de9d6f60028df555f345235c97c71b422476",
        "0xee617403586a0cd094d93561dc77237fc537fccfec81b580cb2ab6ded489ebf3",
        "0x46b3da60587807dad48c9cc6c492abeafcbe4bff47a1310219d855d13b200732"
      ],
      [
        2801,
        "0x526e10f59b79d4e434d367f30a5cf6aa49641642",
        "613232927308506620",
        1
      ]
    ],
    [
      [
        "0x7b29877453ae6f60632b91d91a879fab4f6682600a7f49bb9a96a6ab46a82c72",
        "0xedcd54fe72ac7a6f3bdda4473516e4024ae85b282b8b863f99b6c4e0c56c4313",
        "0xefcc497e5e5eae4c5ab254c9ab05de9d6f60028df555f345235c97c71b422476",
        "0xee617403586a0cd094d93561dc77237fc537fccfec81b580cb2ab6ded489ebf3",
        "0x46b3da60587807dad48c9cc6c492abeafcbe4bff47a1310219d855d13b200732"
      ],
      [
        2801,
        "0x07acc8fe6affb0bd54ec19acb6d27c2f87ae8f63",
        "305626643260760655905",
        2
      ]
    ],
    [
      [
        "0xe904b938d60aed6cc54f83e613984f2334355bbf79d8443ad4d3839bfec9708c",
        "0x8784f69f18d8f585dcdb2fee5e58d6f4bf146405ecbb36ca3a4c955ecf643834",
        "0x84b5c512caef3e49bdd327809d07192ac5b791265655f04be21b2ed17a8427c0",
        "0xac42a23a33bd14e726224be6f493699e753f2d9bef7ffe890406698d51a4bd33",
        "0xbb5ffb48955298edf1a5d96fa32e50d9c59d16c9a5602745983b5f150fe05b0a"
      ],
      [
        2801,
        "0xf0b444bdc5522e908ff903e3f1730b5ab60b610a",
        "605996202452204724773",
        1
      ]
    ],
    [
      [
        "0x47296d8cb5f071b79e73cc411fc18363ff16388b55118b5120ca66ebde2d00fc",
        "0xdfa13e18474c11990a906faab87c775713b48845d2d218b1efa45b0ca2246681",
        "0x8e08d147f8e07a42d00d0a3e49a07f8cdb1e794339214c094873ebfa1ed3d29d",
        "0xee617403586a0cd094d93561dc77237fc537fccfec81b580cb2ab6ded489ebf3",
        "0x46b3da60587807dad48c9cc6c492abeafcbe4bff47a1310219d855d13b200732"
      ],
      [
        2801,
        "0x07f5053c867ae107db15a38aa4421b2c24ac4e51",
        "2423984809808818899534",
        2
      ]
    ],
    [
      [
        "0x165d04706f414a0b587b95b2899ca5ad1fc45ed19243dcb7c8b2552d823dc9eb",
        "0x99f92bf128aab2117c7b574cd369474f71ee488d642fd789dd59dbaa9ae45b62",
        "0x55241f5078d277a79cb52821b736dd2570196ae5e4af07055d3df0672b93026e",
        "0x335266d4c2f5127b68affdca5a120ab52786df009b4d107e3b20ea18b6e222d5",
        "0x46b3da60587807dad48c9cc6c492abeafcbe4bff47a1310219d855d13b200732"
      ],
      [
        2801,
        "0xf206f9b8bda82301c19a67b3d272f060bbe51e02",
        "3678662665601568",
        1
      ]
    ],
    [
      [
        "0x7bdde06453877aca96adf62d04e63c1eacfc39f8ef82575ed3b93ebd9dc93ae7",
        "0x40ce1d1170a5b58f4287a47c38a0dc75d674d215ab17c657c7caad6051ec84f2",
        "0x38806fef5fbae982f97c6b792c74114d53fc2e73b2a15f3178aa5129a8d97794",
        "0x14e9973ad579b28f1abcaba02f4fd7e898719c0798384417e8dc7b6b7873390a",
        "0xbb5ffb48955298edf1a5d96fa32e50d9c59d16c9a5602745983b5f150fe05b0a"
      ],
      [
        2801,
        "0x11cef138b1ee96a481dc040842433bfc5229ad70",
        "14714650662406300",
        2
      ]
    ],
    [
      [
        "0xf49ded38dd76f9109925ae635e80b59b2306d7a688699808cbfee31d7db4b13c",
        "0x0642fb7d6be99bef266269094a4d433e83f4f81c95e35a9258220b71526d7857",
        "0xdd2fa3af340986b3957367fb5306d15142feb98c07c91fd5614f61a6b8a51111",
        "0x55241f5078d277a79cb52821b736dd2570196ae5e4af07055d3df0672b93026e",
        "0x335266d4c2f5127b68affdca5a120ab52786df009b4d107e3b20ea18b6e222d5",
        "0x46b3da60587807dad48c9cc6c492abeafcbe4bff47a1310219d855d13b200732"
      ],
      [
        2801,
        "0xca84d6086c5b32212a0cf1638803355d7be31482",
        "505169089473465030086",
        1
      ]
    ],
    [
      [
        "0x8b6c3c09df8fbc88b8e9bd04a6fd52bcb54441ed133593cb80115897b041e601",
        "0x5fd0a3b16e05e6e426ca7c7e9850210b951fef54b467b8903a249c380ec19c12",
        "0x38806fef5fbae982f97c6b792c74114d53fc2e73b2a15f3178aa5129a8d97794",
        "0x14e9973ad579b28f1abcaba02f4fd7e898719c0798384417e8dc7b6b7873390a",
        "0xbb5ffb48955298edf1a5d96fa32e50d9c59d16c9a5602745983b5f150fe05b0a"
      ],
      [
        2801,
        "0x55fcf7806f556204141fe90fbe9ce6207d9c52ac",
        "2020676357893860120772",
        2
      ]
    ],
    [
      [
        "0x30bc76a31a95512d6349f6b897c35d6a4986f343129ccf1bb7cc7440d1d4fe71",
        "0x09fc3e4dc8f0fc2c2913ebba80f5d2e41fa711de6065612cf5b5e4eacae345e7",
        "0x8e08d147f8e07a42d00d0a3e49a07f8cdb1e794339214c094873ebfa1ed3d29d",
        "0xee617403586a0cd094d93561dc77237fc537fccfec81b580cb2ab6ded489ebf3",
        "0x46b3da60587807dad48c9cc6c492abeafcbe4bff47a1310219d855d13b200732"
      ],
      [
        2801,
        "0x1d415d28380ff51a507f7b176ca5f27833f7fffd",
        "256885108264014462530",
        1
      ]
    ],
    [
      [
        "0x4693f16927ff9897967e2bf19e587faf0d4da3aae73e65d8d21db70fcd64dd87",
        "0xdfa13e18474c11990a906faab87c775713b48845d2d218b1efa45b0ca2246681",
        "0x8e08d147f8e07a42d00d0a3e49a07f8cdb1e794339214c094873ebfa1ed3d29d",
        "0xee617403586a0cd094d93561dc77237fc537fccfec81b580cb2ab6ded489ebf3",
        "0x46b3da60587807dad48c9cc6c492abeafcbe4bff47a1310219d855d13b200732"
      ],
      [
        2801,
        "0xb849b93b585effb7ce4b522ff88d9b3b24955f24",
        "1027540433056057850442",
        2
      ]
    ],
    [
      [
        "0xb34b5e3cccacf5fcb1b699db479242e4a9a8fb306b2147f680d2d969adfdae76",
        "0xfe8646c759104d10c117adf67af15b0a180cca81af040d002f24f241a99a853f",
        "0xdc9ed1120b16d522d4e8ede0853c589c8659f2e56b1be6e7acebc68e4d2c1a62",
        "0xac42a23a33bd14e726224be6f493699e753f2d9bef7ffe890406698d51a4bd33",
        "0xbb5ffb48955298edf1a5d96fa32e50d9c59d16c9a5602745983b5f150fe05b0a"
      ],
      [
        2801,
        "0xc6cb03a22213a3e02186a3126d47c7fba20e4ef5",
        "708295430720134601232",
        1
      ]
    ],
    [
      [
        "0x3230f8d1c5e97bc7ef8e90fc63e43ddd961c772ef58a29ade6d5f6e0ccfbdfb0",
        "0x09fc3e4dc8f0fc2c2913ebba80f5d2e41fa711de6065612cf5b5e4eacae345e7",
        "0x8e08d147f8e07a42d00d0a3e49a07f8cdb1e794339214c094873ebfa1ed3d29d",
        "0xee617403586a0cd094d93561dc77237fc537fccfec81b580cb2ab6ded489ebf3",
        "0x46b3da60587807dad48c9cc6c492abeafcbe4bff47a1310219d855d13b200732"
      ],
      [
        2801,
        "0xabaa1718c2d80fc037bf66e3f66f0975d67431a9",
        "2833181722880538405438",
        2
      ]
    ],
    [
      [
        "0x83f4353e21560ccc9e2f4039cc2b80d60a8ee7aa0921172a656992dc470b8afb",
        "0x40ce1d1170a5b58f4287a47c38a0dc75d674d215ab17c657c7caad6051ec84f2",
        "0x38806fef5fbae982f97c6b792c74114d53fc2e73b2a15f3178aa5129a8d97794",
        "0x14e9973ad579b28f1abcaba02f4fd7e898719c0798384417e8dc7b6b7873390a",
        "0xbb5ffb48955298edf1a5d96fa32e50d9c59d16c9a5602745983b5f150fe05b0a"
      ],
      [
        2801,
        "0xa6a088c1036f4fd6f022d52630842e19f90405ed",
        "4889595991314775",
        1
      ]
    ],
    [
      [
        "0xdbea222d892bcc19c2668ff494bc799f3cea18b44ec614efa2ba700b912c8152",
        "0xdd2fa3af340986b3957367fb5306d15142feb98c07c91fd5614f61a6b8a51111",
        "0x55241f5078d277a79cb52821b736dd2570196ae5e4af07055d3df0672b93026e",
        "0x335266d4c2f5127b68affdca5a120ab52786df009b4d107e3b20ea18b6e222d5",
        "0x46b3da60587807dad48c9cc6c492abeafcbe4bff47a1310219d855d13b200732"
      ],
      [
        2801,
        "0xddef1deac28e2d91f3d3c682c737cc0ef8489aba",
        "19558383965259175",
        2
      ]
    ],
    [
      [
        "0x2617b846e80d3fb2a398438911dc0f19ed48a956c9c4a3bf48ca5b8e1b458af1",
        "0x5e5cff8d3f11850cfacfca2b2df2c64e989b1fa6b49d9b76e59cccb95bf37a6a",
        "0xa331ee7e68258f1037288bc351bb4301e457488ac4fcd1e95ffe408de1fdba24",
        "0x335266d4c2f5127b68affdca5a120ab52786df009b4d107e3b20ea18b6e222d5",
        "0x46b3da60587807dad48c9cc6c492abeafcbe4bff47a1310219d855d13b200732"
      ],
      [
        2801,
        "0x0dd018692f98a7894ecc7ba90cfb8f93a19159d3",
        "16348935791376555370",
        1
      ]
    ],
    [
      [
        "0xa92863846be0058984d2720927d95e5a0ba84e314fe2316595e9e67bd2e87472",
        "0x5be601d126849d4caf5c16e63397257491bc2a9b1349eac11725042624bff5f7",
        "0xb6edc1983b156870f5a79c3d6a28c76d7916296339076609b95a35b36a7c32c2",
        "0x14e9973ad579b28f1abcaba02f4fd7e898719c0798384417e8dc7b6b7873390a",
        "0xbb5ffb48955298edf1a5d96fa32e50d9c59d16c9a5602745983b5f150fe05b0a"
      ],
      [
        2801,
        "0x612cff400ee27c91b956c45f4c50e61b55312430",
        "65395743165506221597",
        2
      ]
    ]
  ],
  "noOfWeightBasedClaims": 16,
  "merkleRoot": "0x6797d193f95bd0bd1dba3c8659106bd68cf647ff1a8e4322c9ca62f93b903363",
  "abi": {
    "components": [
      {
        "internalType": "uint24",
        "name": "rewardEpochId",
        "type": "uint24"
      },
      {
        "internalType": "bytes20",
        "name": "beneficiary",
        "type": "bytes20"
      },
      {
        "internalType": "uint120",
        "name": "amount",
        "type": "uint120"
      },
      {
        "internalType": "enum IRewardManager.ClaimType",
        "name": "claimType",
        "type": "uint8"
      }
    ],
    "internalType": "struct IRewardManager.RewardClaim",
    "name": "_claim",
    "type": "tuple"
  }
}