{
  "rewardEpochId": 2804,
  "rewardClaims": [
    [
      [
        "0xc619bdbb6a2fa757c23b0661e15dcba2a131fb3622c388ad02c71669e1e7e93b",
        "0xc3dc8ceef78f4a6fc561d4ea449bbcc6b5808e47b26b2329c2c7f312aa7d7816",
        "0x29a549f0e1e7e60d941e88e5f44a54378db3de9e830cf680869ed4769be58b28",
        "0x80bbcc9f25ff32a2b0968273f4e9ec3b7f7e4d74ac05ca9598e99553d61ceaca",
        "0x48f87fc8cc16d62da412d529b9c6842188c89c919a854a70fb8b368ad9a731ab"
      ],
      [
        2804,
        "0x000000000000000000000000000000000000dead",
        "15819767960442842300510",
        0
      ]
    ],
    [
      [
        "0xa16682b71eb520ef57cdf7c16eff003208ba7e0e0638a367561d201e16a40602",
        "0x8a9ff87fe1139a71910db067cb19684a3d9ed5be386a9e3fff5e2f31fd2b2c69",
        "0x813685aa81845c596afc292718684f9afff07ac81c8a9d2dad9d750f1ccf9aa7",
        "0x1413f083bef131a032414b84028beb99638aab63f04b91e066d0b4bb2e34b1ae",
        "0x48f87fc8cc16d62da412d529b9c6842188c89c919a854a70fb8b368ad9a731ab"
      ],
      [
        2804,
        "0x9181f8ed4381ce39dbf4b8336b6295de89527c46",
        "1333812474055157613",
        1
      ]
    ],
    [
      [
        "0xf7752a5d1ea3b7d134e45e6243050b742e6a2aa7981b972715dfe6e5d00c482a",
        "0x05edab58c8de198001402fda4acf912968fea89600a0ddb042aae73a4d5e0ab8",
        "0xfd206fea61f7e7940f0375166411942b46f220d43d7834bcef5014ae8776d4e4",
        "0x1d3bac3db6ddba080bfd9fb961fdbbfdaeb0b567eb78d9d0a96553f40c5ecad7",
        "0x5e489ec64e732429f3352c4b549500be4b1219442f3607572589bbfe3acd39f0",
        "0x536c4b9cf7d3e95bae614028182432e0c0fbaf2d32ddf0bd6fc4520e94129a8b"
      ],
      [
        2804,
        "0x884cde7b5f2f0a9ee28f90ce1d4aa526373b3e2c",
        "664620817213834270256",
        2
      ]
    ],
    [
      [
        "0x6803845367393f23e646f28cc52b305116e33cca4377dffd011988cd63b203b0",
        "0x204e5d0a8acb87f2cdef4869f258568018de9d490839e84a58969d62e573c76e",
        "0x3843a56d2df9915098385b8d20619680bf78a038fe0594a98e3ea588425709de",
        "0x01c2250cd543f61e05d0c0f6f4d82d3c3124f60fb43b8aa6a56807620bc43d56",
        "0x536c4b9cf7d3e95bae614028182432e0c0fbaf2d32ddf0bd6fc4520e94129a8b"
      ],
      [
        2804,
        "0x0bed169e74037b66a2e1c1a4937c285057773dbb",
        "4619732310367990871",
        1
      ]
    ],
    [
      [
        "0x4b0731f1c1825ce2302702510c37ad5a1dfc94fb3b53e3e866094dd976e6b321",
        "0x5562ad494335d1f47d6560767449345db1656b52b6918988577a6ce1b88f5159",
        "0xb6bb700b297fb2dec96c84ed3cdb1bde73185b75a443c1ecd6b7f6264ad22252",
        "0x01c2250cd543f61e05d0c0f6f4d82d3c3124f60fb43b8aa6a56807620bc43d56",
        "0x536c4b9cf7d3e95bae614028182432e0c0fbaf2d32ddf0bd6fc4520e94129a8b"
      ],
      [
        2804,
        "0xbc9a659af696a4d7375b104db8e5189b54f9d2b3",
        "2289828871454083431850",
        2
      ]
    ],
    [
      [
        "0x2e6bf80aa43a1e8c9c704910297cc1324e989b0a3124642f0617a0d91c444f1c",
        "0xa9e9e6551d3a236b373e97b30316c954b605ae8699401e9d597e509ea755cb88",
        "0xf230eb9b81c9f671ddc312b1148dd2d8287c535e884c5b7fa32542dfe5d5a5ad",
        "0x5e489ec64e732429f3352c4b549500be4b1219442f3607572589bbfe3acd39f0",
        "0x536c4b9cf7d3e95bae614028182432e0c0fbaf2d32ddf0bd6fc4520e94129a8b"
      ],
      [
        2804,
        "0x25f42def3fcc078de8895cd01de8ab6514020548",
        "2328956931497753086",
        1
      ]
    ],
    [
      [
        "0x68e0213957a5c0f041b9b9839d476121ec588a1e083c27eb4943c86d792db0cf",
        "0x70d0d11f9167f01166ce19120f5b29d6059590382f6057fdb93920f78dd2d4f2",
        "0xc194135e9e3782c92be78da7d88b1b0aea6b56325d2f4ce076ca7f5f84a2c894",
        "0x1413f083bef131a032414b84028beb99638aab63f04b91e066d0b4bb2e34b1ae",
        "0x48f87fc8cc16d62da412d529b9c6842188c89c919a854a70fb8b368ad9a731ab"
      ],
      [
        2804,
        "0x256194ca4884dbe2933862f0e9f7e0e4d411eb35",
        "1137354945423965891788",
        2
      ]
    ],
    [
      [
        "0xcdc1906d6f04b44d28de7047da636f0fdfae417940688041f2dabd3d6a7b0090",
        "0x9acf4be01d7efa89a8bdb3ba45d8c448196221f2da68f13d30d3ab8257080cb9",
        "0x216083d6494371790f861a15a76d5e07376c6c6fc4bb638b36c10dbf68d85e4a",
        "0x80bbcc9f25ff32a2b0968273f4e9ec3b7f7e4d74ac05ca9598e99553d61ceaca",
        "0x48f87fc8cc16d62da412d529b9c6842188c89c919a854a70fb8b368ad9a731ab"
      ],
      [
        2804,
        "0xadf3a9a6494b8c1a24f0eec5d44a388afc10df09",
        "12143875519697254984",
        1
      ]
    ],
    [
      [
        "0x415de1c47816bca103fd9f5f6275334013d9e41c3a3483affe0d2fa42cb01a0f",
        "0x670a5269ac87bae5fce81085cd3ef1aa27f1faff611f831c8ba1fbb80be05fbf",
        "0xb6bb700b297fb2dec96c84ed3cdb1bde73185b75a443c1ecd6b7f6264ad22252",
        "0x01c2250cd543f61e05d0c0f6f4d82d3c3124f60fb43b8aa6a56807620bc43d56",
        "0x536c4b9cf7d3e95bae614028182432e0c0fbaf2d32ddf0bd6fc4520e94129a8b"
      ],
      [
        2804,
        "0xf75a67d060f28f269d3f7a51fdb2859e7d6a4d78",
        "670492141083324500056",
        2
      ]
    ],
    [
      [
        "0xa615dc889144043d57d164cd712ccae290b4c47b06435399a0b4e9266a5a0cc6",
        "0x714a31767a11e41f6b19607b1809be3d9c96dd3823953fcd0bcc04c4ecb40cf3",
        "0x29a549f0e1e7e60d941e88e5f44a54378db3de9e830cf680869ed4769be58b28",
        "0x80bbcc9f25ff32a2b0968273f4e9ec3b7f7e4d74ac05ca9598e99553d61ceaca",
        "0x48f87fc8cc16d62da412d529b9c6842188c89c919a854a70fb8b368ad9a731ab"
      ],
      [
        2804,
        "0x437d15fad24dc5fe77384c34e24ee0b4c2607d79",
        "691407685831681603",
        1
      ]
    ],
    [
      [
        "0x268186036c5a3c4284b98bd867c7f26ffd7b25f0ecfcfe57ce1a7323fd7e11fc",
        "0x2c9a268e638fdf56da48340660dbe9d4cafbcb6eff4f767509564f1b4f9040a7",
        "0xf230eb9b81c9f671ddc312b1148dd2d8287c535e884c5b7fa32542dfe5d5a5ad",
        "0x5e489ec64e732429f3352c4b549500be4b1219442f3607572589bbfe3acd39f0",
        "0x536c4b9cf7d3e95bae614028182432e0c0fbaf2d32ddf0bd6fc4520e94129a8b"
      ],
      [
        2804,
        "0xd88833424225068867309e0ec02999883c14dc77",
        "344387640167326830871",
        2
      ]
    ],
    [
      [
        "0x66437ce2831c8d80497fa07f79c66a7d354ac97a37ce63f60fc53f02b89646eb",
        "0x204e5d0a8acb87f2cdef4869f258568018de9d490839e84a58969d62e573c76e",
        "0x3843a56d2df9915098385b8d20619680bf78a038fe0594a98e3ea588425709de",
        "0x01c2250cd543f61e05d0c0f6f4d82d3c3124f60fb43b8aa6a56807620bc43d56",
        "0x536c4b9cf7d3e95bae614028182432e0c0fbaf2d32ddf0bd6fc4520e94129a8b"
      ],
      [
        2804,
        "0x19b6fde072fd962dd191e5d17121a6733d7e1977",
        "2732386318084090636",
        1
      ]
    ],
    [
      [
        "0xef2f3d7fd113fbf3a8ff33cda6e4c452df08f0ea86d331583a8c487318277602",
        "0xfd206fea61f7e7940f0375166411942b46f220d43d7834bcef5014ae8776d4e4",
        "0x1d3bac3db6ddba080bfd9fb961fdbbfdaeb0b567eb78d9d0a96553f40c5ecad7",
        "0x5e489ec64e732429f3352c4b549500be4b1219442f3607572589bbfe3acd39f0",
        "0x536c4b9cf7d3e95bae614028182432e0c0fbaf2d32ddf0bd6fc4520e94129a8b"
      ],
      [
        2804,
        "0x9faacf0334c62fcd9b2ead3dde72febce796859d",
        "1363460772723968171480",
        2
      ]
    ],
    [
      [
        "0x80db8d0cebb07656e3d8016fdf12610e370f90e550ff8913c581b1e20a5efb97",
        "0x901aa02e60992357cd6efdcc1c98d1ff36a87f31fb831901b312691a6b970e0b",
        "0xc194135e9e3782c92be78da7d88b1b0aea6b56325d2f4ce076ca7f5f84a2c894",
        "0x1413f083bef131a032414b84028beb99638aab63f04b91e066d0b4bb2e34b1ae",
        "0x48f87fc8cc16d62da412d529b9c6842188c89c919a854a70fb8b368ad9a731ab"
      ],
      [
        2804,
        "0xca84d6086c5b32212a0cf1638803355d7be31482",
        "458104081235291419325",
        1
      ]
    ],
    [
      [
        "0x50f9fdeb6fd97fd88c6208a6373ff97965467753d46eab0ab337872a0429c49b",
        "0x5562ad494335d1f47d6560767449345db1656b52b6918988577a6ce1b88f5159",
        "0xb6bb700b297fb2dec96c84ed3cdb1bde73185b75a443c1ecd6b7f6264ad22252",
        "0x01c2250cd543f61e05d0c0f6f4d82d3c3124f60fb43b8aa6a56807620bc43d56",
        "0x536c4b9cf7d3e95bae614028182432e0c0fbaf2d32ddf0bd6fc4520e94129a8b"
      ],
      [
        2804,
        "0x55fcf7806f556204141fe90fbe9ce6207d9c52ac",
        "1832416324941165677508",
        2
      ]
    ],
    [
      [
        "0x27a76cc4f0cc0081212dbb397ab7870fd1f8af1bc5d7c09c47941ae15626b5f0",
        "0x2c9a268e638fdf56da48340660dbe9d4cafbcb6eff4f767509564f1b4f9040a7",
        "0xf230eb9b81c9f671ddc312b1148dd2d8287c535e884c5b7fa32542dfe5d5a5ad",
        "0x5e489ec64e732429f3352c4b549500be4b1219442f3607572589bbfe3acd39f0",
        "0x536c4b9cf7d3e95bae614028182432e0c0fbaf2d32ddf0bd6fc4520e94129a8b"
      ],
      [
        2804,
        "0x1d415d28380ff51a507f7b176ca5f27833f7fffd",
        "201703731041627209387",
        1
      ]
    ],
    [
      [
        "0xc81545a217cba9d4ed27a6634887a3acba3edf718abe6345173aa3d04291d7e8",
        "0x726afbea17d459c12ef51163b479b4453c880d5e8d24e1ae002129fb4707a77f",
        "0x216083d6494371790f861a15a76d5e07376c6c6fc4bb638b36c10dbf68d85e4a",
        "0x80bbcc9f25ff32a2b0968273f4e9ec3b7f7e4d74ac05ca9598e99553d61ceaca",
        "0x48f87fc8cc16d62da412d529b9c6842188c89c919a854a70fb8b368ad9a731ab"
      ],
      [
        2804,
        "0xb849b93b585effb7ce4b522ff88d9b3b24955f24",
        "806814924166508837883",
        2
      ]
    ],
    [
      [
        "0x140595c86e163c8aedd4c0b33a8341d11ee308ad7486ab1246ed08bce70582f5",
        "0x50ea4e22cd4e8f6168d0773985a4e09425790fafc500ca79cf344a19dc606b9b",
        "0x1d3bac3db6ddba080bfd9fb961fdbbfdaeb0b567eb78d9d0a96553f40c5ecad7",
        "0x5e489ec64e732429f3352c4b549500be4b1219442f3607572589bbfe3acd39f0",
        "0x536c4b9cf7d3e95bae614028182432e0c0fbaf2d32ddf0bd6fc4520e94129a8b"
      ],
      [
        2804,
        "0xf0b444bdc5522e908ff903e3f1730b5ab60b610a",
        "591778080796956594166",
        1
      ]
    ],
    [
      [
        "0x9ca3f8a486d40abe07e5faf351551cafa32a9977d56c2ecb10b8bfc15ea3e5cb",
        "0x9863dfb2c643df7c235e35d728e7073c0ba6e72c3f5a0a4768fde68d7a4398d7",
        "0x813685aa81845c596afc292718684f9afff07ac81c8a9d2dad9d750f1ccf9aa7",
        "0x1413f083bef131a032414b84028beb99638aab63f04b91e066d0b4bb2e34b1ae",
        "0x48f87fc8cc16d62da412d529b9c6842188c89c919a854a70fb8b368ad9a731ab"
      ],
      [
        2804,
        "0x07f5053c867ae107db15a38aa4421b2c24ac4e51",
        "2367112323187826377172",
        2
      ]
    ],
    [
      [
        "0x85312d6316fa2231992153efef407f4c55052fb3ecc7efa8beb82dc8e8767bac",
        "0x901aa02e60992357cd6efdcc1c98d1ff36a87f31fb831901b312691a6b970e0b",
        "0xc194135e9e3782c92be78da7d88b1b0aea6b56325d2f4ce076ca7f5f84a2c894",
        "0x1413f083bef131a032414b84028beb99638aab63f04b91e066d0b4bb2e34b1ae",
        "0x48f87fc8cc16d62da412d529b9c6842188c89c919a854a70fb8b368ad9a731ab"
      ],
      [
        2804,
        "0xc6cb03a22213a3e02186a3126d47c7fba20e4ef5",
        "615327158576239914599",
        1
      ]
    ],
    [
      [
        "0x3595951d13e269e21dc6f9213d0e06319b91dd82867570389050c7232e6ec908",
        "0xa9e9e6551d3a236b373e97b30316c954b605ae8699401e9d597e509ea755cb88",
        "0xf230eb9b81c9f671ddc312b1148dd2d8287c535e884c5b7fa32542dfe5d5a5ad",
        "0x5e489ec64e732429f3352c4b549500be4b1219442f3607572589bbfe3acd39f0",
        "0x536c4b9cf7d3e95bae614028182432e0c0fbaf2d32ddf0bd6fc4520e94129a8b"
      ],
      [
        2804,
        "0xabaa1718c2d80fc037bf66e3f66f0975d67431a9",
        "2461308634304959658870",
        2
      ]
    ],
    [
      [
        "0x898283c1054570ebbd2abb949e290e73b341edd5ba018187d066d90814c3200d",
        "0x9863dfb2c643df7c235e35d728e7073c0ba6e72c3f5a0a4768fde68d7a4398d7",
        "0x813685aa81845c596afc292718684f9afff07ac81c8a9d2dad9d750f1ccf9aa7",
        "0x1413f083bef131a032414b84028beb99638aab63f04b91e066d0b4bb2e34b1ae",
        "0x48f87fc8cc16d62da412d529b9c6842188c89c919a854a70fb8b368ad9a731ab"
      ],
      [
        2804,
        "0x2e46e8d1f3636f7036978d054b0a07e7395053c8",
        "577844950016864211256",
        1
      ]
    ],
    [
      [
        "0x7c405882fdf2a5a2517ec6ab9d9e91a7c5501aec2797f8399ccbb7faf5da01d9",
        "0x70d0d11f9167f01166ce19120f5b29d6059590382f6057fdb93920f78dd2d4f2",
        "0xc194135e9e3782c92be78da7d88b1b0aea6b56325d2f4ce076ca7f5f84a2c894",
        "0x1413f083bef131a032414b84028beb99638aab63f04b91e066d0b4bb2e34b1ae",
        "0x48f87fc8cc16d62da412d529b9c6842188c89c919a854a70fb8b368ad9a731ab"
      ],
      [
        2804,
        "0xe80c39eae57c0359ee6c4086e2b22300353728e1",
        "2311379800067456845441",
        2
      ]
    ],
    [
      [
        "0xdaa9d088393a723fd662cdd7e695ee54f41cfb2a8b14b972f2f11e5d49c4ceb6",
        "0x9acf4be01d7efa89a8bdb3ba45d8c448196221f2da68f13d30d3ab8257080cb9",
        "0x216083d6494371790f861a15a76d5e07376c6c6fc4bb638b36c10dbf68d85e4a",
        "0x80bbcc9f25ff32a2b0968273f4e9ec3b7f7e4d74ac05ca9598e99553d61ceaca",
        "0x48f87fc8cc16d62da412d529b9c6842188c89c919a854a70fb8b368ad9a731ab"
      ],
      [
        2804,
        "0xf355c48aab6ac9f6ed4e1750a34690f4d28cb30e",
        "6112540017602703059",
        1
      ]
    ],
    [
      [
        "0xad1dde36c391d7d645f758bc75e005b13eebe0a96e0acf40466453fc6d60f032",
        "0x714a31767a11e41f6b19607b1809be3d9c96dd3823953fcd0bcc04c4ecb40cf3",
        "0x29a549f0e1e7e60d941e88e5f44a54378db3de9e830cf680869ed4769be58b28",
        "0x80bbcc9f25ff32a2b0968273f4e9ec3b7f7e4d74ac05ca9598e99553d61ceaca",
        "0x48f87fc8cc16d62da412d529b9c6842188c89c919a854a70fb8b368ad9a731ab"
      ],
      [
        2804,
        "0xb13a59ecfbbec4d4539be101c5f15521ca23c8ee",
        "359871271298528702020",
        2
      ]
    ],
    [
      [
        "0x511296ff8ea0eedec2ef91fd960462a53ffb51347442f865949d0612fb1b2d7f",
        "0xd5fc1882425ba8a841817570e6b607bf1b0e1859a0c49d77e11b9d850e3a651b",
        "0x3843a56d2df9915098385b8d20619680bf78a038fe0594a98e3ea588425709de",
        "0x01c2250cd543f61e05d0c0f6f4d82d3c3124f60fb43b8aa6a56807620bc43d56",
        "0x536c4b9cf7d3e95bae614028182432e0c0fbaf2d32ddf0bd6fc4520e94129a8b"
      ],
      [
        2804,
        "0x0dd018692f98a7894ecc7ba90cfb8f93a19159d3",
        "27497896655131215",
        1
      ]
    ],
    [
      [
        "0xba772b4cff453e1f05df1c0760beb1fec76dd4f87b54c075610ff541641e33ef",
        "0xc3dc8ceef78f4a6fc561d4ea449bbcc6b5808e47b26b2329c2c7f312aa7d7816",
        "0x29a549f0e1e7e60d941e88e5f44a54378db3de9e830cf680869ed4769be58b28",
        "0x80bbcc9f25ff32a2b0968273f4e9ec3b7f7e4d74ac05ca9598e99553d61ceaca",
        "0x48f87fc8cc16d62da412d529b9c6842188c89c919a854a70fb8b368ad9a731ab"
      ],
      [
        2804,
        "0x612cff400ee27c91b956c45f4c50e61b55312430",
        "109991586620525101",
        2
      ]
    ],
    [
      [
        "0xa1a327d2aa2f69dfc5835277e4e545adf89c5e16f9ced47b4dbc18d386ca9415",
        "0x8a9ff87fe1139a71910db067cb19684a3d9ed5be386a9e3fff5e2f31fd2b2c69",
        "0x813685aa81845c596afc292718684f9afff07ac81c8a9d2dad9d750f1ccf9aa7",
        "0x1413f083bef131a032414b84028beb99638aab63f04b91e066d0b4bb2e34b1ae",
        "0x48f87fc8cc16d62da412d529b9c6842188c89c919a854a70fb8b368ad9a731ab"
      ],
      [
        2804,
        "0xa6a088c1036f4fd6f022d52630842e19f90405ed",
        "11425753324070014598",
        1
      ]
    ],
    [
      [
        "0xf1a87d2b3b498c9b16eb027112c5a2dc593140671e8e426a014ad6963d023584",
        "0x05edab58c8de198001402fda4acf912968fea89600a0ddb042aae73a4d5e0ab8",
        "0xfd206fea61f7e7940f0375166411942b46f220d43d7834bcef5014ae8776d4e4",
        "0x1d3bac3db6ddba080bfd9fb961fdbbfdaeb0b567eb78d9d0a96553f40c5ecad7",
        "0x5e489ec64e732429f3352c4b549500be4b1219442f3607572589bbfe3acd39f0",
        "0x536c4b9cf7d3e95bae614028182432e0c0fbaf2d32ddf0bd6fc4520e94129a8b"
      ],
      [
        2804,
        "0xddef1deac28e2d91f3d3c682c737cc0ef8489aba",
        "45703013296280058547",
        2
      ]
    ],
    [
      [
        "0x409fe1bfa24e1dddc36fab37f95b416f0d88519c210a7f73081da44b88358218",
        "0x670a5269ac87bae5fce81085cd3ef1aa27f1faff611f831c8ba1fbb80be05fbf",
        "0xb6bb700b297fb2dec96c84ed3cdb1bde73185b75a443c1ecd6b7f6264ad22252",
        "0x01c2250cd543f61e05d0c0f6f4d82d3c3124f60fb43b8aa6a56807620bc43d56",
        "0x536c4b9cf7d3e95bae614028182432e0c0fbaf2d32ddf0bd6fc4520e94129a8b"
      ],
      [
        2804,
        "0xf206f9b8bda82301c19a67b3d272f060bbe51e02",
        "4755679672446457",
        1
      ]
    ],
    [
      [
        "0x0f214a8846fa1cd861e80a452bccada2dd129eddebc398b7154fdc41348d7188",
        "0x50ea4e22cd4e8f6168d0773985a4e09425790fafc500ca79cf344a19dc606b9b",
        "0x1d3bac3db6ddba080bfd9fb961fdbbfdaeb0b567eb78d9d0a96553f40c5ecad7",
        "0x5e489ec64e732429f3352c4b549500be4b1219442f3607572589bbfe3acd39f0",
        "0x536c4b9cf7d3e95bae614028182432e0c0fbaf2d32ddf0bd6fc4520e94129a8b"
      ],
      [
        2804,
        "0x11cef138b1ee96a481dc040842433bfc5229ad70",
        "19022718689785894",
        2
      ]
    ],
    [
      [
        "0x6358a0a0caf35255a42807bd68be4a7eae0b6116f543d63f8a4e191cb3a3a8c7",
        "0xd5fc1882425ba8a841817570e6b607bf1b0e1859a0c49d77e11b9d850e3a651b",
        "0x3843a56d2df9915098385b8d20619680bf78a038fe0594a98e3ea588425709de",
        "0x01c2250cd543f61e05d0c0f6f4d82d3c3124f60fb43b8aa6a56807620bc43d56",
        "0x536c4b9cf7d3e95bae614028182432e0c0fbaf2d32ddf0bd6fc4520e94129a8b"
      ],
      [
        2804,
        "0xc21db9cb4728b86ae69b4191afb47d410e265eac",
        "397115112737299",
        1
      ]
    ],
    [
      [
        "0xcc0c77004fcd535a49330cec2d044a78d9acb65d6b212f20c0ffd7f0062c6ffc",
        "0x726afbea17d459c12ef51163b479b4453c880d5e8d24e1ae002129fb4707a77f",
        "0x216083d6494371790f861a15a76d5e07376c6c6fc4bb638b36c10dbf68d85e4a",
        "0x80bbcc9f25ff32a2b0968273f4e9ec3b7f7e4d74ac05ca9598e99553d61ceaca",
        "0x48f87fc8cc16d62da412d529b9c6842188c89c919a854a70fb8b368ad9a731ab"
      ],
      [
        2804,
        "0xf5e53990e4e4c42356fcc96d86618728e0b602b6",
        "1588460450949241",
        2
      ]
    ]
  ],
  "noOfWeightBasedClaims": 16,
  "merkleRoot": "0xc50a283079c0a1edd00c78c2a70bbb523afdf8a50bd290bb0e43f8aaa73a0354",
  "abi": {
    "components": [
      {
        "internalType": "uint24",
        "name": "rewardEpochId",
        "type": "uint24"
      },
      {
        "internalType": "bytes20",
        "name": "beneficiary",
        "type": "bytes20"
      },
      {
        "internalType": "uint120",
        "name": "amount",
        "type": "uint120"
      },
      {
        "internalType": "enum IRewardManager.ClaimType",
        "name": "claimType",
        "type": "uint8"
      }
    ],
    "internalType": "struct IRewardManager.RewardClaim",
    "name": "_claim",
    "type": "tuple"
  }
}