{
  "rewardEpochId": 2834,
  "rewardClaims": [
    [
      [
        "0xac1a53467f315b8c143a8230a2dc211ed16a42988e2fc16d6037fcccc603da73",
        "0x82a1b64c4a3af64355265ab4c5ea84566aeb4832a12a45aa66f8319e22b9751f",
        "0x6fcd2893fcf668a4ac546bebffad0fb503d391a4996c273a8f669e8978198c7f",
        "0x0027ff804d1cde6633984943ff2bba3b411663edf30faff6a12a77bc52dcaa60",
        "0x1a02d7a1b274e45810eb588e0fa398146d7801fdc90ccc92baaaba5f15367f62"
      ],
      [
        2834,
        "0xf206f9b8bda82301c19a67b3d272f060bbe51e02",
        "11037965350471436",
        1
      ]
    ],
    [
      [
        "0xbc6494ef84f11e7a81ff98b959bae417e7ce17285b6809df09c363319d0c513b",
        "0x063a83642f539a7af3aad3f1d14e6d723a85cb8d86aaca56aee499aa03c81c3e",
        "0x6fcd2893fcf668a4ac546bebffad0fb503d391a4996c273a8f669e8978198c7f",
        "0x0027ff804d1cde6633984943ff2bba3b411663edf30faff6a12a77bc52dcaa60",
        "0x1a02d7a1b274e45810eb588e0fa398146d7801fdc90ccc92baaaba5f15367f62"
      ],
      [
        2834,
        "0x11cef138b1ee96a481dc040842433bfc5229ad70",
        "44151861401885843",
        2
      ]
    ],
    [
      [
        "0x25ebfa35026e14a19b2b2645ad3f49f013763b93092659db14f0a9d3d9222edc",
        "0x682e8d92d8f09dc0fb8f5438c8f30cfb8f6c24c06a9ed9feb0b5d8beecf62571",
        "0x0a67b0872e2653ab38a07323b1b80cc141f24576e25d071777def539005ffbca",
        "0x60f598f88a5469cce4bfe818cc62a359a93bb269c332bf1ca8f960e366349c09",
        "0x83028517e62d32aaf9bcc74ddf83b254133ec4eab3c6e42f1be07179e3a83df5"
      ],
      [
        2834,
        "0xca84d6086c5b32212a0cf1638803355d7be31482",
        "541956555618850302789",
        1
      ]
    ],
    [
      [
        "0x6105727508fa1708026375304ea69374aa52cc1f84dab7efe69f55183b48047d",
        "0x4529ba1095c9ec182f954f02d330bb768b76c2d36f9bcdcb77240022027a6a67",
        "0x2c330935acb59f4c0a6a141d8e4f1a809a46e761e0af83c10650c312e7fc7b95",
        "0x3636b5f8d71eac14ac80b9002da9639d664661179282d40709b0ab6327371a1e",
        "0x83028517e62d32aaf9bcc74ddf83b254133ec4eab3c6e42f1be07179e3a83df5"
      ],
      [
        2834,
        "0x55fcf7806f556204141fe90fbe9ce6207d9c52ac",
        "2167826222475401211854",
        2
      ]
    ],
    [
      [
        "0xa4d8511ce590bd3ed65468ffffbced0cc7ffc9d1cccd07bf09aedc7a93f54eb2",
        "0xcaf99ab02866f4644f18013b49684f23c138e66495239d85851b4440936c76fd",
        "0xef0dce16d3045d915d06098c6863fdba488a0688dc5f5b9a3e19d4bc92915278",
        "0xc99de39f9010257c9ad5a774804cddb0bb717080f5eca80e842fdba0cba53b98",
        "0x1a02d7a1b274e45810eb588e0fa398146d7801fdc90ccc92baaaba5f15367f62"
      ],
      [
        2834,
        "0x000000000000000000000000000000000000dead",
        "16354664022020824806210",
        0
      ]
    ],
    [
      [
        "0x439d6644f6af709f31c5e2b73534e530595b8e12d594c61de36631be10e56c5c",
        "0xe0a8ee47614c8f12f1d64810c61089a600234bc8fe53110cd0a1b9c491ac3ef8",
        "0x477839c58ea3b56e517a399315baa4b47f4a96eca0c30929bf42bd7f1678a52d",
        "0x3636b5f8d71eac14ac80b9002da9639d664661179282d40709b0ab6327371a1e",
        "0x83028517e62d32aaf9bcc74ddf83b254133ec4eab3c6e42f1be07179e3a83df5"
      ],
      [
        2834,
        "0x9181f8ed4381ce39dbf4b8336b6295de89527c46",
        "1345477849045065400",
        1
      ]
    ],
    [
      [
        "0xe30548413baaabff1c0f6d9b3cc98efe7f3562235a05f8180d9105cdf2d124bf",
        "0x0db29c365c8ffc42b9decfa836b9fd1a0c8c835694637a4f430aeac99346ac88",
        "0x5be864ab5c859f0fd25f600a26b33b2c4d8fe4e818f819549c3d8ff82b946672",
        "0xd6644dc378fbc6a7f09b37f8811b123d134e0747fe482cd4e4fd61cf2afac4c0",
        "0x60f598f88a5469cce4bfe818cc62a359a93bb269c332bf1ca8f960e366349c09",
        "0x83028517e62d32aaf9bcc74ddf83b254133ec4eab3c6e42f1be07179e3a83df5"
      ],
      [
        2834,
        "0x884cde7b5f2f0a9ee28f90ce1d4aa526373b3e2c",
        "670771321724756536442",
        2
      ]
    ],
    [
      [
        "0xbb68f68627025e969f2ce8d030b5085076f4cd719e761200da08d1248b0a4f5a",
        "0x5be864ab5c859f0fd25f600a26b33b2c4d8fe4e818f819549c3d8ff82b946672",
        "0xd6644dc378fbc6a7f09b37f8811b123d134e0747fe482cd4e4fd61cf2afac4c0",
        "0x60f598f88a5469cce4bfe818cc62a359a93bb269c332bf1ca8f960e366349c09",
        "0x83028517e62d32aaf9bcc74ddf83b254133ec4eab3c6e42f1be07179e3a83df5"
      ],
      [
        2834,
        "0xc6cb03a22213a3e02186a3126d47c7fba20e4ef5",
        "752252488451406873093",
        1
      ]
    ],
    [
      [
        "0x8703716823881c3471f467bc4d0f4d0689e3505bb6cbc7037fb5411f37f49a15",
        "0x51402e918ab639c0b5b11ca1e276f754690b09ea7686ddc3f5986abb65bdd1d7",
        "0xcd1c4eb6f760994055d8a59c8eb8a65fd95f9cc376cadf23ff2f91d75e1cb754",
        "0xc99de39f9010257c9ad5a774804cddb0bb717080f5eca80e842fdba0cba53b98",
        "0x1a02d7a1b274e45810eb588e0fa398146d7801fdc90ccc92baaaba5f15367f62"
      ],
      [
        2834,
        "0xabaa1718c2d80fc037bf66e3f66f0975d67431a9",
        "3009009953805627492977",
        2
      ]
    ],
    [
      [
        "0x5a7894e666d65a8137d260fa7cb87f61bb396c135f4201c17b339687738dca30",
        "0xfd66c2a61437f84ba5c6d988596268ddf59f5e6ec5194b7a10c94b66abb7d04d",
        "0x477839c58ea3b56e517a399315baa4b47f4a96eca0c30929bf42bd7f1678a52d",
        "0x3636b5f8d71eac14ac80b9002da9639d664661179282d40709b0ab6327371a1e",
        "0x83028517e62d32aaf9bcc74ddf83b254133ec4eab3c6e42f1be07179e3a83df5"
      ],
      [
        2834,
        "0x19b6fde072fd962dd191e5d17121a6733d7e1977",
        "1989882422429251417",
        1
      ]
    ],
    [
      [
        "0xa47e68bd56781f2fe94d8ce512e7fce4c66070f5b7c450ac52b7fe5053e1ecb0",
        "0xcaf99ab02866f4644f18013b49684f23c138e66495239d85851b4440936c76fd",
        "0xef0dce16d3045d915d06098c6863fdba488a0688dc5f5b9a3e19d4bc92915278",
        "0xc99de39f9010257c9ad5a774804cddb0bb717080f5eca80e842fdba0cba53b98",
        "0x1a02d7a1b274e45810eb588e0fa398146d7801fdc90ccc92baaaba5f15367f62"
      ],
      [
        2834,
        "0x9faacf0334c62fcd9b2ead3dde72febce796859d",
        "992951328792197210205",
        2
      ]
    ],
    [
      [
        "0x26286bab8bc7d79b04b8444ab01d59f8f0a1b2269ec98cc2ae932b5e9ade4a26",
        "0x682e8d92d8f09dc0fb8f5438c8f30cfb8f6c24c06a9ed9feb0b5d8beecf62571",
        "0x0a67b0872e2653ab38a07323b1b80cc141f24576e25d071777def539005ffbca",
        "0x60f598f88a5469cce4bfe818cc62a359a93bb269c332bf1ca8f960e366349c09",
        "0x83028517e62d32aaf9bcc74ddf83b254133ec4eab3c6e42f1be07179e3a83df5"
      ],
      [
        2834,
        "0xadf3a9a6494b8c1a24f0eec5d44a388afc10df09",
        "1250106431962114792",
        1
      ]
    ],
    [
      [
        "0xdff9dd1a61dc7f777a85b8d3608418d2697e5c32e25bddb303fd862b145556aa",
        "0x0db29c365c8ffc42b9decfa836b9fd1a0c8c835694637a4f430aeac99346ac88",
        "0x5be864ab5c859f0fd25f600a26b33b2c4d8fe4e818f819549c3d8ff82b946672",
        "0xd6644dc378fbc6a7f09b37f8811b123d134e0747fe482cd4e4fd61cf2afac4c0",
        "0x60f598f88a5469cce4bfe818cc62a359a93bb269c332bf1ca8f960e366349c09",
        "0x83028517e62d32aaf9bcc74ddf83b254133ec4eab3c6e42f1be07179e3a83df5"
      ],
      [
        2834,
        "0xf75a67d060f28f269d3f7a51fdb2859e7d6a4d78",
        "619787891821883608017",
        2
      ]
    ],
    [
      [
        "0xa0c73099efa71ab636d50c3832817f743287a0f642d4696a0bde1f2636b10f37",
        "0xa98d1cd7a5b1e8117c9b67f1e9eaa4d432370485334d496604886446f1acf531",
        "0xef0dce16d3045d915d06098c6863fdba488a0688dc5f5b9a3e19d4bc92915278",
        "0xc99de39f9010257c9ad5a774804cddb0bb717080f5eca80e842fdba0cba53b98",
        "0x1a02d7a1b274e45810eb588e0fa398146d7801fdc90ccc92baaaba5f15367f62"
      ],
      [
        2834,
        "0x3134c526171f16e14ac0dfbe56d10ef09273817f",
        "3268395342284743811",
        1
      ]
    ],
    [
      [
        "0x6f909e8766858d108a679cf4060fc1b7e2c9532344ed7bdc5f93ec9401477db3",
        "0xdc997632c34386881623cad75df1056bebc02ef1a475bbd0afdcc91d9870a0a2",
        "0xcd1c4eb6f760994055d8a59c8eb8a65fd95f9cc376cadf23ff2f91d75e1cb754",
        "0xc99de39f9010257c9ad5a774804cddb0bb717080f5eca80e842fdba0cba53b98",
        "0x1a02d7a1b274e45810eb588e0fa398146d7801fdc90ccc92baaaba5f15367f62"
      ],
      [
        2834,
        "0xaf47c84608043ba7d58122e5c3a46adf67371df3",
        "13073581369138975558",
        2
      ]
    ],
    [
      [
        "0xdbc85b29709b8aaaf8a5b5d150cc1a43d0397fa652024d73984a15d2152b6203",
        "0x143311d3c9850c52eba9ef05d314f0cca2dac5a19c8d7a57e104e7ff707bd411",
        "0xf2cc1b86a1fde6e4af5db53cf1a5c4b33f8bf9dc8f562ebd69e86a66a2c9de20",
        "0x0027ff804d1cde6633984943ff2bba3b411663edf30faff6a12a77bc52dcaa60",
        "0x1a02d7a1b274e45810eb588e0fa398146d7801fdc90ccc92baaaba5f15367f62"
      ],
      [
        2834,
        "0x2e46e8d1f3636f7036978d054b0a07e7395053c8",
        "617379963966502184494",
        1
      ]
    ],
    [
      [
        "0x4acb9294fc6d18101df0d694ea9a63075ee11348650bdc58ec29b2474b6e23dc",
        "0xe0a8ee47614c8f12f1d64810c61089a600234bc8fe53110cd0a1b9c491ac3ef8",
        "0x477839c58ea3b56e517a399315baa4b47f4a96eca0c30929bf42bd7f1678a52d",
        "0x3636b5f8d71eac14ac80b9002da9639d664661179282d40709b0ab6327371a1e",
        "0x83028517e62d32aaf9bcc74ddf83b254133ec4eab3c6e42f1be07179e3a83df5"
      ],
      [
        2834,
        "0xe80c39eae57c0359ee6c4086e2b22300353728e1",
        "2469519855866008738703",
        2
      ]
    ],
    [
      [
        "0x590412ad7b642d0d71d8ee199da4442f03a287fd907da80922de22411787de19",
        "0xfd66c2a61437f84ba5c6d988596268ddf59f5e6ec5194b7a10c94b66abb7d04d",
        "0x477839c58ea3b56e517a399315baa4b47f4a96eca0c30929bf42bd7f1678a52d",
        "0x3636b5f8d71eac14ac80b9002da9639d664661179282d40709b0ab6327371a1e",
        "0x83028517e62d32aaf9bcc74ddf83b254133ec4eab3c6e42f1be07179e3a83df5"
      ],
      [
        2834,
        "0x0bed169e74037b66a2e1c1a4937c285057773dbb",
        "4026614810678697351",
        1
      ]
    ],
    [
      [
        "0xbb90e27010b284c9786cadd926b8571698f9f0aa1e00ba95b2e558d2a0a0827c",
        "0x82a1b64c4a3af64355265ab4c5ea84566aeb4832a12a45aa66f8319e22b9751f",
        "0x6fcd2893fcf668a4ac546bebffad0fb503d391a4996c273a8f669e8978198c7f",
        "0x0027ff804d1cde6633984943ff2bba3b411663edf30faff6a12a77bc52dcaa60",
        "0x1a02d7a1b274e45810eb588e0fa398146d7801fdc90ccc92baaaba5f15367f62"
      ],
      [
        2834,
        "0xbc9a659af696a4d7375b104db8e5189b54f9d2b3",
        "1995407375483596573080",
        2
      ]
    ],
    [
      [
        "0x3bd270c9fa10a314f79720eb3d77df9558acbe14a59bca649248b67ee569aa3d",
        "0x9c9fc8d2aa53280971a1e7fd88144fe10b8539832b9107bd183aab601f7ee03c",
        "0x0a67b0872e2653ab38a07323b1b80cc141f24576e25d071777def539005ffbca",
        "0x60f598f88a5469cce4bfe818cc62a359a93bb269c332bf1ca8f960e366349c09",
        "0x83028517e62d32aaf9bcc74ddf83b254133ec4eab3c6e42f1be07179e3a83df5"
      ],
      [
        2834,
        "0x0dd018692f98a7894ecc7ba90cfb8f93a19159d3",
        "25479238080286635",
        1
      ]
    ],
    [
      [
        "0x21df2108ec6820161230f08b4dc6d0c7ac271d6f9df42512d6b92b7ae6086f7e",
        "0xad3d85f4afba55069e5da4066156b3361ab075055366219d6d00bdd8b8854d11",
        "0xd6644dc378fbc6a7f09b37f8811b123d134e0747fe482cd4e4fd61cf2afac4c0",
        "0x60f598f88a5469cce4bfe818cc62a359a93bb269c332bf1ca8f960e366349c09",
        "0x83028517e62d32aaf9bcc74ddf83b254133ec4eab3c6e42f1be07179e3a83df5"
      ],
      [
        2834,
        "0x612cff400ee27c91b956c45f4c50e61b55312430",
        "101916952321146803",
        2
      ]
    ],
    [
      [
        "0x726747c107441dfa80938d9dd99935cb2385d499004b54e1dc6205949846cf8a",
        "0xdc997632c34386881623cad75df1056bebc02ef1a475bbd0afdcc91d9870a0a2",
        "0xcd1c4eb6f760994055d8a59c8eb8a65fd95f9cc376cadf23ff2f91d75e1cb754",
        "0xc99de39f9010257c9ad5a774804cddb0bb717080f5eca80e842fdba0cba53b98",
        "0x1a02d7a1b274e45810eb588e0fa398146d7801fdc90ccc92baaaba5f15367f62"
      ],
      [
        2834,
        "0x25f42def3fcc078de8895cd01de8ab6514020548",
        "16358593406863951701",
        1
      ]
    ],
    [
      [
        "0xc90da988db025910d220add996019c40be9174d55af6244fe82f9ceb516ca214",
        "0x063a83642f539a7af3aad3f1d14e6d723a85cb8d86aaca56aee499aa03c81c3e",
        "0x6fcd2893fcf668a4ac546bebffad0fb503d391a4996c273a8f669e8978198c7f",
        "0x0027ff804d1cde6633984943ff2bba3b411663edf30faff6a12a77bc52dcaa60",
        "0x1a02d7a1b274e45810eb588e0fa398146d7801fdc90ccc92baaaba5f15367f62"
      ],
      [
        2834,
        "0x256194ca4884dbe2933862f0e9f7e0e4d411eb35",
        "65434373627455806978",
        2
      ]
    ],
    [
      [
        "0x161ffb6fe2adaa34af1cea9a154e53e2010db5b8267c4265fd2311c0bb6aeea0",
        "0xad3d85f4afba55069e5da4066156b3361ab075055366219d6d00bdd8b8854d11",
        "0xd6644dc378fbc6a7f09b37f8811b123d134e0747fe482cd4e4fd61cf2afac4c0",
        "0x60f598f88a5469cce4bfe818cc62a359a93bb269c332bf1ca8f960e366349c09",
        "0x83028517e62d32aaf9bcc74ddf83b254133ec4eab3c6e42f1be07179e3a83df5"
      ],
      [
        2834,
        "0xf0b444bdc5522e908ff903e3f1730b5ab60b610a",
        "679921312614637877474",
        1
      ]
    ],
    [
      [
        "0x6c572142e84a1536219922d7a956bd7c8fafad5f3e2c94199b09358504f5943d",
        "0xd222c9bfe35e79c83192efc9e995ff47d033cb0493bbea0f063989babb8e6552",
        "0x2c330935acb59f4c0a6a141d8e4f1a809a46e761e0af83c10650c312e7fc7b95",
        "0x3636b5f8d71eac14ac80b9002da9639d664661179282d40709b0ab6327371a1e",
        "0x83028517e62d32aaf9bcc74ddf83b254133ec4eab3c6e42f1be07179e3a83df5"
      ],
      [
        2834,
        "0x07f5053c867ae107db15a38aa4421b2c24ac4e51",
        "2719685250458551510614",
        2
      ]
    ],
    [
      [
        "0x69c9f243a7ea94cd174077c9fe4b349f420c73be9680739c1d711ea872eebaa6",
        "0x4529ba1095c9ec182f954f02d330bb768b76c2d36f9bcdcb77240022027a6a67",
        "0x2c330935acb59f4c0a6a141d8e4f1a809a46e761e0af83c10650c312e7fc7b95",
        "0x3636b5f8d71eac14ac80b9002da9639d664661179282d40709b0ab6327371a1e",
        "0x83028517e62d32aaf9bcc74ddf83b254133ec4eab3c6e42f1be07179e3a83df5"
      ],
      [
        2834,
        "0x437d15fad24dc5fe77384c34e24ee0b4c2607d79",
        "599141384087862770",
        1
      ]
    ],
    [
      [
        "0x6b23e0fa8d229eaea37ec040215cc452127d3b126cf1ddfdb5bcb8f980c8402e",
        "0xd222c9bfe35e79c83192efc9e995ff47d033cb0493bbea0f063989babb8e6552",
        "0x2c330935acb59f4c0a6a141d8e4f1a809a46e761e0af83c10650c312e7fc7b95",
        "0x3636b5f8d71eac14ac80b9002da9639d664661179282d40709b0ab6327371a1e",
        "0x83028517e62d32aaf9bcc74ddf83b254133ec4eab3c6e42f1be07179e3a83df5"
      ],
      [
        2834,
        "0xd88833424225068867309e0ec02999883c14dc77",
        "298953084206231340926",
        2
      ]
    ],
    [
      [
        "0x840df0e245c5103a2ecf9bb3f50b8fa1d869ff2a38e283f5cb41e7b0a783a56a",
        "0x51402e918ab639c0b5b11ca1e276f754690b09ea7686ddc3f5986abb65bdd1d7",
        "0xcd1c4eb6f760994055d8a59c8eb8a65fd95f9cc376cadf23ff2f91d75e1cb754",
        "0xc99de39f9010257c9ad5a774804cddb0bb717080f5eca80e842fdba0cba53b98",
        "0x1a02d7a1b274e45810eb588e0fa398146d7801fdc90ccc92baaaba5f15367f62"
      ],
      [
        2834,
        "0xa6a088c1036f4fd6f022d52630842e19f90405ed",
        "8159890824611825941",
        1
      ]
    ],
    [
      [
        "0x8896e1282339427fb475b415e936c6b6c6c7d7ab59ff87f37ca13e3ed2a2b44f",
        "0xa98d1cd7a5b1e8117c9b67f1e9eaa4d432370485334d496604886446f1acf531",
        "0xef0dce16d3045d915d06098c6863fdba488a0688dc5f5b9a3e19d4bc92915278",
        "0xc99de39f9010257c9ad5a774804cddb0bb717080f5eca80e842fdba0cba53b98",
        "0x1a02d7a1b274e45810eb588e0fa398146d7801fdc90ccc92baaaba5f15367f62"
      ],
      [
        2834,
        "0xddef1deac28e2d91f3d3c682c737cc0ef8489aba",
        "32639563298447303871",
        2
      ]
    ],
    [
      [
        "0x359ec78a80de47d823d5de5d170484e891e70acb6731dee889cdc684cc4d7938",
        "0x9c9fc8d2aa53280971a1e7fd88144fe10b8539832b9107bd183aab601f7ee03c",
        "0x0a67b0872e2653ab38a07323b1b80cc141f24576e25d071777def539005ffbca",
        "0x60f598f88a5469cce4bfe818cc62a359a93bb269c332bf1ca8f960e366349c09",
        "0x83028517e62d32aaf9bcc74ddf83b254133ec4eab3c6e42f1be07179e3a83df5"
      ],
      [
        2834,
        "0x1d415d28380ff51a507f7b176ca5f27833f7fffd",
        "184307120317693774697",
        1
      ]
    ],
    [
      [
        "0xd831a7b6dfd48176e01458ef740a81e831b991537fa8621473a68ae14f052edb",
        "0x143311d3c9850c52eba9ef05d314f0cca2dac5a19c8d7a57e104e7ff707bd411",
        "0xf2cc1b86a1fde6e4af5db53cf1a5c4b33f8bf9dc8f562ebd69e86a66a2c9de20",
        "0x0027ff804d1cde6633984943ff2bba3b411663edf30faff6a12a77bc52dcaa60",
        "0x1a02d7a1b274e45810eb588e0fa398146d7801fdc90ccc92baaaba5f15367f62"
      ],
      [
        2834,
        "0xb849b93b585effb7ce4b522ff88d9b3b24955f24",
        "737228481270775099141",
        2
      ]
    ],
    [
      [
        "0xd0c28525ad6b20ab1cf73da422a46d478f3b4dfab8f230e4548b988f0d019930",
        "0x816905770e94436d5aa9c85dc85f6077d0df965a7968e04c8ab11364c1a42260",
        "0xf2cc1b86a1fde6e4af5db53cf1a5c4b33f8bf9dc8f562ebd69e86a66a2c9de20",
        "0x0027ff804d1cde6633984943ff2bba3b411663edf30faff6a12a77bc52dcaa60",
        "0x1a02d7a1b274e45810eb588e0fa398146d7801fdc90ccc92baaaba5f15367f62"
      ],
      [
        2834,
        "0xa17d0877c137a415f91054c5d988489eb6eb28e4",
        "175744759927663138",
        1
      ]
    ],
    [
      [
        "0xca412bd57088b546aa287a91e69ca41bfc690c63602315bc50cb359e30954d51",
        "0x816905770e94436d5aa9c85dc85f6077d0df965a7968e04c8ab11364c1a42260",
        "0xf2cc1b86a1fde6e4af5db53cf1a5c4b33f8bf9dc8f562ebd69e86a66a2c9de20",
        "0x0027ff804d1cde6633984943ff2bba3b411663edf30faff6a12a77bc52dcaa60",
        "0x1a02d7a1b274e45810eb588e0fa398146d7801fdc90ccc92baaaba5f15367f62"
      ],
      [
        2834,
        "0x3a80da2731efa274f9fce54e42c3e1e1a162e3cc",
        "702979039710652579",
        2
      ]
    ]
  ],
  "noOfWeightBasedClaims": 16,
  "merkleRoot": "0x3313bfe82113faeb82817045b6352002573bbd617a3d9cc8299f639f3cf16505",
  "abi": {
    "components": [
      {
        "internalType": "uint24",
        "name": "rewardEpochId",
        "type": "uint24"
      },
      {
        "internalType": "bytes20",
        "name": "beneficiary",
        "type": "bytes20"
      },
      {
        "internalType": "uint120",
        "name": "amount",
        "type": "uint120"
      },
      {
        "internalType": "enum IRewardManager.ClaimType",
        "name": "claimType",
        "type": "uint8"
      }
    ],
    "internalType": "struct IRewardManager.RewardClaim",
    "name": "_claim",
    "type": "tuple"
  }
}