{
  "rewardEpochId": 2795,
  "rewardClaims": [
    {
      "merkleProof": [
        "0x8d38cf165039d5baa2324cf10d80274fb6162691bb476993affea8581547c66b",
        "0xedba5760b32ca85b9d429d460a0307cecea305d306512bf2f4691f67fb810631",
        "0x3e44fdf1d7a0c1468bd8c9745f085d72c49279302b63c0c3108172ba31965d68",
        "0x3b02fca7e2d53141b1b228d3b279e5aff1c8c94517d44b8840eb3fa9c66c7916",
        "0x3cba84f9f3de1af1958247b2172b9cbe96564008a2ac61b31cd2dcb3575b2ee7"
      ],
      "body": {
        "beneficiary": "0xf0b444bdc5522e908ff903e3f1730b5ab60b610a",
        "claimType": 1,
        "amount": "619104729166105650260",
        "rewardEpochId": 2795
      }
    },
    {
      "merkleProof": [
        "0xd8a51818d2022211c0375728419f223f3895f985503051a524da54b979978166",
        "0xfa4ee0c3bcc782edaa686beedad10f3870e3bc374fbeb0be842b13c1f86be26f",
        "0x6c94249dc0276020e93cd2e4a458237122b14b390062765b702f28e5bebadaee",
        "0x3b02fca7e2d53141b1b228d3b279e5aff1c8c94517d44b8840eb3fa9c66c7916",
        "0x3cba84f9f3de1af1958247b2172b9cbe96564008a2ac61b31cd2dcb3575b2ee7"
      ],
      "body": {
        "beneficiary": "0x07f5053c867ae107db15a38aa4421b2c24ac4e51",
        "claimType": 2,
        "amount": "2476418916664422601531",
        "rewardEpochId": 2795
      }
    },
    {
      "merkleProof": [
        "0x2336b4ddc84ddc7af1b78fb0f197adc8ed959f7585ec0061bf378f9414df8fa6",
        "0xf5124241f2ab17e718d0b3c52d4c8e9c1f3e73c919a8bd7b1dc9eebcba888a4b",
        "0x74e5e2b1136a89c30ef6709934085240bca11729ec35d2f793b60e5fcdda4e21",
        "0x2c4966f4c58495004ebc8acff62d161c9c5dce070d72f85b3ca115e3cbe349ae",
        "0xe4dea3612a5fd778fbe319a128573c8319ae8120f06c81af0772391c91c44a81"
      ],
      "body": {
        "beneficiary": "0xadf3a9a6494b8c1a24f0eec5d44a388afc10df09",
        "claimType": 1,
        "amount": "1669217442233189515",
        "rewardEpochId": 2795
      }
    },
    {
      "merkleProof": [
        "0xd1936503164dacf56cced0cbcf9ecd88f288d71f7877b4c132a8eea6136c0a9a",
        "0xfa4ee0c3bcc782edaa686beedad10f3870e3bc374fbeb0be842b13c1f86be26f",
        "0x6c94249dc0276020e93cd2e4a458237122b14b390062765b702f28e5bebadaee",
        "0x3b02fca7e2d53141b1b228d3b279e5aff1c8c94517d44b8840eb3fa9c66c7916",
        "0x3cba84f9f3de1af1958247b2172b9cbe96564008a2ac61b31cd2dcb3575b2ee7"
      ],
      "body": {
        "beneficiary": "0xf75a67d060f28f269d3f7a51fdb2859e7d6a4d78",
        "claimType": 2,
        "amount": "827795611651768512290",
        "rewardEpochId": 2795
      }
    },
    {
      "merkleProof": [
        "0x5e81ca8adb7be0ae81c239679d4cbdfd49643897de204d7f656bc21029459ff9",
        "0x415d8b22c20c487d4e403b874ed0a1b3c979f015c98b4dac09ef9f147c4e8001",
        "0x9bec4a299c3412e99f071b5a521012578c9b330c09185d36290eaf049d857e32",
        "0x4babbc4a748164358dbbe571a8fd58d814c9290230a4afd23c501a15be7c9ba5",
        "0xe4dea3612a5fd778fbe319a128573c8319ae8120f06c81af0772391c91c44a81"
      ],
      "body": {
        "beneficiary": "0xc6cb03a22213a3e02186a3126d47c7fba20e4ef5",
        "claimType": 1,
        "amount": "520468274673143235356",
        "rewardEpochId": 2795
      }
    },
    {
      "merkleProof": [
        "0x92045dc686f44fb50d2ca844c4bdd7f483d767b902710336ae75a46128f55a86",
        "0xedba5760b32ca85b9d429d460a0307cecea305d306512bf2f4691f67fb810631",
        "0x3e44fdf1d7a0c1468bd8c9745f085d72c49279302b63c0c3108172ba31965d68",
        "0x3b02fca7e2d53141b1b228d3b279e5aff1c8c94517d44b8840eb3fa9c66c7916",
        "0x3cba84f9f3de1af1958247b2172b9cbe96564008a2ac61b31cd2dcb3575b2ee7"
      ],
      "body": {
        "beneficiary": "0xabaa1718c2d80fc037bf66e3f66f0975d67431a9",
        "claimType": 2,
        "amount": "2081873098692572941924",
        "rewardEpochId": 2795
      }
    },
    {
      "merkleProof": [
        "0xa9ef69036ba8db78fbed21e359561528c49bf5537b753b013f00a56e0016a39c",
        "0x6b78192cb817bd61bbd407f7eb6010e6086c605904e1d47b328a75436f58e212",
        "0x3e44fdf1d7a0c1468bd8c9745f085d72c49279302b63c0c3108172ba31965d68",
        "0x3b02fca7e2d53141b1b228d3b279e5aff1c8c94517d44b8840eb3fa9c66c7916",
        "0x3cba84f9f3de1af1958247b2172b9cbe96564008a2ac61b31cd2dcb3575b2ee7"
      ],
      "body": {
        "beneficiary": "0x0dd018692f98a7894ecc7ba90cfb8f93a19159d3",
        "claimType": 1,
        "amount": "1960679657582907321",
        "rewardEpochId": 2795
      }
    },
    {
      "merkleProof": [
        "0x28171a0679588eb297a5e6c4b6dd4ea2760dd55443eb5cef3671b43485b31278",
        "0xf5124241f2ab17e718d0b3c52d4c8e9c1f3e73c919a8bd7b1dc9eebcba888a4b",
        "0x74e5e2b1136a89c30ef6709934085240bca11729ec35d2f793b60e5fcdda4e21",
        "0x2c4966f4c58495004ebc8acff62d161c9c5dce070d72f85b3ca115e3cbe349ae",
        "0xe4dea3612a5fd778fbe319a128573c8319ae8120f06c81af0772391c91c44a81"
      ],
      "body": {
        "beneficiary": "0x612cff400ee27c91b956c45f4c50e61b55312430",
        "claimType": 2,
        "amount": "953454096355807739824",
        "rewardEpochId": 2795
      }
    },
    {
      "merkleProof": [
        "0x0bc4b03c3d5dbcc6bae2eb47ec256be575f3fcdf2a6cfa7a38ec99b88f69dd0e",
        "0xdae2f5e004616d6f11bd0c3bada5caa794da5d4f1b334d3b8c01c297b38fa89f",
        "0xf214eabe44b7617b362fb332169c3d3b6990a8e9c2380e2bd3864b9587c0dbcb",
        "0x2c4966f4c58495004ebc8acff62d161c9c5dce070d72f85b3ca115e3cbe349ae",
        "0xe4dea3612a5fd778fbe319a128573c8319ae8120f06c81af0772391c91c44a81"
      ],
      "body": {
        "beneficiary": "0x1d415d28380ff51a507f7b176ca5f27833f7fffd",
        "claimType": 1,
        "amount": "212498211317448058065",
        "rewardEpochId": 2795
      }
    },
    {
      "merkleProof": [
        "0xf8d04f7dd99dfedc9b9e9972d0d7c47317410d901528c9b4f5e4e4b9ed218c5a",
        "0x0423e7a853071ce58fe03bb6ef95ee76686532ad91ad5dd13115d6b774842381",
        "0x6b37baf3491b0b932d670ad2db77c44e06d1dc6de9d190dbb4cc4f239f58e1b2",
        "0x78b622d9c317bb7045b3bd68cea62bc35bfb1407957632dbe0bb816d666953cb",
        "0x3cba84f9f3de1af1958247b2172b9cbe96564008a2ac61b31cd2dcb3575b2ee7"
      ],
      "body": {
        "beneficiary": "0xb849b93b585effb7ce4b522ff88d9b3b24955f24",
        "claimType": 2,
        "amount": "849992845269792232617",
        "rewardEpochId": 2795
      }
    },
    {
      "merkleProof": [
        "0x743aaf1f6fceb1e1894726fb28799629b9ee8a0f82ed2435848ef509ad32d221",
        "0x6cde1426c6f1360a846fbe53170d696a0f49777722c75924909c4c628f37a5ac",
        "0x66f3b0c6f1a7fca29d2a80b150bb988bdf526cd27365caad4866290dfe7afc32",
        "0x4babbc4a748164358dbbe571a8fd58d814c9290230a4afd23c501a15be7c9ba5",
        "0xe4dea3612a5fd778fbe319a128573c8319ae8120f06c81af0772391c91c44a81"
      ],
      "body": {
        "beneficiary": "0x2e46e8d1f3636f7036978d054b0a07e7395053c8",
        "claimType": 1,
        "amount": "497562819310781471489",
        "rewardEpochId": 2795
      }
    },
    {
      "merkleProof": [
        "0x66c131f672873dadf35ef810a3fcfd80a04780355c2a0825790947751de0b79f",
        "0x415d8b22c20c487d4e403b874ed0a1b3c979f015c98b4dac09ef9f147c4e8001",
        "0x9bec4a299c3412e99f071b5a521012578c9b330c09185d36290eaf049d857e32",
        "0x4babbc4a748164358dbbe571a8fd58d814c9290230a4afd23c501a15be7c9ba5",
        "0xe4dea3612a5fd778fbe319a128573c8319ae8120f06c81af0772391c91c44a81"
      ],
      "body": {
        "beneficiary": "0xe80c39eae57c0359ee6c4086e2b22300353728e1",
        "claimType": 2,
        "amount": "1990251277243125886427",
        "rewardEpochId": 2795
      }
    },
    {
      "merkleProof": [
        "0x4aa6fe6fe1cc669511e35270579761e07d9f0bf65805411e550712ee7cbf5a81",
        "0x652b07666d533f46c9858c8c81c4f997ce45540de0401ac0fca2ab1f706b4845",
        "0x9bec4a299c3412e99f071b5a521012578c9b330c09185d36290eaf049d857e32",
        "0x4babbc4a748164358dbbe571a8fd58d814c9290230a4afd23c501a15be7c9ba5",
        "0xe4dea3612a5fd778fbe319a128573c8319ae8120f06c81af0772391c91c44a81"
      ],
      "body": {
        "beneficiary": "0x000000000000000000000000000000000000dead",
        "claimType": 0,
        "amount": "17376906505090262815394",
        "rewardEpochId": 2795
      }
    },
    {
      "merkleProof": [
        "0xe6e8c90d53b05f2c5eb7dd78f3774f88f4476ad0dc52701f907c99ae41fa7185",
        "0x63fd025594fab008950c499b339362d2d18c1b99844f20d7274bd75776e47fd5",
        "0x6c94249dc0276020e93cd2e4a458237122b14b390062765b702f28e5bebadaee",
        "0x3b02fca7e2d53141b1b228d3b279e5aff1c8c94517d44b8840eb3fa9c66c7916",
        "0x3cba84f9f3de1af1958247b2172b9cbe96564008a2ac61b31cd2dcb3575b2ee7"
      ],
      "body": {
        "beneficiary": "0x19b6fde072fd962dd191e5d17121a6733d7e1977",
        "claimType": 1,
        "amount": "2304645235467427561",
        "rewardEpochId": 2795
      }
    },
    {
      "merkleProof": [
        "0xf858a28fa8db7b11372dfdc1e140b3dc674aa423b8d07b081a89ae2b55d6f8cd",
        "0x0423e7a853071ce58fe03bb6ef95ee76686532ad91ad5dd13115d6b774842381",
        "0x6b37baf3491b0b932d670ad2db77c44e06d1dc6de9d190dbb4cc4f239f58e1b2",
        "0x78b622d9c317bb7045b3bd68cea62bc35bfb1407957632dbe0bb816d666953cb",
        "0x3cba84f9f3de1af1958247b2172b9cbe96564008a2ac61b31cd2dcb3575b2ee7"
      ],
      "body": {
        "beneficiary": "0x9faacf0334c62fcd9b2ead3dde72febce796859d",
        "claimType": 2,
        "amount": "1150017972498258463082",
        "rewardEpochId": 2795
      }
    },
    {
      "merkleProof": [
        "0x2ca6fa6b399a8f3340e5ec12540ad9f26d400cd2513fb56be95d00fa03cfd62e",
        "0x190e63401f7a7fc093c69c193478ada3368e74c54e6aa3a4cc895399dd55578d",
        "0x74e5e2b1136a89c30ef6709934085240bca11729ec35d2f793b60e5fcdda4e21",
        "0x2c4966f4c58495004ebc8acff62d161c9c5dce070d72f85b3ca115e3cbe349ae",
        "0xe4dea3612a5fd778fbe319a128573c8319ae8120f06c81af0772391c91c44a81"
      ],
      "body": {
        "beneficiary": "0x0bed169e74037b66a2e1c1a4937c285057773dbb",
        "claimType": 1,
        "amount": "14475812308806666514",
        "rewardEpochId": 2795
      }
    },
    {
      "merkleProof": [
        "0x16ed4c60449cd5c8d4c57ab48d17d777732e521ebbb1822ec5235ea372ff94f1",
        "0xdae2f5e004616d6f11bd0c3bada5caa794da5d4f1b334d3b8c01c297b38fa89f",
        "0xf214eabe44b7617b362fb332169c3d3b6990a8e9c2380e2bd3864b9587c0dbcb",
        "0x2c4966f4c58495004ebc8acff62d161c9c5dce070d72f85b3ca115e3cbe349ae",
        "0xe4dea3612a5fd778fbe319a128573c8319ae8120f06c81af0772391c91c44a81"
      ],
      "body": {
        "beneficiary": "0xbc9a659af696a4d7375b104db8e5189b54f9d2b3",
        "claimType": 2,
        "amount": "1556591973837632994416",
        "rewardEpochId": 2795
      }
    },
    {
      "merkleProof": [
        "0x0a7c1bca093ee39df31c43ae02f850bf47d44344d1d9d4ec586d9ca13257c4ee",
        "0x945031d021fb6f003d793796b362f5a768e1be79142c9a5cb7e3c4933d6bcec2",
        "0xf214eabe44b7617b362fb332169c3d3b6990a8e9c2380e2bd3864b9587c0dbcb",
        "0x2c4966f4c58495004ebc8acff62d161c9c5dce070d72f85b3ca115e3cbe349ae",
        "0xe4dea3612a5fd778fbe319a128573c8319ae8120f06c81af0772391c91c44a81"
      ],
      "body": {
        "beneficiary": "0x526e10f59b79d4e434d367f30a5cf6aa49641642",
        "claimType": 1,
        "amount": "1781835456123382005",
        "rewardEpochId": 2795
      }
    },
    {
      "merkleProof": [
        "0x2a3ca1078f616845efd11e0cab5f54256ac3d5f641e83b4ffcc39138b34137c9",
        "0x190e63401f7a7fc093c69c193478ada3368e74c54e6aa3a4cc895399dd55578d",
        "0x74e5e2b1136a89c30ef6709934085240bca11729ec35d2f793b60e5fcdda4e21",
        "0x2c4966f4c58495004ebc8acff62d161c9c5dce070d72f85b3ca115e3cbe349ae",
        "0xe4dea3612a5fd778fbe319a128573c8319ae8120f06c81af0772391c91c44a81"
      ],
      "body": {
        "beneficiary": "0x07acc8fe6affb0bd54ec19acb6d27c2f87ae8f63",
        "claimType": 2,
        "amount": "887229477406931896219",
        "rewardEpochId": 2795
      }
    },
    {
      "merkleProof": [
        "0xf19beada692e793199d3f048d9b1dd14674f70d6add774b94c869039d7f697f9",
        "0xd31a947646eaa0c91c16a81117cb1c5ae73040eb126db4b43693b653db9ebe93",
        "0x90fd0c2f3eff9455c74fc74464fdc0de2fdd2aa8ec0352c6aaa85cddb70cbf1f",
        "0x78b622d9c317bb7045b3bd68cea62bc35bfb1407957632dbe0bb816d666953cb",
        "0x3cba84f9f3de1af1958247b2172b9cbe96564008a2ac61b31cd2dcb3575b2ee7"
      ],
      "body": {
        "beneficiary": "0xf355c48aab6ac9f6ed4e1750a34690f4d28cb30e",
        "claimType": 1,
        "amount": "554537396610458814",
        "rewardEpochId": 2795
      }
    },
    {
      "merkleProof": [
        "0x7f6aa30d3126e6c0d60c78dd402eeb48f6cbdda9f5af4990eb11185f75364717",
        "0x6cde1426c6f1360a846fbe53170d696a0f49777722c75924909c4c628f37a5ac",
        "0x66f3b0c6f1a7fca29d2a80b150bb988bdf526cd27365caad4866290dfe7afc32",
        "0x4babbc4a748164358dbbe571a8fd58d814c9290230a4afd23c501a15be7c9ba5",
        "0xe4dea3612a5fd778fbe319a128573c8319ae8120f06c81af0772391c91c44a81"
      ],
      "body": {
        "beneficiary": "0xb13a59ecfbbec4d4539be101c5f15521ca23c8ee",
        "claimType": 2,
        "amount": "276210250487574188231",
        "rewardEpochId": 2795
      }
    },
    {
      "merkleProof": [
        "0xf62599c05560bcb5b8b34d385bc048d20d3216b2d08c11b2e4ad2c7c38d04c70",
        "0xdabedbbc312651b3e0dbb926ac92165ef28b8cd76f3e45e404f70dca2b113e7e",
        "0x90fd0c2f3eff9455c74fc74464fdc0de2fdd2aa8ec0352c6aaa85cddb70cbf1f",
        "0x78b622d9c317bb7045b3bd68cea62bc35bfb1407957632dbe0bb816d666953cb",
        "0x3cba84f9f3de1af1958247b2172b9cbe96564008a2ac61b31cd2dcb3575b2ee7"
      ],
      "body": {
        "beneficiary": "0x9181f8ed4381ce39dbf4b8336b6295de89527c46",
        "claimType": 1,
        "amount": "1217025209490987584",
        "rewardEpochId": 2795
      }
    },
    {
      "merkleProof": [
        "0x7226c28b95256fe9b9dab5f2c058c35dc3aca34aba9b4ebf00f6e9d5e9cf3280",
        "0x84c284098e51f9a8b85a6f86a46c2881a879caf8bb5d599d314684d2da46e2ce",
        "0x66f3b0c6f1a7fca29d2a80b150bb988bdf526cd27365caad4866290dfe7afc32",
        "0x4babbc4a748164358dbbe571a8fd58d814c9290230a4afd23c501a15be7c9ba5",
        "0xe4dea3612a5fd778fbe319a128573c8319ae8120f06c81af0772391c91c44a81"
      ],
      "body": {
        "beneficiary": "0x884cde7b5f2f0a9ee28f90ce1d4aa526373b3e2c",
        "claimType": 2,
        "amount": "606549364089572822550",
        "rewardEpochId": 2795
      }
    },
    {
      "merkleProof": [
        "0x45ce0c28b7a3fe6b5ddcdb9ca11a99b11ad1559d223f2393a683884231054ec7",
        "0x652b07666d533f46c9858c8c81c4f997ce45540de0401ac0fca2ab1f706b4845",
        "0x9bec4a299c3412e99f071b5a521012578c9b330c09185d36290eaf049d857e32",
        "0x4babbc4a748164358dbbe571a8fd58d814c9290230a4afd23c501a15be7c9ba5",
        "0xe4dea3612a5fd778fbe319a128573c8319ae8120f06c81af0772391c91c44a81"
      ],
      "body": {
        "beneficiary": "0xca84d6086c5b32212a0cf1638803355d7be31482",
        "claimType": 1,
        "amount": "301404686375030073401",
        "rewardEpochId": 2795
      }
    },
    {
      "merkleProof": [
        "0x9f09e213e29fe91576de4a1a446722ffbba4828c04914fb91700900ae2477603",
        "0x6b37baf3491b0b932d670ad2db77c44e06d1dc6de9d190dbb4cc4f239f58e1b2",
        "0x78b622d9c317bb7045b3bd68cea62bc35bfb1407957632dbe0bb816d666953cb",
        "0x3cba84f9f3de1af1958247b2172b9cbe96564008a2ac61b31cd2dcb3575b2ee7"
      ],
      "body": {
        "beneficiary": "0x55fcf7806f556204141fe90fbe9ce6207d9c52ac",
        "claimType": 2,
        "amount": "1205618745500120293944",
        "rewardEpochId": 2795
      }
    },
    {
      "merkleProof": [
        "0xbabc37e5c8da763f285987647aab3af3aeb59327a6e54c1d36911df64b7a3dc3",
        "0x6b78192cb817bd61bbd407f7eb6010e6086c605904e1d47b328a75436f58e212",
        "0x3e44fdf1d7a0c1468bd8c9745f085d72c49279302b63c0c3108172ba31965d68",
        "0x3b02fca7e2d53141b1b228d3b279e5aff1c8c94517d44b8840eb3fa9c66c7916",
        "0x3cba84f9f3de1af1958247b2172b9cbe96564008a2ac61b31cd2dcb3575b2ee7"
      ],
      "body": {
        "beneficiary": "0x437d15fad24dc5fe77384c34e24ee0b4c2607d79",
        "claimType": 1,
        "amount": "1096260131476462299",
        "rewardEpochId": 2795
      }
    },
    {
      "merkleProof": [
        "0x0b1a972b84e760964c8f0a2e9e8af63569a0b3c45690019ce72d757f454891e8",
        "0x945031d021fb6f003d793796b362f5a768e1be79142c9a5cb7e3c4933d6bcec2",
        "0xf214eabe44b7617b362fb332169c3d3b6990a8e9c2380e2bd3864b9587c0dbcb",
        "0x2c4966f4c58495004ebc8acff62d161c9c5dce070d72f85b3ca115e3cbe349ae",
        "0xe4dea3612a5fd778fbe319a128573c8319ae8120f06c81af0772391c91c44a81"
      ],
      "body": {
        "beneficiary": "0xd88833424225068867309e0ec02999883c14dc77",
        "claimType": 2,
        "amount": "545770405407904460389",
        "rewardEpochId": 2795
      }
    },
    {
      "merkleProof": [
        "0xddc54afbc1a6c40752c61e8cf5c84d561420a207a5b46385e3fb7fc92a435870",
        "0x63fd025594fab008950c499b339362d2d18c1b99844f20d7274bd75776e47fd5",
        "0x6c94249dc0276020e93cd2e4a458237122b14b390062765b702f28e5bebadaee",
        "0x3b02fca7e2d53141b1b228d3b279e5aff1c8c94517d44b8840eb3fa9c66c7916",
        "0x3cba84f9f3de1af1958247b2172b9cbe96564008a2ac61b31cd2dcb3575b2ee7"
      ],
      "body": {
        "beneficiary": "0xf206f9b8bda82301c19a67b3d272f060bbe51e02",
        "claimType": 1,
        "amount": "6959670108120776",
        "rewardEpochId": 2795
      }
    },
    {
      "merkleProof": [
        "0xe93ab7df539596809da423272548dc611dbf54e740b6d55fe2e748ba96cf509f",
        "0xd31a947646eaa0c91c16a81117cb1c5ae73040eb126db4b43693b653db9ebe93",
        "0x90fd0c2f3eff9455c74fc74464fdc0de2fdd2aa8ec0352c6aaa85cddb70cbf1f",
        "0x78b622d9c317bb7045b3bd68cea62bc35bfb1407957632dbe0bb816d666953cb",
        "0x3cba84f9f3de1af1958247b2172b9cbe96564008a2ac61b31cd2dcb3575b2ee7"
      ],
      "body": {
        "beneficiary": "0x11cef138b1ee96a481dc040842433bfc5229ad70",
        "claimType": 2,
        "amount": "27838680432483169",
        "rewardEpochId": 2795
      }
    },
    {
      "merkleProof": [
        "0xf63606ad46ace6432bf98aea1e3df1e4efd39239000ed475799d3b31b6f65a52",
        "0xdabedbbc312651b3e0dbb926ac92165ef28b8cd76f3e45e404f70dca2b113e7e",
        "0x90fd0c2f3eff9455c74fc74464fdc0de2fdd2aa8ec0352c6aaa85cddb70cbf1f",
        "0x78b622d9c317bb7045b3bd68cea62bc35bfb1407957632dbe0bb816d666953cb",
        "0x3cba84f9f3de1af1958247b2172b9cbe96564008a2ac61b31cd2dcb3575b2ee7"
      ],
      "body": {
        "beneficiary": "0xa6a088c1036f4fd6f022d52630842e19f90405ed",
        "claimType": 1,
        "amount": "3017432478690699",
        "rewardEpochId": 2795
      }
    },
    {
      "merkleProof": [
        "0x6fabfc43424cfe78fbed7d9aa6c925bc20613a5e3ad520c2a1ec4d372c80cdbc",
        "0x84c284098e51f9a8b85a6f86a46c2881a879caf8bb5d599d314684d2da46e2ce",
        "0x66f3b0c6f1a7fca29d2a80b150bb988bdf526cd27365caad4866290dfe7afc32",
        "0x4babbc4a748164358dbbe571a8fd58d814c9290230a4afd23c501a15be7c9ba5",
        "0xe4dea3612a5fd778fbe319a128573c8319ae8120f06c81af0772391c91c44a81"
      ],
      "body": {
        "beneficiary": "0xddef1deac28e2d91f3d3c682c737cc0ef8489aba",
        "claimType": 2,
        "amount": "12069729914762857",
        "rewardEpochId": 2795
      }
    }
  ],
  "noOfWeightBasedClaims": 15,
  "merkleRoot": "0x2a61ee9fa14df57906a31de63aa3267dfd49520c8f352936f1a5edafe6144cec",
  "abi": {
    "components": [
      {
        "internalType": "uint24",
        "name": "rewardEpochId",
        "type": "uint24"
      },
      {
        "internalType": "bytes20",
        "name": "beneficiary",
        "type": "bytes20"
      },
      {
        "internalType": "uint120",
        "name": "amount",
        "type": "uint120"
      },
      {
        "internalType": "enum IRewardManager.ClaimType",
        "name": "claimType",
        "type": "uint8"
      }
    ],
    "internalType": "struct IRewardManager.RewardClaim",
    "name": "_claim",
    "type": "tuple"
  }
}