{
  "rewardEpochId": 2810,
  "rewardClaims": [
    [
      [
        "0xd89bf4924beec020cea9d8faa3b4e4aa52227483fa21bdaa776c7f4bec709a15",
        "0x9ff83486b0cc285e1aedb08294d2ea9460ddc973e1e19fda8793f88037367beb",
        "0x688082deec38593e5f272cffd025d655d52c3122ca7679d081508616397b7299",
        "0x6af1b4ea31dbc61d662efa41d9a5fe4a76956039c59570f03a5229a275a9e459",
        "0x0bdafc4cb61ec1094aaac885c6d8563674be3cb14f999b94a47d61db5479578f"
      ],
      [
        2810,
        "0x000000000000000000000000000000000000dead",
        "16855597972526265670456",
        0
      ]
    ],
    [
      [
        "0xbbdf4c73964537a5eace04b042b0cce0b467a8cd452569da975a758de13b9755",
        "0x507df568f0b0b70f2863c6a2f7082b0140d4d9aea3086f702276c0185325682d",
        "0x688082deec38593e5f272cffd025d655d52c3122ca7679d081508616397b7299",
        "0x6af1b4ea31dbc61d662efa41d9a5fe4a76956039c59570f03a5229a275a9e459",
        "0x0bdafc4cb61ec1094aaac885c6d8563674be3cb14f999b94a47d61db5479578f"
      ],
      [
        2810,
        "0x437d15fad24dc5fe77384c34e24ee0b4c2607d79",
        "812442380795183907",
        1
      ]
    ],
    [
      [
        "0x45fc0eba956dc9db49158c8c65b9acd6253908ada294ed0ed522ddb1d3fee7ce",
        "0xb680ff354ae0148c30a3187934017f6627d2c98546969191286cd5d6f34e9895",
        "0x83160fd90d9a0e91338ce57851cea8d8d6864cf95e3f33800576b09bc92d68fe",
        "0xef920bd22659f1a3ba148061262d4cd012ea5657e81f54912a3c923fbfd8cb95",
        "0xfc479c9579bd6e849fe030a65e0ea9120d4214bd0b34d75b1ea345af57bfa854"
      ],
      [
        2810,
        "0xd88833424225068867309e0ec02999883c14dc77",
        "404865710810877658319",
        2
      ]
    ],
    [
      [
        "0x575223dcc0b1b28ca8cbf9ffa30d90835a00513b6db845e52f7d76fd29f22869",
        "0xb680ff354ae0148c30a3187934017f6627d2c98546969191286cd5d6f34e9895",
        "0x83160fd90d9a0e91338ce57851cea8d8d6864cf95e3f33800576b09bc92d68fe",
        "0xef920bd22659f1a3ba148061262d4cd012ea5657e81f54912a3c923fbfd8cb95",
        "0xfc479c9579bd6e849fe030a65e0ea9120d4214bd0b34d75b1ea345af57bfa854"
      ],
      [
        2810,
        "0xadf3a9a6494b8c1a24f0eec5d44a388afc10df09",
        "1530124236825295523",
        1
      ]
    ],
    [
      [
        "0xfa73b4c66dbe5d5ba00432084a23b39f4e6c9d27e9798d543349e9fc6517b7e4",
        "0x08252229a32042dbada882c9a483884a2b7c4f3af33c37f783bd4f3f542b7c7a",
        "0xa683617c64889afb9ef77e2dc723bf3564251f7f251104822c88d30828a9f85e",
        "0x6ad41e7848e633f64a3df1adb6941be9da43aaf1ec1db1d0c19de6c16d0cbe8e",
        "0x0bdafc4cb61ec1094aaac885c6d8563674be3cb14f999b94a47d61db5479578f"
      ],
      [
        2810,
        "0xf75a67d060f28f269d3f7a51fdb2859e7d6a4d78",
        "760282781233646608584",
        2
      ]
    ],
    [
      [
        "0x45f9357c1ac10e23b60c53356fd032ee1b667fdbc013ca2dc6d726cd6cb01c07",
        "0x63aeaf3344c62615c6d50b97a05d46c838e1e2494105f17d2dd374ae4080c44a",
        "0xc2d7ffdd531caf611ac7c551702ac850fad698268c17f46b5c45886cbc6a5481",
        "0xef920bd22659f1a3ba148061262d4cd012ea5657e81f54912a3c923fbfd8cb95",
        "0xfc479c9579bd6e849fe030a65e0ea9120d4214bd0b34d75b1ea345af57bfa854"
      ],
      [
        2810,
        "0x25f42def3fcc078de8895cd01de8ab6514020548",
        "2168905587246620301",
        1
      ]
    ],
    [
      [
        "0x3dc0ae4d2f187ac4d5f9ffaae702fd832a386cccdae6a49510e97096da40cd06",
        "0x074ddd7b6cfc9530df6b227ae851a974629a7560197cf698062b811e9e08c89b",
        "0xc2d7ffdd531caf611ac7c551702ac850fad698268c17f46b5c45886cbc6a5481",
        "0xef920bd22659f1a3ba148061262d4cd012ea5657e81f54912a3c923fbfd8cb95",
        "0xfc479c9579bd6e849fe030a65e0ea9120d4214bd0b34d75b1ea345af57bfa854"
      ],
      [
        2810,
        "0x256194ca4884dbe2933862f0e9f7e0e4d411eb35",
        "1068443465168651468794",
        2
      ]
    ],
    [
      [
        "0x28eef2d300dc7e66f38970d8a1c38235e92346ffdc9384a1969a8e520ed0d7cb",
        "0x9fa2e4029f33e99af0e94c9ce53b085e0bd2fa3256d7288ccecdeb2e9946bb9a",
        "0xc5e596fec79dcea4127c338ac22dd28438e46240f5f6556306f2488339766f13",
        "0x7d65a136533f6ca44acbd1d98038b92dc8b8629bbf0b2ff7718486e9afb5141a",
        "0xfc479c9579bd6e849fe030a65e0ea9120d4214bd0b34d75b1ea345af57bfa854"
      ],
      [
        2810,
        "0x19b6fde072fd962dd191e5d17121a6733d7e1977",
        "2246754712662328806",
        1
      ]
    ],
    [
      [
        "0xb5d8e8223e40943fbf06b2cba67801adc3db57bc1e0d5847be831262f99784fa",
        "0x507df568f0b0b70f2863c6a2f7082b0140d4d9aea3086f702276c0185325682d",
        "0x688082deec38593e5f272cffd025d655d52c3122ca7679d081508616397b7299",
        "0x6af1b4ea31dbc61d662efa41d9a5fe4a76956039c59570f03a5229a275a9e459",
        "0x0bdafc4cb61ec1094aaac885c6d8563674be3cb14f999b94a47d61db5479578f"
      ],
      [
        2810,
        "0x9faacf0334c62fcd9b2ead3dde72febce796859d",
        "1121130601618510236693",
        2
      ]
    ],
    [
      [
        "0x45b5b2cab9e6b6bd40f964f930b6b0e1f9a297a4c977f3d1037f8e5fb1a5e7b4",
        "0x63aeaf3344c62615c6d50b97a05d46c838e1e2494105f17d2dd374ae4080c44a",
        "0xc2d7ffdd531caf611ac7c551702ac850fad698268c17f46b5c45886cbc6a5481",
        "0xef920bd22659f1a3ba148061262d4cd012ea5657e81f54912a3c923fbfd8cb95",
        "0xfc479c9579bd6e849fe030a65e0ea9120d4214bd0b34d75b1ea345af57bfa854"
      ],
      [
        2810,
        "0x0bed169e74037b66a2e1c1a4937c285057773dbb",
        "32313414085349567565",
        1
      ]
    ],
    [
      [
        "0xd125805de24bdcfdb0f3f6f8783f3501033ddb226f526aacd0c461fa3d4853a8",
        "0x9ff83486b0cc285e1aedb08294d2ea9460ddc973e1e19fda8793f88037367beb",
        "0x688082deec38593e5f272cffd025d655d52c3122ca7679d081508616397b7299",
        "0x6af1b4ea31dbc61d662efa41d9a5fe4a76956039c59570f03a5229a275a9e459",
        "0x0bdafc4cb61ec1094aaac885c6d8563674be3cb14f999b94a47d61db5479578f"
      ],
      [
        2810,
        "0xbc9a659af696a4d7375b104db8e5189b54f9d2b3",
        "2383146377025755728342",
        2
      ]
    ],
    [
      [
        "0xea48013ac2b769a5a2e1a780f59539069e795c38f54188cb56494ba8983335d9",
        "0x5b71296bbba9876a1632c88878f0b62f708906bae91947fdadc7018c0c21b991",
        "0x66640f37df89861700596d718103125d3336aa3d9c868ba9dd68d28c22b525de",
        "0x6ad41e7848e633f64a3df1adb6941be9da43aaf1ec1db1d0c19de6c16d0cbe8e",
        "0x0bdafc4cb61ec1094aaac885c6d8563674be3cb14f999b94a47d61db5479578f"
      ],
      [
        2810,
        "0x9181f8ed4381ce39dbf4b8336b6295de89527c46",
        "1528956169314708238",
        1
      ]
    ],
    [
      [
        "0x449b5edc79d6ecc7ad850c8dbe2135f7b12b9645175f948b5451abbed7d342db",
        "0x074ddd7b6cfc9530df6b227ae851a974629a7560197cf698062b811e9e08c89b",
        "0xc2d7ffdd531caf611ac7c551702ac850fad698268c17f46b5c45886cbc6a5481",
        "0xef920bd22659f1a3ba148061262d4cd012ea5657e81f54912a3c923fbfd8cb95",
        "0xfc479c9579bd6e849fe030a65e0ea9120d4214bd0b34d75b1ea345af57bfa854"
      ],
      [
        2810,
        "0x884cde7b5f2f0a9ee28f90ce1d4aa526373b3e2c",
        "762328291994559564083",
        2
      ]
    ],
    [
      [
        "0xb06d0472ae507afa0c8d687f81f7901171445f916646c59d2d4f9126eb0ac518",
        "0xc610ebe67d7cf5748bc50995a2c7bc6c1e2c958587de3dd68b9b76d42505f6d4",
        "0x559e52f85e84421f8301a8f915b18f8b218feb298d76fc53979ad37fb9045a40",
        "0x6af1b4ea31dbc61d662efa41d9a5fe4a76956039c59570f03a5229a275a9e459",
        "0x0bdafc4cb61ec1094aaac885c6d8563674be3cb14f999b94a47d61db5479578f"
      ],
      [
        2810,
        "0xf355c48aab6ac9f6ed4e1750a34690f4d28cb30e",
        "720997939155473654",
        1
      ]
    ],
    [
      [
        "0x35a0add2dd4ba480ab153ad0a09cbadb9a8f449e448fac23036ad54df672bded",
        "0xb3d924f4aca3332e27ff7a11b7871f5bcd245c49b64355abc8c7170909a34a34",
        "0xc5e596fec79dcea4127c338ac22dd28438e46240f5f6556306f2488339766f13",
        "0x7d65a136533f6ca44acbd1d98038b92dc8b8629bbf0b2ff7718486e9afb5141a",
        "0xfc479c9579bd6e849fe030a65e0ea9120d4214bd0b34d75b1ea345af57bfa854"
      ],
      [
        2810,
        "0xb13a59ecfbbec4d4539be101c5f15521ca23c8ee",
        "359985110665447347195",
        2
      ]
    ],
    [
      [
        "0x1abfa43f8440a0a506598a0f7e0b2d89a049dabe638b632c24b83d22af10407f",
        "0xf739cdac577bc8dcb0a55efd99dcf75e053e94d4770364d4f6326a218d33fab5",
        "0x9d35b399b50a099e9840e1cd436744fbbbab75ded8a0dc8f8ddc8dbdff73755f",
        "0x7d65a136533f6ca44acbd1d98038b92dc8b8629bbf0b2ff7718486e9afb5141a",
        "0xfc479c9579bd6e849fe030a65e0ea9120d4214bd0b34d75b1ea345af57bfa854"
      ],
      [
        2810,
        "0xc6cb03a22213a3e02186a3126d47c7fba20e4ef5",
        "546538980126701026201",
        1
      ]
    ],
    [
      [
        "0xf150e5ba7b203e7f6b7a371cb9973b6050dd669cc0cd03b8221eecbf1e1323aa",
        "0x08252229a32042dbada882c9a483884a2b7c4f3af33c37f783bd4f3f542b7c7a",
        "0xa683617c64889afb9ef77e2dc723bf3564251f7f251104822c88d30828a9f85e",
        "0x6ad41e7848e633f64a3df1adb6941be9da43aaf1ec1db1d0c19de6c16d0cbe8e",
        "0x0bdafc4cb61ec1094aaac885c6d8563674be3cb14f999b94a47d61db5479578f"
      ],
      [
        2810,
        "0xabaa1718c2d80fc037bf66e3f66f0975d67431a9",
        "2186155920506804105111",
        2
      ]
    ],
    [
      [
        "0x22b53f3a74734c82823514440034b1c8b671c83ff1d3f17be46eeea1b082780a",
        "0xceb02509b0812b883c96d5fc3ecfc4118e3995917b7a11ad189349182a7f3ecc",
        "0x9d35b399b50a099e9840e1cd436744fbbbab75ded8a0dc8f8ddc8dbdff73755f",
        "0x7d65a136533f6ca44acbd1d98038b92dc8b8629bbf0b2ff7718486e9afb5141a",
        "0xfc479c9579bd6e849fe030a65e0ea9120d4214bd0b34d75b1ea345af57bfa854"
      ],
      [
        2810,
        "0xca84d6086c5b32212a0cf1638803355d7be31482",
        "442071718712679636599",
        1
      ]
    ],
    [
      [
        "0xb03da9e6a9337e40cea7336bd259d7eb811acb48705cd2f9c14256f05b2274bb",
        "0xc610ebe67d7cf5748bc50995a2c7bc6c1e2c958587de3dd68b9b76d42505f6d4",
        "0x559e52f85e84421f8301a8f915b18f8b218feb298d76fc53979ad37fb9045a40",
        "0x6af1b4ea31dbc61d662efa41d9a5fe4a76956039c59570f03a5229a275a9e459",
        "0x0bdafc4cb61ec1094aaac885c6d8563674be3cb14f999b94a47d61db5479578f"
      ],
      [
        2810,
        "0x55fcf7806f556204141fe90fbe9ce6207d9c52ac",
        "1768286874850718546761",
        2
      ]
    ],
    [
      [
        "0xf057490ec33d7337702d3512498de68d8d00f6255800238bacf1073722c11a1c",
        "0x5b71296bbba9876a1632c88878f0b62f708906bae91947fdadc7018c0c21b991",
        "0x66640f37df89861700596d718103125d3336aa3d9c868ba9dd68d28c22b525de",
        "0x6ad41e7848e633f64a3df1adb6941be9da43aaf1ec1db1d0c19de6c16d0cbe8e",
        "0x0bdafc4cb61ec1094aaac885c6d8563674be3cb14f999b94a47d61db5479578f"
      ],
      [
        2810,
        "0x1d415d28380ff51a507f7b176ca5f27833f7fffd",
        "253670954239826191716",
        1
      ]
    ],
    [
      [
        "0x1686ec82bb798b02c201f957e8a37754bff2610fc92e366aa6440f5892341dcf",
        "0xf739cdac577bc8dcb0a55efd99dcf75e053e94d4770364d4f6326a218d33fab5",
        "0x9d35b399b50a099e9840e1cd436744fbbbab75ded8a0dc8f8ddc8dbdff73755f",
        "0x7d65a136533f6ca44acbd1d98038b92dc8b8629bbf0b2ff7718486e9afb5141a",
        "0xfc479c9579bd6e849fe030a65e0ea9120d4214bd0b34d75b1ea345af57bfa854"
      ],
      [
        2810,
        "0xb849b93b585effb7ce4b522ff88d9b3b24955f24",
        "1014683816959304767194",
        2
      ]
    ],
    [
      [
        "0xdee3228f497e678fe3eaf11fed9a9d027d73c81b351c8d827b5a6dd29d7161ae",
        "0x57603752f1f3dfcc43bd49495620ee5d07b2ad82c9610dbaf673b62fca82c7ad",
        "0x66640f37df89861700596d718103125d3336aa3d9c868ba9dd68d28c22b525de",
        "0x6ad41e7848e633f64a3df1adb6941be9da43aaf1ec1db1d0c19de6c16d0cbe8e",
        "0x0bdafc4cb61ec1094aaac885c6d8563674be3cb14f999b94a47d61db5479578f"
      ],
      [
        2810,
        "0xf0b444bdc5522e908ff903e3f1730b5ab60b610a",
        "450380261702590031299",
        1
      ]
    ],
    [
      [
        "0xab91a21de39c35701996c47121ba25cc94886f4d5a86467d59bad3a56d76f2eb",
        "0xe50bac2813037739963633d15e21e3a29818f1f15f0290b35ebce1d78cc920f0",
        "0x559e52f85e84421f8301a8f915b18f8b218feb298d76fc53979ad37fb9045a40",
        "0x6af1b4ea31dbc61d662efa41d9a5fe4a76956039c59570f03a5229a275a9e459",
        "0x0bdafc4cb61ec1094aaac885c6d8563674be3cb14f999b94a47d61db5479578f"
      ],
      [
        2810,
        "0x07f5053c867ae107db15a38aa4421b2c24ac4e51",
        "1801521046810360125592",
        2
      ]
    ],
    [
      [
        "0x30ec01ac70af50fd53c7a2c1c710bc8d004a81ae7a40147ef05d156d4952d487",
        "0xb3d924f4aca3332e27ff7a11b7871f5bcd245c49b64355abc8c7170909a34a34",
        "0xc5e596fec79dcea4127c338ac22dd28438e46240f5f6556306f2488339766f13",
        "0x7d65a136533f6ca44acbd1d98038b92dc8b8629bbf0b2ff7718486e9afb5141a",
        "0xfc479c9579bd6e849fe030a65e0ea9120d4214bd0b34d75b1ea345af57bfa854"
      ],
      [
        2810,
        "0x2e46e8d1f3636f7036978d054b0a07e7395053c8",
        "548056109490153656725",
        1
      ]
    ],
    [
      [
        "0xe6be02c339d41410126edd91dbf02d37a7737b9aa90430d8b91309b3e4fd9237",
        "0x57603752f1f3dfcc43bd49495620ee5d07b2ad82c9610dbaf673b62fca82c7ad",
        "0x66640f37df89861700596d718103125d3336aa3d9c868ba9dd68d28c22b525de",
        "0x6ad41e7848e633f64a3df1adb6941be9da43aaf1ec1db1d0c19de6c16d0cbe8e",
        "0x0bdafc4cb61ec1094aaac885c6d8563674be3cb14f999b94a47d61db5479578f"
      ],
      [
        2810,
        "0xe80c39eae57c0359ee6c4086e2b22300353728e1",
        "2192224437960614627308",
        2
      ]
    ],
    [
      [
        "0x1f765243050b8551a160bb2e3139f928b367f8816fc320f87b0730a7c3956fcf",
        "0xceb02509b0812b883c96d5fc3ecfc4118e3995917b7a11ad189349182a7f3ecc",
        "0x9d35b399b50a099e9840e1cd436744fbbbab75ded8a0dc8f8ddc8dbdff73755f",
        "0x7d65a136533f6ca44acbd1d98038b92dc8b8629bbf0b2ff7718486e9afb5141a",
        "0xfc479c9579bd6e849fe030a65e0ea9120d4214bd0b34d75b1ea345af57bfa854"
      ],
      [
        2810,
        "0x0dd018692f98a7894ecc7ba90cfb8f93a19159d3",
        "20869002338942969",
        1
      ]
    ],
    [
      [
        "0x604d888c0072822d68197519ee7a08e8f341f1ecfb2724759e72b08e9e572062",
        "0x408905bc4acf4d5ebff4f6fbf2c78cbe4ee2aafc0d73912bc1c7855a24789578",
        "0x83160fd90d9a0e91338ce57851cea8d8d6864cf95e3f33800576b09bc92d68fe",
        "0xef920bd22659f1a3ba148061262d4cd012ea5657e81f54912a3c923fbfd8cb95",
        "0xfc479c9579bd6e849fe030a65e0ea9120d4214bd0b34d75b1ea345af57bfa854"
      ],
      [
        2810,
        "0x612cff400ee27c91b956c45f4c50e61b55312430",
        "83476009355772021",
        2
      ]
    ],
    [
      [
        "0xadbba0d889ac1443f0aaf78d3e5a2535556575a9a39fabba7a2bffb76e759767",
        "0xe50bac2813037739963633d15e21e3a29818f1f15f0290b35ebce1d78cc920f0",
        "0x559e52f85e84421f8301a8f915b18f8b218feb298d76fc53979ad37fb9045a40",
        "0x6af1b4ea31dbc61d662efa41d9a5fe4a76956039c59570f03a5229a275a9e459",
        "0x0bdafc4cb61ec1094aaac885c6d8563674be3cb14f999b94a47d61db5479578f"
      ],
      [
        2810,
        "0xa6a088c1036f4fd6f022d52630842e19f90405ed",
        "3351874428226600",
        1
      ]
    ],
    [
      [
        "0x287568f2bcfa2c1316b53a6e5da2d839907af95cea80c44c7bda363d96adb76a",
        "0x9fa2e4029f33e99af0e94c9ce53b085e0bd2fa3256d7288ccecdeb2e9946bb9a",
        "0xc5e596fec79dcea4127c338ac22dd28438e46240f5f6556306f2488339766f13",
        "0x7d65a136533f6ca44acbd1d98038b92dc8b8629bbf0b2ff7718486e9afb5141a",
        "0xfc479c9579bd6e849fe030a65e0ea9120d4214bd0b34d75b1ea345af57bfa854"
      ],
      [
        2810,
        "0xddef1deac28e2d91f3d3c682c737cc0ef8489aba",
        "13407497712906607",
        2
      ]
    ],
    [
      [
        "0x9e55fbb8b6689913e73660f3da5c5b308240ce699ae782dbfe05e81cb2353348",
        "0x408905bc4acf4d5ebff4f6fbf2c78cbe4ee2aafc0d73912bc1c7855a24789578",
        "0x83160fd90d9a0e91338ce57851cea8d8d6864cf95e3f33800576b09bc92d68fe",
        "0xef920bd22659f1a3ba148061262d4cd012ea5657e81f54912a3c923fbfd8cb95",
        "0xfc479c9579bd6e849fe030a65e0ea9120d4214bd0b34d75b1ea345af57bfa854"
      ],
      [
        2810,
        "0xf206f9b8bda82301c19a67b3d272f060bbe51e02",
        "3205516014492872",
        1
      ]
    ],
    [
      [
        "0xdf67a24cdee0bf5241ec93dfb6daeefbe2818b1cd22711cb2145f13d1516414b",
        "0xa683617c64889afb9ef77e2dc723bf3564251f7f251104822c88d30828a9f85e",
        "0x6ad41e7848e633f64a3df1adb6941be9da43aaf1ec1db1d0c19de6c16d0cbe8e",
        "0x0bdafc4cb61ec1094aaac885c6d8563674be3cb14f999b94a47d61db5479578f"
      ],
      [
        2810,
        "0x11cef138b1ee96a481dc040842433bfc5229ad70",
        "12822064057971526",
        2
      ]
    ]
  ],
  "noOfWeightBasedClaims": 15,
  "merkleRoot": "0xe0124559ba95612be206951ac00c4b4b79d5795ee3e2e8c55c6206c559b9d38f",
  "abi": {
    "components": [
      {
        "internalType": "uint24",
        "name": "rewardEpochId",
        "type": "uint24"
      },
      {
        "internalType": "bytes20",
        "name": "beneficiary",
        "type": "bytes20"
      },
      {
        "internalType": "uint120",
        "name": "amount",
        "type": "uint120"
      },
      {
        "internalType": "enum IRewardManager.ClaimType",
        "name": "claimType",
        "type": "uint8"
      }
    ],
    "internalType": "struct IRewardManager.RewardClaim",
    "name": "_claim",
    "type": "tuple"
  }
}