{
  "rewardEpochId": 2812,
  "rewardClaims": [
    [
      [
        "0x17fd0c3168a7ddda5f39b10cf32f8095c38af5f006216bf7f9dbeb68f7e1cfec",
        "0xf938b6e35c2f8f9338842a7f2ff54b6e3ed77904cb0ecc62c2d038126db46c24",
        "0xf15f4c56d75c68249cccc9cc11da09bd29cbace1b5befaf9afd0154b8e4743e6",
        "0xb0b6eaf951a1505a290d08b10ad43ea16d048656566c69bdbf704a1fec9ca398",
        "0xde98ac98b971ec6e8dee2e0e6aca5f0379c1191fe49a0c36b9444fd196cd02ea"
      ],
      [
        2812,
        "0xc6cb03a22213a3e02186a3126d47c7fba20e4ef5",
        "643560577126928896937",
        1
      ]
    ],
    [
      [
        "0x0b50403f85944e922bc5581350c932999abee30cdebae8e5f35e9f28c0f27e65",
        "0xc91a92d20dd4a5b5c7ad5973debcc65b149f441d0c1c24e0df98456721dccbd2",
        "0xa298b8c4e663a2dfc879140933d0592a0729766cfd84bc4052ad6a7cc5f92fcc",
        "0xb0b6eaf951a1505a290d08b10ad43ea16d048656566c69bdbf704a1fec9ca398",
        "0xde98ac98b971ec6e8dee2e0e6aca5f0379c1191fe49a0c36b9444fd196cd02ea"
      ],
      [
        2812,
        "0xabaa1718c2d80fc037bf66e3f66f0975d67431a9",
        "2574242308507715588082",
        2
      ]
    ],
    [
      [
        "0x09e7ce908210c055aa328d6636a142f61e8f70770864c1f35122ae7ff34ff33b",
        "0xc91a92d20dd4a5b5c7ad5973debcc65b149f441d0c1c24e0df98456721dccbd2",
        "0xa298b8c4e663a2dfc879140933d0592a0729766cfd84bc4052ad6a7cc5f92fcc",
        "0xb0b6eaf951a1505a290d08b10ad43ea16d048656566c69bdbf704a1fec9ca398",
        "0xde98ac98b971ec6e8dee2e0e6aca5f0379c1191fe49a0c36b9444fd196cd02ea"
      ],
      [
        2812,
        "0xca84d6086c5b32212a0cf1638803355d7be31482",
        "458564604134428340475",
        1
      ]
    ],
    [
      [
        "0xf68c9906cbe8ede565e828718cf22f44c9364e064da9c735db55eea2077d6b70",
        "0xbce9e8275734965bf813e1af628614e4310fb586cf4662b379afd5c8f7437c80",
        "0xbedf1798be310bbd8467610b93c4ce3f983bfb57ea74cee0f26fba6ad87dd968",
        "0x4fbf7f133b382de84b0d446417f3aedfdcbe36c775ade31cc29002c9ddb02fa9",
        "0x35f821861f2b89ecdd8ae3735308772a93eeb5a04178990471ead7522bbe729c"
      ],
      [
        2812,
        "0x55fcf7806f556204141fe90fbe9ce6207d9c52ac",
        "1834258416537713362401",
        2
      ]
    ],
    [
      [
        "0x928231a3cf5c880dcdb70c4dc91a12b436c1ba6d26f9b131ae213b6614599cda",
        "0x186abec5f460cf805b40ac30a2bd3dc97da3e3881d2c24bc4746a94eecbed42e",
        "0xd452628b1f33be1cef08ece67bc866a0a722edeb64334f9129c63f2556eeebed",
        "0x7ed4f07f792a743d420e016c5985ef0d3c1ec7ecc87f7440f1781a37d1b01c56",
        "0x35f821861f2b89ecdd8ae3735308772a93eeb5a04178990471ead7522bbe729c"
      ],
      [
        2812,
        "0x1d415d28380ff51a507f7b176ca5f27833f7fffd",
        "208989204960381229917",
        1
      ]
    ],
    [
      [
        "0xc3577d99228874f35c84b6a06e7cc8edea8bce5e8b4fd4a6da765156a262f924",
        "0x5e25e861336aee8557474d919370a7b9b685f074aacee074d79f7ab9ff3d9d9a",
        "0xce49c5ca9ddff2c08cdf13940f6222a5602eba72489cbcadf2c5269a5e3811a7",
        "0x4fbf7f133b382de84b0d446417f3aedfdcbe36c775ade31cc29002c9ddb02fa9",
        "0x35f821861f2b89ecdd8ae3735308772a93eeb5a04178990471ead7522bbe729c"
      ],
      [
        2812,
        "0xb849b93b585effb7ce4b522ff88d9b3b24955f24",
        "835956819841524919913",
        2
      ]
    ],
    [
      [
        "0x353510067b8c8112f005f99bb629f0a4483c6d5dd3a297c8b184d76596bd7532",
        "0xafe8490b6be1ec36ff6acc685515523d03dc95b0c8f349a4bd21587b0c93277c",
        "0xdac499719069e82ac6cbcbaeb4c7ed8d25905c71de0ebfbc01fb0c9719664777",
        "0x43530214be8955f9b2efbfa64821026138d77bd5756e6148b28cd2b78eeb83a8",
        "0xde98ac98b971ec6e8dee2e0e6aca5f0379c1191fe49a0c36b9444fd196cd02ea"
      ],
      [
        2812,
        "0x000000000000000000000000000000000000dead",
        "16741599065722157771562",
        0
      ]
    ],
    [
      [
        "0x12cdbc6134c0c4c4b66c3e1525fb3a1743c3c4d909c69d0c27f40f2f3b8385eb",
        "0xf938b6e35c2f8f9338842a7f2ff54b6e3ed77904cb0ecc62c2d038126db46c24",
        "0xf15f4c56d75c68249cccc9cc11da09bd29cbace1b5befaf9afd0154b8e4743e6",
        "0xb0b6eaf951a1505a290d08b10ad43ea16d048656566c69bdbf704a1fec9ca398",
        "0xde98ac98b971ec6e8dee2e0e6aca5f0379c1191fe49a0c36b9444fd196cd02ea"
      ],
      [
        2812,
        "0xa17d0877c137a415f91054c5d988489eb6eb28e4",
        "7494131576994262836",
        1
      ]
    ],
    [
      [
        "0xccfafb8add1d658b0d93d16bc04cb1b74cc3fbbc4b13ac56adcb1c937d32b45a",
        "0xe0f0539664cf4624b1cccff3a889b7a4d8e906a4cd81e8434d542e9c703f6f4f",
        "0xbedf1798be310bbd8467610b93c4ce3f983bfb57ea74cee0f26fba6ad87dd968",
        "0x4fbf7f133b382de84b0d446417f3aedfdcbe36c775ade31cc29002c9ddb02fa9",
        "0x35f821861f2b89ecdd8ae3735308772a93eeb5a04178990471ead7522bbe729c"
      ],
      [
        2812,
        "0x3a80da2731efa274f9fce54e42c3e1e1a162e3cc",
        "3707265636110601810818",
        2
      ]
    ],
    [
      [
        "0x390fb47ee0de90454718c3434433f932f9110e9cdc20ffb4492bbe592439ed26",
        "0xafe8490b6be1ec36ff6acc685515523d03dc95b0c8f349a4bd21587b0c93277c",
        "0xdac499719069e82ac6cbcbaeb4c7ed8d25905c71de0ebfbc01fb0c9719664777",
        "0x43530214be8955f9b2efbfa64821026138d77bd5756e6148b28cd2b78eeb83a8",
        "0xde98ac98b971ec6e8dee2e0e6aca5f0379c1191fe49a0c36b9444fd196cd02ea"
      ],
      [
        2812,
        "0x25f42def3fcc078de8895cd01de8ab6514020548",
        "1391308979246950020",
        1
      ]
    ],
    [
      [
        "0x3b287eb7a84abb22a98321da68dc10408adc7dd867802a606758f3d18db437ef",
        "0x876175e400d1d8a24960c810b133913e05560f30d0e9b54cf731e529965ede7c",
        "0x55e9c98b0153b1ed47b89421d95b6e9b79483988f3394a3fc89f6f3dfc4954b6",
        "0x43530214be8955f9b2efbfa64821026138d77bd5756e6148b28cd2b78eeb83a8",
        "0xde98ac98b971ec6e8dee2e0e6aca5f0379c1191fe49a0c36b9444fd196cd02ea"
      ],
      [
        2812,
        "0x256194ca4884dbe2933862f0e9f7e0e4d411eb35",
        "675168155136035249798",
        2
      ]
    ],
    [
      [
        "0xc279ba6fe8e63b701e2fa460c7d33db8e15c80a48b6403fab07320ae78049181",
        "0x5e25e861336aee8557474d919370a7b9b685f074aacee074d79f7ab9ff3d9d9a",
        "0xce49c5ca9ddff2c08cdf13940f6222a5602eba72489cbcadf2c5269a5e3811a7",
        "0x4fbf7f133b382de84b0d446417f3aedfdcbe36c775ade31cc29002c9ddb02fa9",
        "0x35f821861f2b89ecdd8ae3735308772a93eeb5a04178990471ead7522bbe729c"
      ],
      [
        2812,
        "0x0bed169e74037b66a2e1c1a4937c285057773dbb",
        "855232849386535878",
        1
      ]
    ],
    [
      [
        "0xfe78df7b6301bde34730e7126a6e848a241bdefccadb1b0769a1fc6de30216c3",
        "0x00d217c2d38f7d1828c195aa3b3385f3bc17893e4bc2312ed3f7d72dedce5fa4",
        "0xc0cf2faa52aeaa470d1b66540f34a594c9cc050ddd31aace3aa4ec4e0e067f5f",
        "0xa298b8c4e663a2dfc879140933d0592a0729766cfd84bc4052ad6a7cc5f92fcc",
        "0xb0b6eaf951a1505a290d08b10ad43ea16d048656566c69bdbf704a1fec9ca398",
        "0xde98ac98b971ec6e8dee2e0e6aca5f0379c1191fe49a0c36b9444fd196cd02ea"
      ],
      [
        2812,
        "0xbc9a659af696a4d7375b104db8e5189b54f9d2b3",
        "414866757571384579809",
        2
      ]
    ],
    [
      [
        "0x78885e75afcb19abfd3b315c7a0a9ff734b535fda8d083df2810eec62fe05878",
        "0x0b2c85e7492f8dac139b63b860462d8ef39db2a70b7245cc861f99dc0c5f9df7",
        "0x9d741ce1380366231a4a8284f000db82a441f6e39d7e02a37bd0757bb894c705",
        "0x7ed4f07f792a743d420e016c5985ef0d3c1ec7ecc87f7440f1781a37d1b01c56",
        "0x35f821861f2b89ecdd8ae3735308772a93eeb5a04178990471ead7522bbe729c"
      ],
      [
        2812,
        "0xf355c48aab6ac9f6ed4e1750a34690f4d28cb30e",
        "186208551414905383",
        1
      ]
    ],
    [
      [
        "0xbf9a752e4f7b49184ce9f370dd9c1480568558a639c82f643be90f1d6dd24d78",
        "0x567e8d610b4bdd69328c0f3fc21827e8c5f21dd9ef5168a0585f81dc754ffdc0",
        "0xce49c5ca9ddff2c08cdf13940f6222a5602eba72489cbcadf2c5269a5e3811a7",
        "0x4fbf7f133b382de84b0d446417f3aedfdcbe36c775ade31cc29002c9ddb02fa9",
        "0x35f821861f2b89ecdd8ae3735308772a93eeb5a04178990471ead7522bbe729c"
      ],
      [
        2812,
        "0xb13a59ecfbbec4d4539be101c5f15521ca23c8ee",
        "92691119473827138149",
        2
      ]
    ],
    [
      [
        "0x7142ac785f8f6e4fec3626999fadf9c5fc632c6887fbad7617e49ec32cdcafc1",
        "0xa5ae2abcd9b34e5adbbe71519e6f194c3777414e38c18be5926acb1b1792d312",
        "0x9d741ce1380366231a4a8284f000db82a441f6e39d7e02a37bd0757bb894c705",
        "0x7ed4f07f792a743d420e016c5985ef0d3c1ec7ecc87f7440f1781a37d1b01c56",
        "0x35f821861f2b89ecdd8ae3735308772a93eeb5a04178990471ead7522bbe729c"
      ],
      [
        2812,
        "0xadf3a9a6494b8c1a24f0eec5d44a388afc10df09",
        "255020597742391320",
        1
      ]
    ],
    [
      [
        "0xbdf227b9128611d531dafe3148f6087da41eff18fca143fcaa515f7278b81290",
        "0xbfa45429c6c3a4943fc4b087b8f60db6a985e688a19241f8f0b76685059107ab",
        "0xd452628b1f33be1cef08ece67bc866a0a722edeb64334f9129c63f2556eeebed",
        "0x7ed4f07f792a743d420e016c5985ef0d3c1ec7ecc87f7440f1781a37d1b01c56",
        "0x35f821861f2b89ecdd8ae3735308772a93eeb5a04178990471ead7522bbe729c"
      ],
      [
        2812,
        "0xf75a67d060f28f269d3f7a51fdb2859e7d6a4d78",
        "123643725834533380834",
        2
      ]
    ],
    [
      [
        "0x34ea9afb5006c959e6315e9e4fb899a454b85f85ca9d4b47ac50c8ef391b5f4e",
        "0xace7d58b4c99f416187ad6f34cd7d45dbe817657ec48173aa263f179de039a04",
        "0xdac499719069e82ac6cbcbaeb4c7ed8d25905c71de0ebfbc01fb0c9719664777",
        "0x43530214be8955f9b2efbfa64821026138d77bd5756e6148b28cd2b78eeb83a8",
        "0xde98ac98b971ec6e8dee2e0e6aca5f0379c1191fe49a0c36b9444fd196cd02ea"
      ],
      [
        2812,
        "0xf0b444bdc5522e908ff903e3f1730b5ab60b610a",
        "627410851336888229507",
        1
      ]
    ],
    [
      [
        "0x2f310d521d1bce2bb08f5f65dc16a8fc0f7929680d6f3a0cb2da8dce3a18fae9",
        "0x71eff330d557cbe0ce8adbe42048251a964b0cfee640306b615322507d63a3d2",
        "0xf15f4c56d75c68249cccc9cc11da09bd29cbace1b5befaf9afd0154b8e4743e6",
        "0xb0b6eaf951a1505a290d08b10ad43ea16d048656566c69bdbf704a1fec9ca398",
        "0xde98ac98b971ec6e8dee2e0e6aca5f0379c1191fe49a0c36b9444fd196cd02ea"
      ],
      [
        2812,
        "0x07f5053c867ae107db15a38aa4421b2c24ac4e51",
        "2509643405347552918418",
        2
      ]
    ],
    [
      [
        "0xfdc382952dcfcb46e39f01bb761637aa3e72785bf52b7dd8311b44ee201a1de7",
        "0x00d217c2d38f7d1828c195aa3b3385f3bc17893e4bc2312ed3f7d72dedce5fa4",
        "0xc0cf2faa52aeaa470d1b66540f34a594c9cc050ddd31aace3aa4ec4e0e067f5f",
        "0xa298b8c4e663a2dfc879140933d0592a0729766cfd84bc4052ad6a7cc5f92fcc",
        "0xb0b6eaf951a1505a290d08b10ad43ea16d048656566c69bdbf704a1fec9ca398",
        "0xde98ac98b971ec6e8dee2e0e6aca5f0379c1191fe49a0c36b9444fd196cd02ea"
      ],
      [
        2812,
        "0x2e46e8d1f3636f7036978d054b0a07e7395053c8",
        "600418643276688918211",
        1
      ]
    ],
    [
      [
        "0x2c6eb4e71005a9df7d806993bfe0103a85ce3fce3ff5ed917126787cec3e3a45",
        "0xc0cf2faa52aeaa470d1b66540f34a594c9cc050ddd31aace3aa4ec4e0e067f5f",
        "0xa298b8c4e663a2dfc879140933d0592a0729766cfd84bc4052ad6a7cc5f92fcc",
        "0xb0b6eaf951a1505a290d08b10ad43ea16d048656566c69bdbf704a1fec9ca398",
        "0xde98ac98b971ec6e8dee2e0e6aca5f0379c1191fe49a0c36b9444fd196cd02ea"
      ],
      [
        2812,
        "0xe80c39eae57c0359ee6c4086e2b22300353728e1",
        "2401674573106755673299",
        2
      ]
    ],
    [
      [
        "0xa9966883eff0d5f41579aa7619db0ccb0cf863d50b41179a1203ae0eb826f7b0",
        "0xbfa45429c6c3a4943fc4b087b8f60db6a985e688a19241f8f0b76685059107ab",
        "0xd452628b1f33be1cef08ece67bc866a0a722edeb64334f9129c63f2556eeebed",
        "0x7ed4f07f792a743d420e016c5985ef0d3c1ec7ecc87f7440f1781a37d1b01c56",
        "0x35f821861f2b89ecdd8ae3735308772a93eeb5a04178990471ead7522bbe729c"
      ],
      [
        2812,
        "0x437d15fad24dc5fe77384c34e24ee0b4c2607d79",
        "109430053133687388",
        1
      ]
    ],
    [
      [
        "0xfb57688cb7d0063c1798364e71c7eba89fd020bae8d2a2f43b78d40405eaddcf",
        "0xbce9e8275734965bf813e1af628614e4310fb586cf4662b379afd5c8f7437c80",
        "0xbedf1798be310bbd8467610b93c4ce3f983bfb57ea74cee0f26fba6ad87dd968",
        "0x4fbf7f133b382de84b0d446417f3aedfdcbe36c775ade31cc29002c9ddb02fa9",
        "0x35f821861f2b89ecdd8ae3735308772a93eeb5a04178990471ead7522bbe729c"
      ],
      [
        2812,
        "0xd88833424225068867309e0ec02999883c14dc77",
        "53754932469561548040",
        2
      ]
    ],
    [
      [
        "0xe838a737da812d21be935548260ed843968d32018c956a07f10f9f98d401dc07",
        "0xe0f0539664cf4624b1cccff3a889b7a4d8e906a4cd81e8434d542e9c703f6f4f",
        "0xbedf1798be310bbd8467610b93c4ce3f983bfb57ea74cee0f26fba6ad87dd968",
        "0x4fbf7f133b382de84b0d446417f3aedfdcbe36c775ade31cc29002c9ddb02fa9",
        "0x35f821861f2b89ecdd8ae3735308772a93eeb5a04178990471ead7522bbe729c"
      ],
      [
        2812,
        "0x19b6fde072fd962dd191e5d17121a6733d7e1977",
        "391837349404081296",
        1
      ]
    ],
    [
      [
        "0x806a5f83cfed40662aef40e8bf138a5b7018e997d0be19fba7bbfeafcbf73572",
        "0x0b2c85e7492f8dac139b63b860462d8ef39db2a70b7245cc861f99dc0c5f9df7",
        "0x9d741ce1380366231a4a8284f000db82a441f6e39d7e02a37bd0757bb894c705",
        "0x7ed4f07f792a743d420e016c5985ef0d3c1ec7ecc87f7440f1781a37d1b01c56",
        "0x35f821861f2b89ecdd8ae3735308772a93eeb5a04178990471ead7522bbe729c"
      ],
      [
        2812,
        "0x9faacf0334c62fcd9b2ead3dde72febce796859d",
        "195526837352637209881",
        2
      ]
    ],
    [
      [
        "0xbe56e6b00381e3705a9752d585890a5900d29edde9b25fefe728a2ee03604f49",
        "0x567e8d610b4bdd69328c0f3fc21827e8c5f21dd9ef5168a0585f81dc754ffdc0",
        "0xce49c5ca9ddff2c08cdf13940f6222a5602eba72489cbcadf2c5269a5e3811a7",
        "0x4fbf7f133b382de84b0d446417f3aedfdcbe36c775ade31cc29002c9ddb02fa9",
        "0x35f821861f2b89ecdd8ae3735308772a93eeb5a04178990471ead7522bbe729c"
      ],
      [
        2812,
        "0x9181f8ed4381ce39dbf4b8336b6295de89527c46",
        "340254403989125064",
        1
      ]
    ],
    [
      [
        "0x76ff3d7716473c3a08a8e2c2a17551891edb39697fa44e32b73104aa07c825c2",
        "0xa5ae2abcd9b34e5adbbe71519e6f194c3777414e38c18be5926acb1b1792d312",
        "0x9d741ce1380366231a4a8284f000db82a441f6e39d7e02a37bd0757bb894c705",
        "0x7ed4f07f792a743d420e016c5985ef0d3c1ec7ecc87f7440f1781a37d1b01c56",
        "0x35f821861f2b89ecdd8ae3735308772a93eeb5a04178990471ead7522bbe729c"
      ],
      [
        2812,
        "0x884cde7b5f2f0a9ee28f90ce1d4aa526373b3e2c",
        "168820252416535032677",
        2
      ]
    ],
    [
      [
        "0xa04ad7228cceb0436c9302eb9e282e7488529d95c94ba189a2d80fc797ad9ddd",
        "0x186abec5f460cf805b40ac30a2bd3dc97da3e3881d2c24bc4746a94eecbed42e",
        "0xd452628b1f33be1cef08ece67bc866a0a722edeb64334f9129c63f2556eeebed",
        "0x7ed4f07f792a743d420e016c5985ef0d3c1ec7ecc87f7440f1781a37d1b01c56",
        "0x35f821861f2b89ecdd8ae3735308772a93eeb5a04178990471ead7522bbe729c"
      ],
      [
        2812,
        "0x0dd018692f98a7894ecc7ba90cfb8f93a19159d3",
        "16339106925493120740",
        1
      ]
    ],
    [
      [
        "0x5f9d508212efa68a0754c93fd43ddc0e8415ef1364d8a07ee296f1fbefebba3a",
        "0x725a621c5ab03bc99dd02c5a06439b9dd9133683899fd9488144bd1d89b40c3d",
        "0x55e9c98b0153b1ed47b89421d95b6e9b79483988f3394a3fc89f6f3dfc4954b6",
        "0x43530214be8955f9b2efbfa64821026138d77bd5756e6148b28cd2b78eeb83a8",
        "0xde98ac98b971ec6e8dee2e0e6aca5f0379c1191fe49a0c36b9444fd196cd02ea"
      ],
      [
        2812,
        "0x612cff400ee27c91b956c45f4c50e61b55312430",
        "65356427701972483201",
        2
      ]
    ],
    [
      [
        "0x2387bf4f5c86584d9ad5b7b3deb2c20baa54082275cd356a28f6a4f6387494ab",
        "0x71eff330d557cbe0ce8adbe42048251a964b0cfee640306b615322507d63a3d2",
        "0xf15f4c56d75c68249cccc9cc11da09bd29cbace1b5befaf9afd0154b8e4743e6",
        "0xb0b6eaf951a1505a290d08b10ad43ea16d048656566c69bdbf704a1fec9ca398",
        "0xde98ac98b971ec6e8dee2e0e6aca5f0379c1191fe49a0c36b9444fd196cd02ea"
      ],
      [
        2812,
        "0xa6a088c1036f4fd6f022d52630842e19f90405ed",
        "3927975952342186",
        1
      ]
    ],
    [
      [
        "0x343370d2e459bc70102829b3477350b4f3e645a21b6f73bb650ebac9bcd4ff2a",
        "0xace7d58b4c99f416187ad6f34cd7d45dbe817657ec48173aa263f179de039a04",
        "0xdac499719069e82ac6cbcbaeb4c7ed8d25905c71de0ebfbc01fb0c9719664777",
        "0x43530214be8955f9b2efbfa64821026138d77bd5756e6148b28cd2b78eeb83a8",
        "0xde98ac98b971ec6e8dee2e0e6aca5f0379c1191fe49a0c36b9444fd196cd02ea"
      ],
      [
        2812,
        "0xddef1deac28e2d91f3d3c682c737cc0ef8489aba",
        "15711903809368901",
        2
      ]
    ],
    [
      [
        "0x4391b19399138232300a2ac3c9f0091f5217d407c5021af615a346fc503c92b8",
        "0x876175e400d1d8a24960c810b133913e05560f30d0e9b54cf731e529965ede7c",
        "0x55e9c98b0153b1ed47b89421d95b6e9b79483988f3394a3fc89f6f3dfc4954b6",
        "0x43530214be8955f9b2efbfa64821026138d77bd5756e6148b28cd2b78eeb83a8",
        "0xde98ac98b971ec6e8dee2e0e6aca5f0379c1191fe49a0c36b9444fd196cd02ea"
      ],
      [
        2812,
        "0xf206f9b8bda82301c19a67b3d272f060bbe51e02",
        "6934869266686910",
        1
      ]
    ],
    [
      [
        "0x6f7663561ab094faa5af0de87b6729b8960e0ce47f40bb29c068dfd3c8d249d0",
        "0x725a621c5ab03bc99dd02c5a06439b9dd9133683899fd9488144bd1d89b40c3d",
        "0x55e9c98b0153b1ed47b89421d95b6e9b79483988f3394a3fc89f6f3dfc4954b6",
        "0x43530214be8955f9b2efbfa64821026138d77bd5756e6148b28cd2b78eeb83a8",
        "0xde98ac98b971ec6e8dee2e0e6aca5f0379c1191fe49a0c36b9444fd196cd02ea"
      ],
      [
        2812,
        "0x11cef138b1ee96a481dc040842433bfc5229ad70",
        "27739477066747710",
        2
      ]
    ]
  ],
  "noOfWeightBasedClaims": 16,
  "merkleRoot": "0xff7eb465ba090223d6cf8df068212147ffb18d2c52c715c43bd1d81d62e58175",
  "abi": {
    "components": [
      {
        "internalType": "uint24",
        "name": "rewardEpochId",
        "type": "uint24"
      },
      {
        "internalType": "bytes20",
        "name": "beneficiary",
        "type": "bytes20"
      },
      {
        "internalType": "uint120",
        "name": "amount",
        "type": "uint120"
      },
      {
        "internalType": "enum IRewardManager.ClaimType",
        "name": "claimType",
        "type": "uint8"
      }
    ],
    "internalType": "struct IRewardManager.RewardClaim",
    "name": "_claim",
    "type": "tuple"
  }
}